mc16_13TeV.301000.PowhegPythia8EvtGen_AZNLOCTEQ6L1_DYee_120M180.merge.EVNT.e3649_e5984
mc16_13TeV.301001.PowhegPythia8EvtGen_AZNLOCTEQ6L1_DYee_180M250.merge.EVNT.e3649_e5984
mc16_13TeV.301002.PowhegPythia8EvtGen_AZNLOCTEQ6L1_DYee_250M400.merge.EVNT.e3649_e5984
mc16_13TeV.301003.PowhegPythia8EvtGen_AZNLOCTEQ6L1_DYee_400M600.merge.EVNT.e3649_e5984
mc16_13TeV.301004.PowhegPythia8EvtGen_AZNLOCTEQ6L1_DYee_600M800.merge.EVNT.e3649_e5984
mc16_13TeV.301005.PowhegPythia8EvtGen_AZNLOCTEQ6L1_DYee_800M1000.merge.EVNT.e3649_e5984
mc16_13TeV.301006.PowhegPythia8EvtGen_AZNLOCTEQ6L1_DYee_1000M1250.merge.EVNT.e3649_e5984
mc16_13TeV.301007.PowhegPythia8EvtGen_AZNLOCTEQ6L1_DYee_1250M1500.merge.EVNT.e3649_e5984
mc16_13TeV.301008.PowhegPythia8EvtGen_AZNLOCTEQ6L1_DYee_1500M1750.merge.EVNT.e3649_e5984
mc16_13TeV.301009.PowhegPythia8EvtGen_AZNLOCTEQ6L1_DYee_1750M2000.merge.EVNT.e3649_e5984
mc16_13TeV.301010.PowhegPythia8EvtGen_AZNLOCTEQ6L1_DYee_2000M2250.merge.EVNT.e3649_e5984
mc16_13TeV.301011.PowhegPythia8EvtGen_AZNLOCTEQ6L1_DYee_2250M2500.merge.EVNT.e3649_e5984
mc16_13TeV.301012.PowhegPythia8EvtGen_AZNLOCTEQ6L1_DYee_2500M2750.merge.EVNT.e3649_e5984
mc16_13TeV.301013.PowhegPythia8EvtGen_AZNLOCTEQ6L1_DYee_2750M3000.merge.EVNT.e3649_e5984
mc16_13TeV.301014.PowhegPythia8EvtGen_AZNLOCTEQ6L1_DYee_3000M3500.merge.EVNT.e3649_e5984
mc16_13TeV.301015.PowhegPythia8EvtGen_AZNLOCTEQ6L1_DYee_3500M4000.merge.EVNT.e3649_e5984
mc16_13TeV.301016.PowhegPythia8EvtGen_AZNLOCTEQ6L1_DYee_4000M4500.merge.EVNT.e3649_e5984
mc16_13TeV.301017.PowhegPythia8EvtGen_AZNLOCTEQ6L1_DYee_4500M5000.merge.EVNT.e3649_e5984
mc16_13TeV.301018.PowhegPythia8EvtGen_AZNLOCTEQ6L1_DYee_5000M.merge.EVNT.e3649_e5984
mc16_13TeV.301020.PowhegPythia8EvtGen_AZNLOCTEQ6L1_DYmumu_120M180.merge.EVNT.e3649_e5984
mc16_13TeV.301021.PowhegPythia8EvtGen_AZNLOCTEQ6L1_DYmumu_180M250.merge.EVNT.e3649_e5984
mc16_13TeV.301022.PowhegPythia8EvtGen_AZNLOCTEQ6L1_DYmumu_250M400.merge.EVNT.e3649_e5984
mc16_13TeV.301023.PowhegPythia8EvtGen_AZNLOCTEQ6L1_DYmumu_400M600.merge.EVNT.e3649_e5984
mc16_13TeV.301024.PowhegPythia8EvtGen_AZNLOCTEQ6L1_DYmumu_600M800.merge.EVNT.e3649_e5984
mc16_13TeV.301025.PowhegPythia8EvtGen_AZNLOCTEQ6L1_DYmumu_800M1000.merge.EVNT.e3649_e5984
mc16_13TeV.301026.PowhegPythia8EvtGen_AZNLOCTEQ6L1_DYmumu_1000M1250.merge.EVNT.e3649_e5984
mc16_13TeV.301027.PowhegPythia8EvtGen_AZNLOCTEQ6L1_DYmumu_1250M1500.merge.EVNT.e3649_e5984
mc16_13TeV.301028.PowhegPythia8EvtGen_AZNLOCTEQ6L1_DYmumu_1500M1750.merge.EVNT.e3649_e5984
mc16_13TeV.301029.PowhegPythia8EvtGen_AZNLOCTEQ6L1_DYmumu_1750M2000.merge.EVNT.e3649_e5984
mc16_13TeV.301030.PowhegPythia8EvtGen_AZNLOCTEQ6L1_DYmumu_2000M2250.merge.EVNT.e3649_e5984
mc16_13TeV.301031.PowhegPythia8EvtGen_AZNLOCTEQ6L1_DYmumu_2250M2500.merge.EVNT.e3649_e5984
mc16_13TeV.301032.PowhegPythia8EvtGen_AZNLOCTEQ6L1_DYmumu_2500M2750.merge.EVNT.e3649_e5984
mc16_13TeV.301033.PowhegPythia8EvtGen_AZNLOCTEQ6L1_DYmumu_2750M3000.merge.EVNT.e3649_e5984
mc16_13TeV.301034.PowhegPythia8EvtGen_AZNLOCTEQ6L1_DYmumu_3000M3500.merge.EVNT.e3649_e5984
mc16_13TeV.301035.PowhegPythia8EvtGen_AZNLOCTEQ6L1_DYmumu_3500M4000.merge.EVNT.e3649_e5984
mc16_13TeV.301036.PowhegPythia8EvtGen_AZNLOCTEQ6L1_DYmumu_4000M4500.merge.EVNT.e3649_e5984
mc16_13TeV.301037.PowhegPythia8EvtGen_AZNLOCTEQ6L1_DYmumu_4500M5000.merge.EVNT.e3649_e5984
mc16_13TeV.301038.PowhegPythia8EvtGen_AZNLOCTEQ6L1_DYmumu_5000M.merge.EVNT.e3649_e5984
mc16_13TeV.301040.PowhegPythia8EvtGen_AZNLOCTEQ6L1_DYtautau_120M180.merge.EVNT.e3649_e5984
mc16_13TeV.301041.PowhegPythia8EvtGen_AZNLOCTEQ6L1_DYtautau_180M250.merge.EVNT.e3649_e5984
mc16_13TeV.301042.PowhegPythia8EvtGen_AZNLOCTEQ6L1_DYtautau_250M400.merge.EVNT.e3649_e5984
mc16_13TeV.301043.PowhegPythia8EvtGen_AZNLOCTEQ6L1_DYtautau_400M600.merge.EVNT.e3649_e5984
mc16_13TeV.301044.PowhegPythia8EvtGen_AZNLOCTEQ6L1_DYtautau_600M800.merge.EVNT.e3649_e5984
mc16_13TeV.301045.PowhegPythia8EvtGen_AZNLOCTEQ6L1_DYtautau_800M1000.merge.EVNT.e3649_e5984
mc16_13TeV.301046.PowhegPythia8EvtGen_AZNLOCTEQ6L1_DYtautau_1000M1250.merge.EVNT.e3649_e5984
mc16_13TeV.301047.PowhegPythia8EvtGen_AZNLOCTEQ6L1_DYtautau_1250M1500.merge.EVNT.e3649_e5984
mc16_13TeV.301048.PowhegPythia8EvtGen_AZNLOCTEQ6L1_DYtautau_1500M1750.merge.EVNT.e3649_e5984
mc16_13TeV.301049.PowhegPythia8EvtGen_AZNLOCTEQ6L1_DYtautau_1750M2000.merge.EVNT.e3649_e5984
mc16_13TeV.301050.PowhegPythia8EvtGen_AZNLOCTEQ6L1_DYtautau_2000M2250.merge.EVNT.e3649_e5984
mc16_13TeV.301051.PowhegPythia8EvtGen_AZNLOCTEQ6L1_DYtautau_2250M2500.merge.EVNT.e3649_e5984
mc16_13TeV.301052.PowhegPythia8EvtGen_AZNLOCTEQ6L1_DYtautau_2500M2750.merge.EVNT.e3649_e5984
mc16_13TeV.301053.PowhegPythia8EvtGen_AZNLOCTEQ6L1_DYtautau_2750M3000.merge.EVNT.e3649_e5984
mc16_13TeV.301054.PowhegPythia8EvtGen_AZNLOCTEQ6L1_DYtautau_3000M3500.merge.EVNT.e3649_e5984
mc16_13TeV.301055.PowhegPythia8EvtGen_AZNLOCTEQ6L1_DYtautau_3500M4000.merge.EVNT.e3649_e5984
mc16_13TeV.301056.PowhegPythia8EvtGen_AZNLOCTEQ6L1_DYtautau_4000M4500.merge.EVNT.e3649_e5984
mc16_13TeV.301057.PowhegPythia8EvtGen_AZNLOCTEQ6L1_DYtautau_4500M5000.merge.EVNT.e3649_e5984
mc16_13TeV.301058.PowhegPythia8EvtGen_AZNLOCTEQ6L1_DYtautau_5000M.merge.EVNT.e3649_e5984
mc16_13TeV.301060.PowhegPythia8EvtGen_AZNLOCTEQ6L1_Wplusenu_120M180.merge.EVNT.e3663_e5984
mc16_13TeV.301061.PowhegPythia8EvtGen_AZNLOCTEQ6L1_Wplusenu_180M250.merge.EVNT.e3663_e5984
mc16_13TeV.301062.PowhegPythia8EvtGen_AZNLOCTEQ6L1_Wplusenu_250M400.merge.EVNT.e3663_e5984
mc16_13TeV.301063.PowhegPythia8EvtGen_AZNLOCTEQ6L1_Wplusenu_400M600.merge.EVNT.e3663_e5984
mc16_13TeV.301064.PowhegPythia8EvtGen_AZNLOCTEQ6L1_Wplusenu_600M800.merge.EVNT.e3663_e5984
mc16_13TeV.301065.PowhegPythia8EvtGen_AZNLOCTEQ6L1_Wplusenu_800M1000.merge.EVNT.e3663_e5984
mc16_13TeV.301066.PowhegPythia8EvtGen_AZNLOCTEQ6L1_Wplusenu_1000M1250.merge.EVNT.e3663_e5984
mc16_13TeV.301067.PowhegPythia8EvtGen_AZNLOCTEQ6L1_Wplusenu_1250M1500.merge.EVNT.e3663_e5984
mc16_13TeV.301068.PowhegPythia8EvtGen_AZNLOCTEQ6L1_Wplusenu_1500M1750.merge.EVNT.e3663_e5984
mc16_13TeV.301069.PowhegPythia8EvtGen_AZNLOCTEQ6L1_Wplusenu_1750M2000.merge.EVNT.e3663_e5984
mc16_13TeV.301070.PowhegPythia8EvtGen_AZNLOCTEQ6L1_Wplusenu_2000M2250.merge.EVNT.e3663_e5984
mc16_13TeV.301071.PowhegPythia8EvtGen_AZNLOCTEQ6L1_Wplusenu_2250M2500.merge.EVNT.e3663_e5984
mc16_13TeV.301072.PowhegPythia8EvtGen_AZNLOCTEQ6L1_Wplusenu_2500M2750.merge.EVNT.e3663_e5984
mc16_13TeV.301073.PowhegPythia8EvtGen_AZNLOCTEQ6L1_Wplusenu_2750M3000.merge.EVNT.e3663_e5984
mc16_13TeV.301074.PowhegPythia8EvtGen_AZNLOCTEQ6L1_Wplusenu_3000M3500.merge.EVNT.e3663_e5984
mc16_13TeV.301075.PowhegPythia8EvtGen_AZNLOCTEQ6L1_Wplusenu_3500M4000.merge.EVNT.e3663_e5984
mc16_13TeV.301076.PowhegPythia8EvtGen_AZNLOCTEQ6L1_Wplusenu_4000M4500.merge.EVNT.e3663_e5984
mc16_13TeV.301077.PowhegPythia8EvtGen_AZNLOCTEQ6L1_Wplusenu_4500M5000.merge.EVNT.e3663_e5984
mc16_13TeV.301078.PowhegPythia8EvtGen_AZNLOCTEQ6L1_Wplusenu_5000M.merge.EVNT.e3663_e5984
mc16_13TeV.301080.PowhegPythia8EvtGen_AZNLOCTEQ6L1_Wminenu_120M180.merge.EVNT.e3663_e5984
mc16_13TeV.301081.PowhegPythia8EvtGen_AZNLOCTEQ6L1_Wminenu_180M250.merge.EVNT.e3663_e5984
mc16_13TeV.301082.PowhegPythia8EvtGen_AZNLOCTEQ6L1_Wminenu_250M400.merge.EVNT.e3663_e5984
mc16_13TeV.301083.PowhegPythia8EvtGen_AZNLOCTEQ6L1_Wminenu_400M600.merge.EVNT.e3663_e5984
mc16_13TeV.301084.PowhegPythia8EvtGen_AZNLOCTEQ6L1_Wminenu_600M800.merge.EVNT.e3663_e5984
mc16_13TeV.301085.PowhegPythia8EvtGen_AZNLOCTEQ6L1_Wminenu_800M1000.merge.EVNT.e3663_e5984
mc16_13TeV.301086.PowhegPythia8EvtGen_AZNLOCTEQ6L1_Wminenu_1000M1250.merge.EVNT.e3663_e5984
mc16_13TeV.301087.PowhegPythia8EvtGen_AZNLOCTEQ6L1_Wminenu_1250M1500.merge.EVNT.e3663_e5984
mc16_13TeV.301088.PowhegPythia8EvtGen_AZNLOCTEQ6L1_Wminenu_1500M1750.merge.EVNT.e3663_e5984
mc16_13TeV.301089.PowhegPythia8EvtGen_AZNLOCTEQ6L1_Wminenu_1750M2000.merge.EVNT.e3663_e5984
mc16_13TeV.301090.PowhegPythia8EvtGen_AZNLOCTEQ6L1_Wminenu_2000M2250.merge.EVNT.e3663_e5984
mc16_13TeV.301091.PowhegPythia8EvtGen_AZNLOCTEQ6L1_Wminenu_2250M2500.merge.EVNT.e3663_e5984
mc16_13TeV.301092.PowhegPythia8EvtGen_AZNLOCTEQ6L1_Wminenu_2500M2750.merge.EVNT.e3663_e5984
mc16_13TeV.301093.PowhegPythia8EvtGen_AZNLOCTEQ6L1_Wminenu_2750M3000.merge.EVNT.e3663_e5984
mc16_13TeV.301094.PowhegPythia8EvtGen_AZNLOCTEQ6L1_Wminenu_3000M3500.merge.EVNT.e3663_e5984
mc16_13TeV.301095.PowhegPythia8EvtGen_AZNLOCTEQ6L1_Wminenu_3500M4000.merge.EVNT.e3663_e5984
mc16_13TeV.301096.PowhegPythia8EvtGen_AZNLOCTEQ6L1_Wminenu_4000M4500.merge.EVNT.e3663_e5984
mc16_13TeV.301097.PowhegPythia8EvtGen_AZNLOCTEQ6L1_Wminenu_4500M5000.merge.EVNT.e3663_e5984
mc16_13TeV.301098.PowhegPythia8EvtGen_AZNLOCTEQ6L1_Wminenu_5000M.merge.EVNT.e3663_e5984
mc16_13TeV.301100.PowhegPythia8EvtGen_AZNLOCTEQ6L1_Wplusmunu_120M180.merge.EVNT.e3663_e5984
mc16_13TeV.301101.PowhegPythia8EvtGen_AZNLOCTEQ6L1_Wplusmunu_180M250.merge.EVNT.e3663_e5984
mc16_13TeV.301102.PowhegPythia8EvtGen_AZNLOCTEQ6L1_Wplusmunu_250M400.merge.EVNT.e3663_e5984
mc16_13TeV.301103.PowhegPythia8EvtGen_AZNLOCTEQ6L1_Wplusmunu_400M600.merge.EVNT.e3663_e5984
mc16_13TeV.301104.PowhegPythia8EvtGen_AZNLOCTEQ6L1_Wplusmunu_600M800.merge.EVNT.e3663_e5984
mc16_13TeV.301105.PowhegPythia8EvtGen_AZNLOCTEQ6L1_Wplusmunu_800M1000.merge.EVNT.e3663_e5984
mc16_13TeV.301106.PowhegPythia8EvtGen_AZNLOCTEQ6L1_Wplusmunu_1000M1250.merge.EVNT.e3663_e5984
mc16_13TeV.301107.PowhegPythia8EvtGen_AZNLOCTEQ6L1_Wplusmunu_1250M1500.merge.EVNT.e3663_e5984
mc16_13TeV.301108.PowhegPythia8EvtGen_AZNLOCTEQ6L1_Wplusmunu_1500M1750.merge.EVNT.e3663_e5984
mc16_13TeV.301109.PowhegPythia8EvtGen_AZNLOCTEQ6L1_Wplusmunu_1750M2000.merge.EVNT.e3663_e5984
mc16_13TeV.301110.PowhegPythia8EvtGen_AZNLOCTEQ6L1_Wplusmunu_2000M2250.merge.EVNT.e3663_e5984
mc16_13TeV.301111.PowhegPythia8EvtGen_AZNLOCTEQ6L1_Wplusmunu_2250M2500.merge.EVNT.e3663_e5984
mc16_13TeV.301112.PowhegPythia8EvtGen_AZNLOCTEQ6L1_Wplusmunu_2500M2750.merge.EVNT.e3663_e5984
mc16_13TeV.301113.PowhegPythia8EvtGen_AZNLOCTEQ6L1_Wplusmunu_2750M3000.merge.EVNT.e3663_e5984
mc16_13TeV.301114.PowhegPythia8EvtGen_AZNLOCTEQ6L1_Wplusmunu_3000M3500.merge.EVNT.e3663_e5984
mc16_13TeV.301115.PowhegPythia8EvtGen_AZNLOCTEQ6L1_Wplusmunu_3500M4000.merge.EVNT.e3663_e5984
mc16_13TeV.301116.PowhegPythia8EvtGen_AZNLOCTEQ6L1_Wplusmunu_4000M4500.merge.EVNT.e3663_e5984
mc16_13TeV.301117.PowhegPythia8EvtGen_AZNLOCTEQ6L1_Wplusmunu_4500M5000.merge.EVNT.e3663_e5984
mc16_13TeV.301118.PowhegPythia8EvtGen_AZNLOCTEQ6L1_Wplusmunu_5000M.merge.EVNT.e3663_e5984
mc16_13TeV.301120.PowhegPythia8EvtGen_AZNLOCTEQ6L1_Wminmunu_120M180.merge.EVNT.e3663_e5984
mc16_13TeV.301121.PowhegPythia8EvtGen_AZNLOCTEQ6L1_Wminmunu_180M250.merge.EVNT.e3663_e5984
mc16_13TeV.301122.PowhegPythia8EvtGen_AZNLOCTEQ6L1_Wminmunu_250M400.merge.EVNT.e3663_e5984
mc16_13TeV.301123.PowhegPythia8EvtGen_AZNLOCTEQ6L1_Wminmunu_400M600.merge.EVNT.e3663_e5984
mc16_13TeV.301124.PowhegPythia8EvtGen_AZNLOCTEQ6L1_Wminmunu_600M800.merge.EVNT.e3663_e5984
mc16_13TeV.301125.PowhegPythia8EvtGen_AZNLOCTEQ6L1_Wminmunu_800M1000.merge.EVNT.e3663_e5984
mc16_13TeV.301126.PowhegPythia8EvtGen_AZNLOCTEQ6L1_Wminmunu_1000M1250.merge.EVNT.e3663_e5984
mc16_13TeV.301127.PowhegPythia8EvtGen_AZNLOCTEQ6L1_Wminmunu_1250M1500.merge.EVNT.e3663_e5984
mc16_13TeV.301128.PowhegPythia8EvtGen_AZNLOCTEQ6L1_Wminmunu_1500M1750.merge.EVNT.e3663_e5984
mc16_13TeV.301129.PowhegPythia8EvtGen_AZNLOCTEQ6L1_Wminmunu_1750M2000.merge.EVNT.e3663_e5984
mc16_13TeV.301130.PowhegPythia8EvtGen_AZNLOCTEQ6L1_Wminmunu_2000M2250.merge.EVNT.e3663_e5984
mc16_13TeV.301131.PowhegPythia8EvtGen_AZNLOCTEQ6L1_Wminmunu_2250M2500.merge.EVNT.e3663_e5984
mc16_13TeV.301132.PowhegPythia8EvtGen_AZNLOCTEQ6L1_Wminmunu_2500M2750.merge.EVNT.e3663_e5984
mc16_13TeV.301133.PowhegPythia8EvtGen_AZNLOCTEQ6L1_Wminmunu_2750M3000.merge.EVNT.e3663_e5984
mc16_13TeV.301134.PowhegPythia8EvtGen_AZNLOCTEQ6L1_Wminmunu_3000M3500.merge.EVNT.e3663_e5984
mc16_13TeV.301135.PowhegPythia8EvtGen_AZNLOCTEQ6L1_Wminmunu_3500M4000.merge.EVNT.e3663_e5984
mc16_13TeV.301136.PowhegPythia8EvtGen_AZNLOCTEQ6L1_Wminmunu_4000M4500.merge.EVNT.e3663_e5984
mc16_13TeV.301137.PowhegPythia8EvtGen_AZNLOCTEQ6L1_Wminmunu_4500M5000.merge.EVNT.e3663_e5984
mc16_13TeV.301138.PowhegPythia8EvtGen_AZNLOCTEQ6L1_Wminmunu_5000M.merge.EVNT.e3663_e5984
mc16_13TeV.301140.PowhegPythia8EvtGen_AZNLOCTEQ6L1_Wplustaunu_120M180.merge.EVNT.e3663_e5984
mc16_13TeV.301141.PowhegPythia8EvtGen_AZNLOCTEQ6L1_Wplustaunu_180M250.merge.EVNT.e3663_e5984
mc16_13TeV.301142.PowhegPythia8EvtGen_AZNLOCTEQ6L1_Wplustaunu_250M400.merge.EVNT.e3663_e5984
mc16_13TeV.301143.PowhegPythia8EvtGen_AZNLOCTEQ6L1_Wplustaunu_400M600.merge.EVNT.e3663_e5984
mc16_13TeV.301144.PowhegPythia8EvtGen_AZNLOCTEQ6L1_Wplustaunu_600M800.merge.EVNT.e3663_e5984
mc16_13TeV.301145.PowhegPythia8EvtGen_AZNLOCTEQ6L1_Wplustaunu_800M1000.merge.EVNT.e3663_e5984
mc16_13TeV.301146.PowhegPythia8EvtGen_AZNLOCTEQ6L1_Wplustaunu_1000M1250.merge.EVNT.e3663_e5984
mc16_13TeV.301147.PowhegPythia8EvtGen_AZNLOCTEQ6L1_Wplustaunu_1250M1500.merge.EVNT.e3663_e5984
mc16_13TeV.301148.PowhegPythia8EvtGen_AZNLOCTEQ6L1_Wplustaunu_1500M1750.merge.EVNT.e3663_e5984
mc16_13TeV.301149.PowhegPythia8EvtGen_AZNLOCTEQ6L1_Wplustaunu_1750M2000.merge.EVNT.e3663_e5984
mc16_13TeV.301150.PowhegPythia8EvtGen_AZNLOCTEQ6L1_Wplustaunu_2000M2250.merge.EVNT.e3663_e5984
mc16_13TeV.301151.PowhegPythia8EvtGen_AZNLOCTEQ6L1_Wplustaunu_2250M2500.merge.EVNT.e3663_e5984
mc16_13TeV.301152.PowhegPythia8EvtGen_AZNLOCTEQ6L1_Wplustaunu_2500M2750.merge.EVNT.e3663_e5984
mc16_13TeV.301153.PowhegPythia8EvtGen_AZNLOCTEQ6L1_Wplustaunu_2750M3000.merge.EVNT.e3663_e5984
mc16_13TeV.301154.PowhegPythia8EvtGen_AZNLOCTEQ6L1_Wplustaunu_3000M3500.merge.EVNT.e3663_e5984
mc16_13TeV.301155.PowhegPythia8EvtGen_AZNLOCTEQ6L1_Wplustaunu_3500M4000.merge.EVNT.e3663_e5984
mc16_13TeV.301156.PowhegPythia8EvtGen_AZNLOCTEQ6L1_Wplustaunu_4000M4500.merge.EVNT.e3663_e5984
mc16_13TeV.301157.PowhegPythia8EvtGen_AZNLOCTEQ6L1_Wplustaunu_4500M5000.merge.EVNT.e3663_e5984
mc16_13TeV.301158.PowhegPythia8EvtGen_AZNLOCTEQ6L1_Wplustaunu_5000M.merge.EVNT.e3663_e5984
mc16_13TeV.301160.PowhegPythia8EvtGen_AZNLOCTEQ6L1_Wmintaunu_120M180.merge.EVNT.e3663_e5984
mc16_13TeV.301161.PowhegPythia8EvtGen_AZNLOCTEQ6L1_Wmintaunu_180M250.merge.EVNT.e3663_e5984
mc16_13TeV.301162.PowhegPythia8EvtGen_AZNLOCTEQ6L1_Wmintaunu_250M400.merge.EVNT.e3663_e5984
mc16_13TeV.301163.PowhegPythia8EvtGen_AZNLOCTEQ6L1_Wmintaunu_400M600.merge.EVNT.e3663_e5984
mc16_13TeV.301164.PowhegPythia8EvtGen_AZNLOCTEQ6L1_Wmintaunu_600M800.merge.EVNT.e3663_e5984
mc16_13TeV.301165.PowhegPythia8EvtGen_AZNLOCTEQ6L1_Wmintaunu_800M1000.merge.EVNT.e3663_e5984
mc16_13TeV.301166.PowhegPythia8EvtGen_AZNLOCTEQ6L1_Wmintaunu_1000M1250.merge.EVNT.e3663_e5984
mc16_13TeV.301167.PowhegPythia8EvtGen_AZNLOCTEQ6L1_Wmintaunu_1250M1500.merge.EVNT.e3663_e5984
mc16_13TeV.301168.PowhegPythia8EvtGen_AZNLOCTEQ6L1_Wmintaunu_1500M1750.merge.EVNT.e3663_e5984
mc16_13TeV.301169.PowhegPythia8EvtGen_AZNLOCTEQ6L1_Wmintaunu_1750M2000.merge.EVNT.e3663_e5984
mc16_13TeV.301170.PowhegPythia8EvtGen_AZNLOCTEQ6L1_Wmintaunu_2000M2250.merge.EVNT.e3663_e5984
mc16_13TeV.301171.PowhegPythia8EvtGen_AZNLOCTEQ6L1_Wmintaunu_2250M2500.merge.EVNT.e3663_e5984
mc16_13TeV.301172.PowhegPythia8EvtGen_AZNLOCTEQ6L1_Wmintaunu_2500M2750.merge.EVNT.e3663_e5984
mc16_13TeV.301173.PowhegPythia8EvtGen_AZNLOCTEQ6L1_Wmintaunu_2750M3000.merge.EVNT.e3663_e5984
mc16_13TeV.301174.PowhegPythia8EvtGen_AZNLOCTEQ6L1_Wmintaunu_3000M3500.merge.EVNT.e3663_e5984
mc16_13TeV.301175.PowhegPythia8EvtGen_AZNLOCTEQ6L1_Wmintaunu_3500M4000.merge.EVNT.e3663_e5984
mc16_13TeV.301176.PowhegPythia8EvtGen_AZNLOCTEQ6L1_Wmintaunu_4000M4500.merge.EVNT.e3663_e5984
mc16_13TeV.301177.PowhegPythia8EvtGen_AZNLOCTEQ6L1_Wmintaunu_4500M5000.merge.EVNT.e3663_e5984
mc16_13TeV.301178.PowhegPythia8EvtGen_AZNLOCTEQ6L1_Wmintaunu_5000M.merge.EVNT.e3663_e5984
mc16_13TeV.304014.MadGraphPythia8EvtGen_A14NNPDF23_3top_SM.merge.EVNT.e4324_e5984
mc16_13TeV.341421.PowhegPythia8EvtGen_CT10_AZNLO_WmH125J_MINLO_eveWWlvlv.merge.EVNT.e4210_e5984
mc16_13TeV.341423.PowhegPythia8EvtGen_CT10_AZNLO_WmH125J_MINLO_muvmuWWlvlv.merge.EVNT.e4210_e5984
mc16_13TeV.341427.PowhegPythia8EvtGen_CT10_AZNLO_WmH125J_MINLO_tauvtauWWlvlv.merge.EVNT.e4210_e5984
mc16_13TeV.341429.PowhegPythia8EvtGen_CT10_AZNLO_WpH125J_MINLO_eveWWlvlv.merge.EVNT.e4210_e5984
mc16_13TeV.341431.PowhegPythia8EvtGen_CT10_AZNLO_WpH125J_MINLO_muvmuWWlvlv.merge.EVNT.e4210_e5984
mc16_13TeV.341435.PowhegPythia8EvtGen_CT10_AZNLO_WpH125J_MINLO_tauvtauWWlvlv.merge.EVNT.e4210_e5984
mc16_13TeV.341449.PowhegPythia8EvtGen_CT10_AZNLO_ZH125J_MINLO_eeWWlvlv_VpT.merge.EVNT.e4212_e5984
mc16_13TeV.341451.PowhegPythia8EvtGen_CT10_AZNLO_ZH125J_MINLO_mumuWWlvlv_VpT.merge.EVNT.e4212_e5984
mc16_13TeV.341453.PowhegPythia8EvtGen_CT10_AZNLO_ZH125J_MINLO_tautauWWlvlv_VpT.merge.EVNT.e4212_e5984
mc16_13TeV.343366.aMcAtNloPythia8EvtGen_A14_NNPDF23_NNPDF30ME_ttH125_semilep.merge.EVNT.e4706_e5984
mc16_13TeV.343367.aMcAtNloPythia8EvtGen_A14_NNPDF23_NNPDF30ME_ttH125_allhad.merge.EVNT.e4706_e5984
mc16_13TeV.345074.PowhegPy8EG_NNPDF30_AZNLOCTEQ6L1_VBFH125_tautaulm15hp20.merge.EVNT.e5822_e5984
mc16_13TeV.345075.PowhegPy8EG_NNPDF30_AZNLOCTEQ6L1_VBFH125_tautaulp15hm20.merge.EVNT.e5822_e5984
mc16_13TeV.345076.PowhegPy8EG_NNPDF30_AZNLOCTEQ6L1_VBFH125_tautauh30h20.merge.EVNT.e5822_e5984
mc16_13TeV.345121.PowhegPy8EG_NNLOPS_nnlo_30_ggH125_tautaulm15hp20.merge.EVNT.e5814_e5984
mc16_13TeV.345122.PowhegPy8EG_NNLOPS_nnlo_30_ggH125_tautaulp15hm20.merge.EVNT.e5814_e5984
mc16_13TeV.345123.PowhegPy8EG_NNLOPS_nnlo_30_ggH125_tautauh30h20.merge.EVNT.e5814_e5984
mc16_13TeV.361100.PowhegPythia8EvtGen_AZNLOCTEQ6L1_Wplusenu.merge.EVNT.e3601_e5984
mc16_13TeV.361101.PowhegPythia8EvtGen_AZNLOCTEQ6L1_Wplusmunu.merge.EVNT.e3601_e5984
mc16_13TeV.361102.PowhegPythia8EvtGen_AZNLOCTEQ6L1_Wplustaunu.merge.EVNT.e3601_e5984
mc16_13TeV.361103.PowhegPythia8EvtGen_AZNLOCTEQ6L1_Wminusenu.merge.EVNT.e3601_e5984
mc16_13TeV.361104.PowhegPythia8EvtGen_AZNLOCTEQ6L1_Wminusmunu.merge.EVNT.e3601_e5984
mc16_13TeV.361105.PowhegPythia8EvtGen_AZNLOCTEQ6L1_Wminustaunu.merge.EVNT.e3601_e5984
mc16_13TeV.361106.PowhegPythia8EvtGen_AZNLOCTEQ6L1_Zee.merge.EVNT.e3601_e5984
mc16_13TeV.361107.PowhegPythia8EvtGen_AZNLOCTEQ6L1_Zmumu.merge.EVNT.e3601_e5984
mc16_13TeV.361108.PowhegPythia8EvtGen_AZNLOCTEQ6L1_Ztautau.merge.EVNT.e3601_e5984
mc16_13TeV.361664.PowhegPythia8EvtGen_AZNLOCTEQ6L1_DYee_6M10.merge.EVNT.e4770_e5984
mc16_13TeV.361665.PowhegPythia8EvtGen_AZNLOCTEQ6L1_DYee_10M60.merge.EVNT.e4770_e5984
mc16_13TeV.361666.PowhegPythia8EvtGen_AZNLOCTEQ6L1_DYmumu_6M10.merge.EVNT.e4770_e5984
mc16_13TeV.361667.PowhegPythia8EvtGen_AZNLOCTEQ6L1_DYmumu_10M60.merge.EVNT.e4770_e5984
mc16_13TeV.361668.PowhegPythia8EvtGen_AZNLOCTEQ6L1_DYtautau_6M10.merge.EVNT.e4784_e5984
mc16_13TeV.361669.PowhegPythia8EvtGen_AZNLOCTEQ6L1_DYtautau_10M60.merge.EVNT.e4770_e5984
mc16_13TeV.363355.Sherpa_221_NNPDF30NNLO_ZqqZvv.merge.EVNT.e5525_e5984
mc16_13TeV.363356.Sherpa_221_NNPDF30NNLO_ZqqZll.merge.EVNT.e5525_e5984
mc16_13TeV.363357.Sherpa_221_NNPDF30NNLO_WqqZvv.merge.EVNT.e5525_e5984
mc16_13TeV.363358.Sherpa_221_NNPDF30NNLO_WqqZll.merge.EVNT.e5525_e5984
mc16_13TeV.363359.Sherpa_221_NNPDF30NNLO_WpqqWmlv.merge.EVNT.e5583_e5984
mc16_13TeV.363360.Sherpa_221_NNPDF30NNLO_WplvWmqq.merge.EVNT.e5983_e5984
mc16_13TeV.363489.Sherpa_221_NNPDF30NNLO_WlvZqq.merge.EVNT.e5525_e5984
mc16_13TeV.363507.Sherpa_222_NNPDF30NNLO_WWZ_3l1v2j_EW6.merge.EVNT.e6379_e5984
mc16_13TeV.363508.Sherpa_222_NNPDF30NNLO_WZZ_4l2j_EW6.merge.EVNT.e6374_e5984
mc16_13TeV.363509.Sherpa_222_NNPDF30NNLO_WZZ_3l1v2j_EW6.merge.EVNT.e6374_e5984
mc16_13TeV.364100.Sherpa_221_NNPDF30NNLO_Zmumu_MAXHTPTV0_70_CVetoBVeto.merge.EVNT.e5271_e5984
mc16_13TeV.364101.Sherpa_221_NNPDF30NNLO_Zmumu_MAXHTPTV0_70_CFilterBVeto.merge.EVNT.e5271_e5984
mc16_13TeV.364102.Sherpa_221_NNPDF30NNLO_Zmumu_MAXHTPTV0_70_BFilter.merge.EVNT.e5271_e5984
mc16_13TeV.364103.Sherpa_221_NNPDF30NNLO_Zmumu_MAXHTPTV70_140_CVetoBVeto.merge.EVNT.e5271_e5984
mc16_13TeV.364104.Sherpa_221_NNPDF30NNLO_Zmumu_MAXHTPTV70_140_CFilterBVeto.merge.EVNT.e5271_e5984
mc16_13TeV.364105.Sherpa_221_NNPDF30NNLO_Zmumu_MAXHTPTV70_140_BFilter.merge.EVNT.e5271_e5984
mc16_13TeV.364106.Sherpa_221_NNPDF30NNLO_Zmumu_MAXHTPTV140_280_CVetoBVeto.merge.EVNT.e5271_e5984
mc16_13TeV.364107.Sherpa_221_NNPDF30NNLO_Zmumu_MAXHTPTV140_280_CFilterBVeto.merge.EVNT.e5271_e5984
mc16_13TeV.364108.Sherpa_221_NNPDF30NNLO_Zmumu_MAXHTPTV140_280_BFilter.merge.EVNT.e5271_e5984
mc16_13TeV.364109.Sherpa_221_NNPDF30NNLO_Zmumu_MAXHTPTV280_500_CVetoBVeto.merge.EVNT.e5271_e5984
mc16_13TeV.364110.Sherpa_221_NNPDF30NNLO_Zmumu_MAXHTPTV280_500_CFilterBVeto.merge.EVNT.e5271_e5984
mc16_13TeV.364111.Sherpa_221_NNPDF30NNLO_Zmumu_MAXHTPTV280_500_BFilter.merge.EVNT.e5271_e5984
mc16_13TeV.364112.Sherpa_221_NNPDF30NNLO_Zmumu_MAXHTPTV500_1000.merge.EVNT.e5271_e5984
mc16_13TeV.364113.Sherpa_221_NNPDF30NNLO_Zmumu_MAXHTPTV1000_E_CMS.merge.EVNT.e5271_e5984
mc16_13TeV.364114.Sherpa_221_NNPDF30NNLO_Zee_MAXHTPTV0_70_CVetoBVeto.merge.EVNT.e5299_e5984
mc16_13TeV.364115.Sherpa_221_NNPDF30NNLO_Zee_MAXHTPTV0_70_CFilterBVeto.merge.EVNT.e5299_e5984
mc16_13TeV.364116.Sherpa_221_NNPDF30NNLO_Zee_MAXHTPTV0_70_BFilter.merge.EVNT.e5299_e5984
mc16_13TeV.364117.Sherpa_221_NNPDF30NNLO_Zee_MAXHTPTV70_140_CVetoBVeto.merge.EVNT.e5299_e5984
mc16_13TeV.364118.Sherpa_221_NNPDF30NNLO_Zee_MAXHTPTV70_140_CFilterBVeto.merge.EVNT.e5299_e5984
mc16_13TeV.364119.Sherpa_221_NNPDF30NNLO_Zee_MAXHTPTV70_140_BFilter.merge.EVNT.e5299_e5984
mc16_13TeV.364120.Sherpa_221_NNPDF30NNLO_Zee_MAXHTPTV140_280_CVetoBVeto.merge.EVNT.e5299_e5984
mc16_13TeV.364121.Sherpa_221_NNPDF30NNLO_Zee_MAXHTPTV140_280_CFilterBVeto.merge.EVNT.e5299_e5984
mc16_13TeV.364122.Sherpa_221_NNPDF30NNLO_Zee_MAXHTPTV140_280_BFilter.merge.EVNT.e5299_e5984
mc16_13TeV.364123.Sherpa_221_NNPDF30NNLO_Zee_MAXHTPTV280_500_CVetoBVeto.merge.EVNT.e5299_e5984
mc16_13TeV.364124.Sherpa_221_NNPDF30NNLO_Zee_MAXHTPTV280_500_CFilterBVeto.merge.EVNT.e5299_e5984
mc16_13TeV.364125.Sherpa_221_NNPDF30NNLO_Zee_MAXHTPTV280_500_BFilter.merge.EVNT.e5299_e5984
mc16_13TeV.364126.Sherpa_221_NNPDF30NNLO_Zee_MAXHTPTV500_1000.merge.EVNT.e5299_e5984
mc16_13TeV.364127.Sherpa_221_NNPDF30NNLO_Zee_MAXHTPTV1000_E_CMS.merge.EVNT.e5299_e5984
mc16_13TeV.364128.Sherpa_221_NNPDF30NNLO_Ztautau_MAXHTPTV0_70_CVetoBVeto.merge.EVNT.e5307_e5984
mc16_13TeV.364129.Sherpa_221_NNPDF30NNLO_Ztautau_MAXHTPTV0_70_CFilterBVeto.merge.EVNT.e5307_e5984
mc16_13TeV.364130.Sherpa_221_NNPDF30NNLO_Ztautau_MAXHTPTV0_70_BFilter.merge.EVNT.e5307_e5984
mc16_13TeV.364131.Sherpa_221_NNPDF30NNLO_Ztautau_MAXHTPTV70_140_CVetoBVeto.merge.EVNT.e5307_e5984
mc16_13TeV.364132.Sherpa_221_NNPDF30NNLO_Ztautau_MAXHTPTV70_140_CFilterBVeto.merge.EVNT.e5307_e5984
mc16_13TeV.364133.Sherpa_221_NNPDF30NNLO_Ztautau_MAXHTPTV70_140_BFilter.merge.EVNT.e5307_e5984
mc16_13TeV.364134.Sherpa_221_NNPDF30NNLO_Ztautau_MAXHTPTV140_280_CVetoBVeto.merge.EVNT.e5307_e5984
mc16_13TeV.364135.Sherpa_221_NNPDF30NNLO_Ztautau_MAXHTPTV140_280_CFilterBVeto.merge.EVNT.e5307_e5984
mc16_13TeV.364136.Sherpa_221_NNPDF30NNLO_Ztautau_MAXHTPTV140_280_BFilter.merge.EVNT.e5307_e5984
mc16_13TeV.364137.Sherpa_221_NNPDF30NNLO_Ztautau_MAXHTPTV280_500_CVetoBVeto.merge.EVNT.e5307_e5984
mc16_13TeV.364138.Sherpa_221_NNPDF30NNLO_Ztautau_MAXHTPTV280_500_CFilterBVeto.merge.EVNT.e5313_e5984
mc16_13TeV.364139.Sherpa_221_NNPDF30NNLO_Ztautau_MAXHTPTV280_500_BFilter.merge.EVNT.e5313_e5984
mc16_13TeV.364140.Sherpa_221_NNPDF30NNLO_Ztautau_MAXHTPTV500_1000.merge.EVNT.e5307_e5984
mc16_13TeV.364141.Sherpa_221_NNPDF30NNLO_Ztautau_MAXHTPTV1000_E_CMS.merge.EVNT.e5307_e5984
mc16_13TeV.364156.Sherpa_221_NNPDF30NNLO_Wmunu_MAXHTPTV0_70_CVetoBVeto.merge.EVNT.e5340_e5984
mc16_13TeV.364157.Sherpa_221_NNPDF30NNLO_Wmunu_MAXHTPTV0_70_CFilterBVeto.merge.EVNT.e5340_e5984
mc16_13TeV.364158.Sherpa_221_NNPDF30NNLO_Wmunu_MAXHTPTV0_70_BFilter.merge.EVNT.e5340_e5984
mc16_13TeV.364159.Sherpa_221_NNPDF30NNLO_Wmunu_MAXHTPTV70_140_CVetoBVeto.merge.EVNT.e5340_e5984
mc16_13TeV.364160.Sherpa_221_NNPDF30NNLO_Wmunu_MAXHTPTV70_140_CFilterBVeto.merge.EVNT.e5340_e5984
mc16_13TeV.364161.Sherpa_221_NNPDF30NNLO_Wmunu_MAXHTPTV70_140_BFilter.merge.EVNT.e5340_e5984
mc16_13TeV.364162.Sherpa_221_NNPDF30NNLO_Wmunu_MAXHTPTV140_280_CVetoBVeto.merge.EVNT.e5340_e5984
mc16_13TeV.364163.Sherpa_221_NNPDF30NNLO_Wmunu_MAXHTPTV140_280_CFilterBVeto.merge.EVNT.e5340_e5984
mc16_13TeV.364164.Sherpa_221_NNPDF30NNLO_Wmunu_MAXHTPTV140_280_BFilter.merge.EVNT.e5340_e5984
mc16_13TeV.364165.Sherpa_221_NNPDF30NNLO_Wmunu_MAXHTPTV280_500_CVetoBVeto.merge.EVNT.e5340_e5984
mc16_13TeV.364166.Sherpa_221_NNPDF30NNLO_Wmunu_MAXHTPTV280_500_CFilterBVeto.merge.EVNT.e5340_e5984
mc16_13TeV.364167.Sherpa_221_NNPDF30NNLO_Wmunu_MAXHTPTV280_500_BFilter.merge.EVNT.e5340_e5984
mc16_13TeV.364168.Sherpa_221_NNPDF30NNLO_Wmunu_MAXHTPTV500_1000.merge.EVNT.e5340_e5984
mc16_13TeV.364169.Sherpa_221_NNPDF30NNLO_Wmunu_MAXHTPTV1000_E_CMS.merge.EVNT.e5340_e5984
mc16_13TeV.364170.Sherpa_221_NNPDF30NNLO_Wenu_MAXHTPTV0_70_CVetoBVeto.merge.EVNT.e5340_e5984
mc16_13TeV.364171.Sherpa_221_NNPDF30NNLO_Wenu_MAXHTPTV0_70_CFilterBVeto.merge.EVNT.e5340_e5984
mc16_13TeV.364172.Sherpa_221_NNPDF30NNLO_Wenu_MAXHTPTV0_70_BFilter.merge.EVNT.e5340_e5984
mc16_13TeV.364173.Sherpa_221_NNPDF30NNLO_Wenu_MAXHTPTV70_140_CVetoBVeto.merge.EVNT.e5340_e5984
mc16_13TeV.364174.Sherpa_221_NNPDF30NNLO_Wenu_MAXHTPTV70_140_CFilterBVeto.merge.EVNT.e5340_e5984
mc16_13TeV.364175.Sherpa_221_NNPDF30NNLO_Wenu_MAXHTPTV70_140_BFilter.merge.EVNT.e5340_e5984
mc16_13TeV.364176.Sherpa_221_NNPDF30NNLO_Wenu_MAXHTPTV140_280_CVetoBVeto.merge.EVNT.e5340_e5984
mc16_13TeV.364177.Sherpa_221_NNPDF30NNLO_Wenu_MAXHTPTV140_280_CFilterBVeto.merge.EVNT.e5340_e5984
mc16_13TeV.364178.Sherpa_221_NNPDF30NNLO_Wenu_MAXHTPTV140_280_BFilter.merge.EVNT.e5340_e5984
mc16_13TeV.364179.Sherpa_221_NNPDF30NNLO_Wenu_MAXHTPTV280_500_CVetoBVeto.merge.EVNT.e5340_e5984
mc16_13TeV.364180.Sherpa_221_NNPDF30NNLO_Wenu_MAXHTPTV280_500_CFilterBVeto.merge.EVNT.e5340_e5984
mc16_13TeV.364181.Sherpa_221_NNPDF30NNLO_Wenu_MAXHTPTV280_500_BFilter.merge.EVNT.e5340_e5984
mc16_13TeV.364182.Sherpa_221_NNPDF30NNLO_Wenu_MAXHTPTV500_1000.merge.EVNT.e5340_e5984
mc16_13TeV.364183.Sherpa_221_NNPDF30NNLO_Wenu_MAXHTPTV1000_E_CMS.merge.EVNT.e5340_e5984
mc16_13TeV.364184.Sherpa_221_NNPDF30NNLO_Wtaunu_MAXHTPTV0_70_CVetoBVeto.merge.EVNT.e5340_e5984
mc16_13TeV.364185.Sherpa_221_NNPDF30NNLO_Wtaunu_MAXHTPTV0_70_CFilterBVeto.merge.EVNT.e5340_e5984
mc16_13TeV.364186.Sherpa_221_NNPDF30NNLO_Wtaunu_MAXHTPTV0_70_BFilter.merge.EVNT.e5340_e5984
mc16_13TeV.364187.Sherpa_221_NNPDF30NNLO_Wtaunu_MAXHTPTV70_140_CVetoBVeto.merge.EVNT.e5340_e5984
mc16_13TeV.364188.Sherpa_221_NNPDF30NNLO_Wtaunu_MAXHTPTV70_140_CFilterBVeto.merge.EVNT.e5340_e5984
mc16_13TeV.364189.Sherpa_221_NNPDF30NNLO_Wtaunu_MAXHTPTV70_140_BFilter.merge.EVNT.e5340_e5984
mc16_13TeV.364190.Sherpa_221_NNPDF30NNLO_Wtaunu_MAXHTPTV140_280_CVetoBVeto.merge.EVNT.e5340_e5984
mc16_13TeV.364191.Sherpa_221_NNPDF30NNLO_Wtaunu_MAXHTPTV140_280_CFilterBVeto.merge.EVNT.e5340_e5984
mc16_13TeV.364192.Sherpa_221_NNPDF30NNLO_Wtaunu_MAXHTPTV140_280_BFilter.merge.EVNT.e5340_e5984
mc16_13TeV.364193.Sherpa_221_NNPDF30NNLO_Wtaunu_MAXHTPTV280_500_CVetoBVeto.merge.EVNT.e5340_e5984
mc16_13TeV.364194.Sherpa_221_NNPDF30NNLO_Wtaunu_MAXHTPTV280_500_CFilterBVeto.merge.EVNT.e5340_e5984
mc16_13TeV.364195.Sherpa_221_NNPDF30NNLO_Wtaunu_MAXHTPTV280_500_BFilter.merge.EVNT.e5340_e5984
mc16_13TeV.364196.Sherpa_221_NNPDF30NNLO_Wtaunu_MAXHTPTV500_1000.merge.EVNT.e5340_e5984
mc16_13TeV.364197.Sherpa_221_NNPDF30NNLO_Wtaunu_MAXHTPTV1000_E_CMS.merge.EVNT.e5340_e5984
mc16_13TeV.364198.Sherpa_221_NN30NNLO_Zmm_Mll10_40_MAXHTPTV0_70_BVeto.merge.EVNT.e5421_e5984
mc16_13TeV.364199.Sherpa_221_NN30NNLO_Zmm_Mll10_40_MAXHTPTV0_70_BFilter.merge.EVNT.e5421_e5984
mc16_13TeV.364200.Sherpa_221_NN30NNLO_Zmm_Mll10_40_MAXHTPTV70_280_BVeto.merge.EVNT.e5421_e5984
mc16_13TeV.364201.Sherpa_221_NN30NNLO_Zmm_Mll10_40_MAXHTPTV70_280_BFilter.merge.EVNT.e5421_e5984
mc16_13TeV.364202.Sherpa_221_NN30NNLO_Zmm_Mll10_40_MAXHTPTV280_E_CMS_BVeto.merge.EVNT.e5421_e5984
mc16_13TeV.364203.Sherpa_221_NN30NNLO_Zmm_Mll10_40_MAXHTPTV280_E_CMS_BFilter.merge.EVNT.e5421_e5984
mc16_13TeV.364204.Sherpa_221_NN30NNLO_Zee_Mll10_40_MAXHTPTV0_70_BVeto.merge.EVNT.e5421_e5984
mc16_13TeV.364205.Sherpa_221_NN30NNLO_Zee_Mll10_40_MAXHTPTV0_70_BFilter.merge.EVNT.e5421_e5984
mc16_13TeV.364206.Sherpa_221_NN30NNLO_Zee_Mll10_40_MAXHTPTV70_280_BVeto.merge.EVNT.e5421_e5984
mc16_13TeV.364207.Sherpa_221_NN30NNLO_Zee_Mll10_40_MAXHTPTV70_280_BFilter.merge.EVNT.e5421_e5984
mc16_13TeV.364208.Sherpa_221_NN30NNLO_Zee_Mll10_40_MAXHTPTV280_E_CMS_BVeto.merge.EVNT.e5421_e5984
mc16_13TeV.364209.Sherpa_221_NN30NNLO_Zee_Mll10_40_MAXHTPTV280_E_CMS_BFilter.merge.EVNT.e5421_e5984
mc16_13TeV.364210.Sherpa_221_NN30NNLO_Ztt_Mll10_40_MAXHTPTV0_70_BVeto.merge.EVNT.e5421_e5984
mc16_13TeV.364211.Sherpa_221_NN30NNLO_Ztt_Mll10_40_MAXHTPTV0_70_BFilter.merge.EVNT.e5421_e5984
mc16_13TeV.364212.Sherpa_221_NN30NNLO_Ztt_Mll10_40_MAXHTPTV70_280_BVeto.merge.EVNT.e5421_e5984
mc16_13TeV.364213.Sherpa_221_NN30NNLO_Ztt_Mll10_40_MAXHTPTV70_280_BFilter.merge.EVNT.e5421_e5984
mc16_13TeV.364214.Sherpa_221_NN30NNLO_Ztt_Mll10_40_MAXHTPTV280_E_CMS_BVeto.merge.EVNT.e5421_e5984
mc16_13TeV.364215.Sherpa_221_NN30NNLO_Ztt_Mll10_40_MAXHTPTV280_E_CMS_BFilter.merge.EVNT.e5421_e5984
mc16_13TeV.364242.Sherpa_222_NNPDF30NNLO_WWW_3l3v_EW6.merge.EVNT.e5887_e5984
mc16_13TeV.364243.Sherpa_222_NNPDF30NNLO_WWZ_4l2v_EW6.merge.EVNT.e5887_e5984
mc16_13TeV.364244.Sherpa_222_NNPDF30NNLO_WWZ_2l4v_EW6.merge.EVNT.e5887_e5984
mc16_13TeV.364245.Sherpa_222_NNPDF30NNLO_WZZ_5l1v_EW6.merge.EVNT.e5887_e5984
mc16_13TeV.364246.Sherpa_222_NNPDF30NNLO_WZZ_3l3v_EW6.merge.EVNT.e5887_e5984
mc16_13TeV.364247.Sherpa_222_NNPDF30NNLO_ZZZ_6l0v_EW6.merge.EVNT.e5887_e5984
mc16_13TeV.364248.Sherpa_222_NNPDF30NNLO_ZZZ_4l2v_EW6.merge.EVNT.e5887_e5984
mc16_13TeV.364249.Sherpa_222_NNPDF30NNLO_ZZZ_2l4v_EW6.merge.EVNT.e5887_e5984
mc16_13TeV.364250.Sherpa_222_NNPDF30NNLO_llll.merge.EVNT.e5894_e5984
mc16_13TeV.364253.Sherpa_222_NNPDF30NNLO_lllv.merge.EVNT.e5916_e5984
mc16_13TeV.364254.Sherpa_222_NNPDF30NNLO_llvv.merge.EVNT.e5916_e5984
mc16_13TeV.364255.Sherpa_222_NNPDF30NNLO_lvvv.merge.EVNT.e5916_e5984
mc16_13TeV.364283.Sherpa_222_NNPDF30NNLO_lllljj_EW6.merge.EVNT.e6055_e5984
mc16_13TeV.410080.MadGraphPythia8EvtGen_A14NNPDF23_4topSM.merge.EVNT.e4111_e5984
mc16_13TeV.410081.MadGraphPythia8EvtGen_A14NNPDF23_ttbarWW.merge.EVNT.e4111_e5984
mc16_13TeV.410155.aMcAtNloPythia8EvtGen_MEN30NLO_A14N23LO_ttW.merge.EVNT.e5070_e5984
mc16_13TeV.410156.aMcAtNloPythia8EvtGen_MEN30NLO_A14N23LO_ttZnunu.merge.EVNT.e5070_e5984
mc16_13TeV.410157.aMcAtNloPythia8EvtGen_MEN30NLO_A14N23LO_ttZqq.merge.EVNT.e5070_e5984
mc16_13TeV.410218.aMcAtNloPythia8EvtGen_MEN30NLO_A14N23LO_ttee.merge.EVNT.e5070_e5984
mc16_13TeV.410219.aMcAtNloPythia8EvtGen_MEN30NLO_A14N23LO_ttmumu.merge.EVNT.e5070_e5984
mc16_13TeV.410220.aMcAtNloPythia8EvtGen_MEN30NLO_A14N23LO_tttautau.merge.EVNT.e5070_e5984
mc16_13TeV.410470.PhPy8EG_A14_ttbar_hdamp258p75_nonallhad.merge.EVNT.e6337_e5984
mc16_13TeV.410471.PhPy8EG_A14_ttbar_hdamp258p75_allhad.merge.EVNT.e6337_e5984
mc16_13TeV.410472.PhPy8EG_A14_ttbar_hdamp258p75_dil.merge.EVNT.e6348_e5984
mc16_13TeV.343365.aMcAtNloPythia8EvtGen_A14_NNPDF23_NNPDF30ME_ttH125_dilep.merge.EVNT.e4706_e5984
mc16_13TeV.345038.PowhegPythia8EvtGen_NNPDF30_AZNLO_ZH125J_Zincl_MINLO.merge.EVNT.e5590_e5984
mc16_13TeV.345039.PowhegPythia8EvtGen_NNPDF30_AZNLO_WpH125J_Wincl_MINLO.merge.EVNT.e5590_e5984
mc16_13TeV.345040.PowhegPythia8EvtGen_NNPDF30_AZNLO_WmH125J_Wincl_MINLO.merge.EVNT.e5590_e5984
mc16_13TeV.345060.PowhegPythia8EvtGen_NNLOPS_nnlo_30_ggH125_ZZ4l.merge.EVNT.e5682_e5984
mc16_13TeV.345103.PowhegPythia8EvtGen_NNPDF30_AZNLO_ZH125J_Hmumu_Zincl_MINLO.merge.EVNT.e5834_e5984
mc16_13TeV.345104.PowhegPythia8EvtGen_NNPDF30_AZNLO_WpH125J_Hmumu_Wincl_MINLO.merge.EVNT.e5834_e5984
mc16_13TeV.345105.PowhegPythia8EvtGen_NNPDF30_AZNLO_WmH125J_Hmumu_Wincl_MINLO.merge.EVNT.e5834_e5984
mc16_13TeV.345705.Sherpa_222_NNPDF30NNLO_ggllll_0M4l130.merge.EVNT.e6213_e5984
mc16_13TeV.345706.Sherpa_222_NNPDF30NNLO_ggllll_130M4l.merge.EVNT.e6213_e5984
mc16_13TeV.407311.Sherpa_221_NNPDF30NNLO_6l0v_EW6.merge.EVNT.e5473_e5984
mc16_13TeV.407312.Sherpa_221_NNPDF30NNLO_5l1v_EW6.merge.EVNT.e5473_e5984
mc16_13TeV.407313.Sherpa_221_NNPDF30NNLO_4l2v_EW6.merge.EVNT.e5473_e5984
mc16_13TeV.407314.Sherpa_221_NNPDF30NNLO_3l3v_EW6.merge.EVNT.e5473_e5984
mc16_13TeV.407315.Sherpa_221_NNPDF30NNLO_2l4v_EW6.merge.EVNT.e5655_e5984
mc16_13TeV.410142.Sherpa_NNPDF30NNLO_ttll_mll5.merge.EVNT.e4686_e5984
mc16_13TeV.410144.Sherpa_NNPDF30NNLO_ttW.merge.EVNT.e4686_e5984
mc16_13TeV.410276.aMcAtNloPythia8EvtGen_MEN30NLO_A14N23LO_ttee_mll_1_5.merge.EVNT.e6087_e5984
mc16_13TeV.410277.aMcAtNloPythia8EvtGen_MEN30NLO_A14N23LO_ttmumu_mll_1_5.merge.EVNT.e6087_e5984
mc16_13TeV.410278.aMcAtNloPythia8EvtGen_MEN30NLO_A14N23LO_tttautau_mll_1_5.merge.EVNT.e6087_e5984
mc16_13TeV.410408.aMcAtNloPythia8EvtGen_tWZ_Ztoll_minDR1.merge.EVNT.e6423_e5984
mc16_13TeV.410082.MadGraphPythia8EvtGen_A14NNPDF23LO_ttgamma_noallhad.merge.EVNT.e4404_e5984
mc16_13TeV.410083.MadGraphPythia8EvtGen_A14NNPDF23LO_ttgamma4080_noallhad.merge.EVNT.e4418_e5984
mc16_13TeV.410084.MadGraphPythia8EvtGen_A14NNPDF23LO_ttgamma80_noallhad.merge.EVNT.e4418_e5984
mc16_13TeV.410111.MadGraphPythia8EvtGen_A14NNPDF23LO_ttee_Np0.merge.EVNT.e4265_e5984
mc16_13TeV.410112.MadGraphPythia8EvtGen_A14NNPDF23LO_ttee_Np1.merge.EVNT.e4265_e5984
mc16_13TeV.410113.MadGraphPythia8EvtGen_A14NNPDF23LO_ttmumu_Np0.merge.EVNT.e4265_e5984
mc16_13TeV.410114.MadGraphPythia8EvtGen_A14NNPDF23LO_ttmumu_Np1.merge.EVNT.e4265_e5984
mc16_13TeV.410115.MadGraphPythia8EvtGen_A14NNPDF23LO_tttautau_Np0.merge.EVNT.e4265_e5984
mc16_13TeV.410116.MadGraphPythia8EvtGen_A14NNPDF23LO_tttautau_Np1.merge.EVNT.e4265_e5984
mc16_13TeV.407320.aMcAtNloPythia8EvtGen_MEN30NLO_A14N23LO_tta140.merge.EVNT.e5587_e5984
mc16_13TeV.407321.MadGraphPythia8EvtGen_A14NNPDF23LO_ttbarWll.merge.EVNT.e5536_e5984
