mc15_13TeV:mc15_13TeV.363356.Sherpa_221_NNPDF30NNLO_ZqqZll.deriv.DAOD_TRUTH1.e5525_p3401
mc15_13TeV:mc15_13TeV.363356.Sherpa_221_NNPDF30NNLO_ZqqZll.deriv.DAOD_TRUTH1.e5525_p3401
mc15_13TeV:mc15_13TeV.363359.Sherpa_221_NNPDF30NNLO_WpqqWmlv.deriv.DAOD_TRUTH1.e5583_p3401
mc15_13TeV:mc15_13TeV.363359.Sherpa_221_NNPDF30NNLO_WpqqWmlv.deriv.DAOD_TRUTH1.e5583_p3401
mc15_13TeV:mc15_13TeV.363359.Sherpa_221_NNPDF30NNLO_WpqqWmlv.deriv.DAOD_TRUTH1.e5583_p3401
mc15_13TeV:mc15_13TeV.363507.Sherpa_222_NNPDF30NNLO_WWZ_3l1v2j_EW6.deriv.DAOD_TRUTH1.e6379_e5984_p3401
mc15_13TeV:mc15_13TeV.363507.Sherpa_222_NNPDF30NNLO_WWZ_3l1v2j_EW6.deriv.DAOD_TRUTH1.e6379_e5984_p3401
mc15_13TeV:mc15_13TeV.363508.Sherpa_222_NNPDF30NNLO_WZZ_4l2j_EW6.deriv.DAOD_TRUTH1.e6374_e5984_p3401
mc15_13TeV:mc15_13TeV.363508.Sherpa_222_NNPDF30NNLO_WZZ_4l2j_EW6.deriv.DAOD_TRUTH1.e6374_e5984_p3401
mc15_13TeV:mc15_13TeV.363509.Sherpa_222_NNPDF30NNLO_WZZ_3l1v2j_EW6.deriv.DAOD_TRUTH1.e6374_e5984_p3401
mc15_13TeV:mc15_13TeV.363509.Sherpa_222_NNPDF30NNLO_WZZ_3l1v2j_EW6.deriv.DAOD_TRUTH1.e6374_e5984_p3401
mc15_13TeV:mc15_13TeV.364103.Sherpa_221_NNPDF30NNLO_Zmumu_MAXHTPTV70_140_CVetoBVeto.deriv.DAOD_TRUTH1.e5271_p3401
mc15_13TeV:mc15_13TeV.364103.Sherpa_221_NNPDF30NNLO_Zmumu_MAXHTPTV70_140_CVetoBVeto.deriv.DAOD_TRUTH1.e5271_p3401
mc15_13TeV:mc15_13TeV.364200.Sherpa_221_NN30NNLO_Zmm_Mll10_40_MAXHTPTV70_280_BVeto.deriv.DAOD_TRUTH1.e5421_e5984_p3401
mc15_13TeV:mc15_13TeV.364200.Sherpa_221_NN30NNLO_Zmm_Mll10_40_MAXHTPTV70_280_BVeto.deriv.DAOD_TRUTH1.e5421_e5984_p3401
mc15_13TeV:mc15_13TeV.364200.Sherpa_221_NN30NNLO_Zmm_Mll10_40_MAXHTPTV70_280_BVeto.deriv.DAOD_TRUTH1.e5421_p3401
mc15_13TeV:mc15_13TeV.364200.Sherpa_221_NN30NNLO_Zmm_Mll10_40_MAXHTPTV70_280_BVeto.deriv.DAOD_TRUTH1.e5421_p3401
mc15_13TeV:mc15_13TeV.364204.Sherpa_221_NN30NNLO_Zee_Mll10_40_MAXHTPTV0_70_BVeto.deriv.DAOD_TRUTH1.e5421_e5984_p3401
mc15_13TeV:mc15_13TeV.364204.Sherpa_221_NN30NNLO_Zee_Mll10_40_MAXHTPTV0_70_BVeto.deriv.DAOD_TRUTH1.e5421_e5984_p3401
mc15_13TeV:mc15_13TeV.364204.Sherpa_221_NN30NNLO_Zee_Mll10_40_MAXHTPTV0_70_BVeto.deriv.DAOD_TRUTH1.e5421_p3401
mc15_13TeV:mc15_13TeV.364204.Sherpa_221_NN30NNLO_Zee_Mll10_40_MAXHTPTV0_70_BVeto.deriv.DAOD_TRUTH1.e5421_p3401
mc15_13TeV:mc15_13TeV.364214.Sherpa_221_NN30NNLO_Ztt_Mll10_40_MAXHTPTV280_E_CMS_BVeto.deriv.DAOD_TRUTH1.e5421_e5984_p3401
mc15_13TeV:mc15_13TeV.364214.Sherpa_221_NN30NNLO_Ztt_Mll10_40_MAXHTPTV280_E_CMS_BVeto.deriv.DAOD_TRUTH1.e5421_e5984_p3401
mc15_13TeV:mc15_13TeV.364214.Sherpa_221_NN30NNLO_Ztt_Mll10_40_MAXHTPTV280_E_CMS_BVeto.deriv.DAOD_TRUTH1.e5421_p3401
mc15_13TeV:mc15_13TeV.364214.Sherpa_221_NN30NNLO_Ztt_Mll10_40_MAXHTPTV280_E_CMS_BVeto.deriv.DAOD_TRUTH1.e5421_p3401
mc15_13TeV:mc15_13TeV.364250.Sherpa_222_NNPDF30NNLO_llll.deriv.DAOD_TRUTH1.e5894_e5984_p3401
mc15_13TeV:mc15_13TeV.364250.Sherpa_222_NNPDF30NNLO_llll.deriv.DAOD_TRUTH1.e5894_e5984_p3401
mc15_13TeV:mc15_13TeV.364253.Sherpa_222_NNPDF30NNLO_lllv.deriv.DAOD_TRUTH1.e5916_e5984_p3401
mc15_13TeV:mc15_13TeV.364253.Sherpa_222_NNPDF30NNLO_lllv.deriv.DAOD_TRUTH1.e5916_e5984_p3401
mc15_13TeV:mc15_13TeV.364254.Sherpa_222_NNPDF30NNLO_llvv.deriv.DAOD_TRUTH1.e5916_e5984_p3401
mc15_13TeV:mc15_13TeV.364254.Sherpa_222_NNPDF30NNLO_llvv.deriv.DAOD_TRUTH1.e5916_e5984_p3401
mc15_13TeV:mc15_13TeV.364255.Sherpa_222_NNPDF30NNLO_lvvv.deriv.DAOD_TRUTH1.e5916_e5984_p3401
mc15_13TeV:mc15_13TeV.364255.Sherpa_222_NNPDF30NNLO_lvvv.deriv.DAOD_TRUTH1.e5916_e5984_p3401
mc15_13TeV:mc15_13TeV.410080.MadGraphPythia8EvtGen_A14NNPDF23_4topSM.deriv.DAOD_TRUTH1.e4111_p3401
mc15_13TeV:mc15_13TeV.410080.MadGraphPythia8EvtGen_A14NNPDF23_4topSM.deriv.DAOD_TRUTH1.e4111_p3401
mc15_13TeV:mc15_13TeV.410081.MadGraphPythia8EvtGen_A14NNPDF23_ttbarWW.deriv.DAOD_TRUTH1.e4111_p3401
mc15_13TeV:mc15_13TeV.410081.MadGraphPythia8EvtGen_A14NNPDF23_ttbarWW.deriv.DAOD_TRUTH1.e4111_p3401
mc15_13TeV:mc15_13TeV.410142.Sherpa_NNPDF30NNLO_ttll_mll5.deriv.DAOD_TRUTH1.e4686_e5984_p3401
mc15_13TeV:mc15_13TeV.410142.Sherpa_NNPDF30NNLO_ttll_mll5.deriv.DAOD_TRUTH1.e4686_e5984_p3401
mc15_13TeV:mc15_13TeV.410144.Sherpa_NNPDF30NNLO_ttW.deriv.DAOD_TRUTH1.e4686_e5984_p3401
mc15_13TeV:mc15_13TeV.410144.Sherpa_NNPDF30NNLO_ttW.deriv.DAOD_TRUTH1.e4686_e5984_p3401
mc15_13TeV:mc15_13TeV.410155.aMcAtNloPythia8EvtGen_MEN30NLO_A14N23LO_ttW.deriv.DAOD_TRUTH1.e5070_p3401
mc15_13TeV:mc15_13TeV.410155.aMcAtNloPythia8EvtGen_MEN30NLO_A14N23LO_ttW.deriv.DAOD_TRUTH1.e5070_p3401
mc15_13TeV:mc15_13TeV.410156.aMcAtNloPythia8EvtGen_MEN30NLO_A14N23LO_ttZnunu.deriv.DAOD_TRUTH1.e5070_p3401
mc15_13TeV:mc15_13TeV.410156.aMcAtNloPythia8EvtGen_MEN30NLO_A14N23LO_ttZnunu.deriv.DAOD_TRUTH1.e5070_p3401
mc15_13TeV:mc15_13TeV.410157.aMcAtNloPythia8EvtGen_MEN30NLO_A14N23LO_ttZqq.deriv.DAOD_TRUTH1.e5070_p3401
mc15_13TeV:mc15_13TeV.410157.aMcAtNloPythia8EvtGen_MEN30NLO_A14N23LO_ttZqq.deriv.DAOD_TRUTH1.e5070_p3401
mc15_13TeV:mc15_13TeV.410218.aMcAtNloPythia8EvtGen_MEN30NLO_A14N23LO_ttee.deriv.DAOD_TRUTH1.e5070_p3401
mc15_13TeV:mc15_13TeV.410218.aMcAtNloPythia8EvtGen_MEN30NLO_A14N23LO_ttee.deriv.DAOD_TRUTH1.e5070_p3401
mc15_13TeV:mc15_13TeV.410219.aMcAtNloPythia8EvtGen_MEN30NLO_A14N23LO_ttmumu.deriv.DAOD_TRUTH1.e5070_p3401
mc15_13TeV:mc15_13TeV.410219.aMcAtNloPythia8EvtGen_MEN30NLO_A14N23LO_ttmumu.deriv.DAOD_TRUTH1.e5070_p3401
mc15_13TeV:mc15_13TeV.410220.aMcAtNloPythia8EvtGen_MEN30NLO_A14N23LO_tttautau.deriv.DAOD_TRUTH1.e5070_p3401
mc15_13TeV:mc15_13TeV.410220.aMcAtNloPythia8EvtGen_MEN30NLO_A14N23LO_tttautau.deriv.DAOD_TRUTH1.e5070_p3401
mc15_13TeV:mc15_13TeV.410470.PhPy8EG_A14_ttbar_hdamp258p75_nonallhad.deriv.DAOD_TRUTH1.e6337_e5984_p3401
mc15_13TeV:mc15_13TeV.410470.PhPy8EG_A14_ttbar_hdamp258p75_nonallhad.deriv.DAOD_TRUTH1.e6337_e5984_p3401
mc15_13TeV:mc15_13TeV.410471.PhPy8EG_A14_ttbar_hdamp258p75_allhad.deriv.DAOD_TRUTH1.e6337_e5984_p3401
mc15_13TeV:mc15_13TeV.410471.PhPy8EG_A14_ttbar_hdamp258p75_allhad.deriv.DAOD_TRUTH1.e6337_e5984_p3401
mc15_13TeV:mc15_13TeV.410472.PhPy8EG_A14_ttbar_hdamp258p75_dil.deriv.DAOD_TRUTH1.e6348_p3401
mc15_13TeV:mc15_13TeV.410472.PhPy8EG_A14_ttbar_hdamp258p75_dil.deriv.DAOD_TRUTH1.e6348_p3401
mc15_13TeV:mc15_13TeV.410550.MadGraphPythia8EvtGen_A14_tZ_4fl_tchan_trilepton.deriv.DAOD_TRUTH1.e5803_p3401
mc15_13TeV:mc15_13TeV.410550.MadGraphPythia8EvtGen_A14_tZ_4fl_tchan_trilepton.deriv.DAOD_TRUTH1.e5803_p3401
mc15_13TeV:mc15_13TeV.410550.MadGraphPythia8EvtGen_A14_tZ_4fl_tchan_trilepton.deriv.DAOD_TRUTH1.e6145_p3401
mc15_13TeV:mc15_13TeV.410550.MadGraphPythia8EvtGen_A14_tZ_4fl_tchan_trilepton.deriv.DAOD_TRUTH1.e6145_p3401
mc16_13TeV:mc16_13TeV.304014.MadGraphPythia8EvtGen_A14NNPDF23_3top_SM.deriv.DAOD_TRUTH1.e4324_e5984_p3401
mc16_13TeV:mc16_13TeV.304014.MadGraphPythia8EvtGen_A14NNPDF23_3top_SM.deriv.DAOD_TRUTH1.e4324_e5984_p3401
mc16_13TeV:mc16_13TeV.304014.MadGraphPythia8EvtGen_A14NNPDF23_3top_SM.deriv.DAOD_TRUTH1.e4324_p3401
mc16_13TeV:mc16_13TeV.304014.MadGraphPythia8EvtGen_A14NNPDF23_3top_SM.deriv.DAOD_TRUTH1.e4324_p3401
mc16_13TeV:mc16_13TeV.341421.PowhegPythia8EvtGen_CT10_AZNLO_WmH125J_MINLO_eveWWlvlv.deriv.DAOD_TRUTH1.e4210_e5984_p3401
mc16_13TeV:mc16_13TeV.341421.PowhegPythia8EvtGen_CT10_AZNLO_WmH125J_MINLO_eveWWlvlv.deriv.DAOD_TRUTH1.e4210_e5984_p3401
mc16_13TeV:mc16_13TeV.341421.PowhegPythia8EvtGen_CT10_AZNLO_WmH125J_MINLO_eveWWlvlv.deriv.DAOD_TRUTH1.e4210_p3401
mc16_13TeV:mc16_13TeV.341421.PowhegPythia8EvtGen_CT10_AZNLO_WmH125J_MINLO_eveWWlvlv.deriv.DAOD_TRUTH1.e4210_p3401
mc16_13TeV:mc16_13TeV.341423.PowhegPythia8EvtGen_CT10_AZNLO_WmH125J_MINLO_muvmuWWlvlv.deriv.DAOD_TRUTH1.e4210_e5984_p3401
mc16_13TeV:mc16_13TeV.341423.PowhegPythia8EvtGen_CT10_AZNLO_WmH125J_MINLO_muvmuWWlvlv.deriv.DAOD_TRUTH1.e4210_e5984_p3401
mc16_13TeV:mc16_13TeV.341423.PowhegPythia8EvtGen_CT10_AZNLO_WmH125J_MINLO_muvmuWWlvlv.deriv.DAOD_TRUTH1.e4210_p3401
mc16_13TeV:mc16_13TeV.341423.PowhegPythia8EvtGen_CT10_AZNLO_WmH125J_MINLO_muvmuWWlvlv.deriv.DAOD_TRUTH1.e4210_p3401
mc16_13TeV:mc16_13TeV.341427.PowhegPythia8EvtGen_CT10_AZNLO_WmH125J_MINLO_tauvtauWWlvlv.deriv.DAOD_TRUTH1.e4210_e5984_p3401
mc16_13TeV:mc16_13TeV.341427.PowhegPythia8EvtGen_CT10_AZNLO_WmH125J_MINLO_tauvtauWWlvlv.deriv.DAOD_TRUTH1.e4210_e5984_p3401
mc16_13TeV:mc16_13TeV.341427.PowhegPythia8EvtGen_CT10_AZNLO_WmH125J_MINLO_tauvtauWWlvlv.deriv.DAOD_TRUTH1.e4210_p3401
mc16_13TeV:mc16_13TeV.341427.PowhegPythia8EvtGen_CT10_AZNLO_WmH125J_MINLO_tauvtauWWlvlv.deriv.DAOD_TRUTH1.e4210_p3401
mc16_13TeV:mc16_13TeV.341429.PowhegPythia8EvtGen_CT10_AZNLO_WpH125J_MINLO_eveWWlvlv.deriv.DAOD_TRUTH1.e4210_e5984_p3401
mc16_13TeV:mc16_13TeV.341429.PowhegPythia8EvtGen_CT10_AZNLO_WpH125J_MINLO_eveWWlvlv.deriv.DAOD_TRUTH1.e4210_e5984_p3401
mc16_13TeV:mc16_13TeV.341429.PowhegPythia8EvtGen_CT10_AZNLO_WpH125J_MINLO_eveWWlvlv.deriv.DAOD_TRUTH1.e4210_p3401
mc16_13TeV:mc16_13TeV.341429.PowhegPythia8EvtGen_CT10_AZNLO_WpH125J_MINLO_eveWWlvlv.deriv.DAOD_TRUTH1.e4210_p3401
mc16_13TeV:mc16_13TeV.341431.PowhegPythia8EvtGen_CT10_AZNLO_WpH125J_MINLO_muvmuWWlvlv.deriv.DAOD_TRUTH1.e4210_e5984_p3401
mc16_13TeV:mc16_13TeV.341431.PowhegPythia8EvtGen_CT10_AZNLO_WpH125J_MINLO_muvmuWWlvlv.deriv.DAOD_TRUTH1.e4210_e5984_p3401
mc16_13TeV:mc16_13TeV.341431.PowhegPythia8EvtGen_CT10_AZNLO_WpH125J_MINLO_muvmuWWlvlv.deriv.DAOD_TRUTH1.e4210_p3401
mc16_13TeV:mc16_13TeV.341431.PowhegPythia8EvtGen_CT10_AZNLO_WpH125J_MINLO_muvmuWWlvlv.deriv.DAOD_TRUTH1.e4210_p3401
mc16_13TeV:mc16_13TeV.341435.PowhegPythia8EvtGen_CT10_AZNLO_WpH125J_MINLO_tauvtauWWlvlv.deriv.DAOD_TRUTH1.e4210_e5984_p3401
mc16_13TeV:mc16_13TeV.341435.PowhegPythia8EvtGen_CT10_AZNLO_WpH125J_MINLO_tauvtauWWlvlv.deriv.DAOD_TRUTH1.e4210_e5984_p3401
mc16_13TeV:mc16_13TeV.341435.PowhegPythia8EvtGen_CT10_AZNLO_WpH125J_MINLO_tauvtauWWlvlv.deriv.DAOD_TRUTH1.e4210_p3401
mc16_13TeV:mc16_13TeV.341435.PowhegPythia8EvtGen_CT10_AZNLO_WpH125J_MINLO_tauvtauWWlvlv.deriv.DAOD_TRUTH1.e4210_p3401
mc16_13TeV:mc16_13TeV.341449.PowhegPythia8EvtGen_CT10_AZNLO_ZH125J_MINLO_eeWWlvlv_VpT.deriv.DAOD_TRUTH1.e4212_e5984_p3401
mc16_13TeV:mc16_13TeV.341449.PowhegPythia8EvtGen_CT10_AZNLO_ZH125J_MINLO_eeWWlvlv_VpT.deriv.DAOD_TRUTH1.e4212_e5984_p3401
mc16_13TeV:mc16_13TeV.341449.PowhegPythia8EvtGen_CT10_AZNLO_ZH125J_MINLO_eeWWlvlv_VpT.deriv.DAOD_TRUTH1.e4212_p3401
mc16_13TeV:mc16_13TeV.341449.PowhegPythia8EvtGen_CT10_AZNLO_ZH125J_MINLO_eeWWlvlv_VpT.deriv.DAOD_TRUTH1.e4212_p3401
mc16_13TeV:mc16_13TeV.341451.PowhegPythia8EvtGen_CT10_AZNLO_ZH125J_MINLO_mumuWWlvlv_VpT.deriv.DAOD_TRUTH1.e4212_e5984_p3401
mc16_13TeV:mc16_13TeV.341451.PowhegPythia8EvtGen_CT10_AZNLO_ZH125J_MINLO_mumuWWlvlv_VpT.deriv.DAOD_TRUTH1.e4212_e5984_p3401
mc16_13TeV:mc16_13TeV.341451.PowhegPythia8EvtGen_CT10_AZNLO_ZH125J_MINLO_mumuWWlvlv_VpT.deriv.DAOD_TRUTH1.e4212_p3401
mc16_13TeV:mc16_13TeV.341451.PowhegPythia8EvtGen_CT10_AZNLO_ZH125J_MINLO_mumuWWlvlv_VpT.deriv.DAOD_TRUTH1.e4212_p3401
mc16_13TeV:mc16_13TeV.341453.PowhegPythia8EvtGen_CT10_AZNLO_ZH125J_MINLO_tautauWWlvlv_VpT.deriv.DAOD_TRUTH1.e4212_e5984_p3401
mc16_13TeV:mc16_13TeV.341453.PowhegPythia8EvtGen_CT10_AZNLO_ZH125J_MINLO_tautauWWlvlv_VpT.deriv.DAOD_TRUTH1.e4212_e5984_p3401
mc16_13TeV:mc16_13TeV.341453.PowhegPythia8EvtGen_CT10_AZNLO_ZH125J_MINLO_tautauWWlvlv_VpT.deriv.DAOD_TRUTH1.e4212_p3401
mc16_13TeV:mc16_13TeV.341453.PowhegPythia8EvtGen_CT10_AZNLO_ZH125J_MINLO_tautauWWlvlv_VpT.deriv.DAOD_TRUTH1.e4212_p3401
mc16_13TeV:mc16_13TeV.343366.aMcAtNloPythia8EvtGen_A14_NNPDF23_NNPDF30ME_ttH125_semilep.deriv.DAOD_TRUTH1.e4706_e5984_p3401
mc16_13TeV:mc16_13TeV.343366.aMcAtNloPythia8EvtGen_A14_NNPDF23_NNPDF30ME_ttH125_semilep.deriv.DAOD_TRUTH1.e4706_e5984_p3401
mc16_13TeV:mc16_13TeV.343366.aMcAtNloPythia8EvtGen_A14_NNPDF23_NNPDF30ME_ttH125_semilep.deriv.DAOD_TRUTH1.e4706_p3401
mc16_13TeV:mc16_13TeV.343366.aMcAtNloPythia8EvtGen_A14_NNPDF23_NNPDF30ME_ttH125_semilep.deriv.DAOD_TRUTH1.e4706_p3401
mc16_13TeV:mc16_13TeV.343367.aMcAtNloPythia8EvtGen_A14_NNPDF23_NNPDF30ME_ttH125_allhad.deriv.DAOD_TRUTH1.e4706_e5984_p3401
mc16_13TeV:mc16_13TeV.343367.aMcAtNloPythia8EvtGen_A14_NNPDF23_NNPDF30ME_ttH125_allhad.deriv.DAOD_TRUTH1.e4706_e5984_p3401
mc16_13TeV:mc16_13TeV.343367.aMcAtNloPythia8EvtGen_A14_NNPDF23_NNPDF30ME_ttH125_allhad.deriv.DAOD_TRUTH1.e4706_p3401
mc16_13TeV:mc16_13TeV.343367.aMcAtNloPythia8EvtGen_A14_NNPDF23_NNPDF30ME_ttH125_allhad.deriv.DAOD_TRUTH1.e4706_p3401
mc16_13TeV:mc16_13TeV.345074.PowhegPy8EG_NNPDF30_AZNLOCTEQ6L1_VBFH125_tautaulm15hp20.deriv.DAOD_TRUTH1.e5822_e5984_p3401
mc16_13TeV:mc16_13TeV.345074.PowhegPy8EG_NNPDF30_AZNLOCTEQ6L1_VBFH125_tautaulm15hp20.deriv.DAOD_TRUTH1.e5822_p3401
mc16_13TeV:mc16_13TeV.345075.PowhegPy8EG_NNPDF30_AZNLOCTEQ6L1_VBFH125_tautaulp15hm20.deriv.DAOD_TRUTH1.e5822_e5984_p3401
mc16_13TeV:mc16_13TeV.345075.PowhegPy8EG_NNPDF30_AZNLOCTEQ6L1_VBFH125_tautaulp15hm20.deriv.DAOD_TRUTH1.e5822_p3401
mc16_13TeV:mc16_13TeV.345076.PowhegPy8EG_NNPDF30_AZNLOCTEQ6L1_VBFH125_tautauh30h20.deriv.DAOD_TRUTH1.e5822_e5984_p3401
mc16_13TeV:mc16_13TeV.345076.PowhegPy8EG_NNPDF30_AZNLOCTEQ6L1_VBFH125_tautauh30h20.deriv.DAOD_TRUTH1.e5822_p3401
mc16_13TeV:mc16_13TeV.345121.PowhegPy8EG_NNLOPS_nnlo_30_ggH125_tautaulm15hp20.deriv.DAOD_TRUTH1.e5814_e5984_p3401
mc16_13TeV:mc16_13TeV.345121.PowhegPy8EG_NNLOPS_nnlo_30_ggH125_tautaulm15hp20.deriv.DAOD_TRUTH1.e5814_e5984_p3401
mc16_13TeV:mc16_13TeV.345121.PowhegPy8EG_NNLOPS_nnlo_30_ggH125_tautaulm15hp20.deriv.DAOD_TRUTH1.e5814_p3401
mc16_13TeV:mc16_13TeV.345121.PowhegPy8EG_NNLOPS_nnlo_30_ggH125_tautaulm15hp20.deriv.DAOD_TRUTH1.e5814_p3401
mc16_13TeV:mc16_13TeV.345122.PowhegPy8EG_NNLOPS_nnlo_30_ggH125_tautaulp15hm20.deriv.DAOD_TRUTH1.e5814_e5984_p3401
mc16_13TeV:mc16_13TeV.345122.PowhegPy8EG_NNLOPS_nnlo_30_ggH125_tautaulp15hm20.deriv.DAOD_TRUTH1.e5814_e5984_p3401
mc16_13TeV:mc16_13TeV.345122.PowhegPy8EG_NNLOPS_nnlo_30_ggH125_tautaulp15hm20.deriv.DAOD_TRUTH1.e5814_p3401
mc16_13TeV:mc16_13TeV.345122.PowhegPy8EG_NNLOPS_nnlo_30_ggH125_tautaulp15hm20.deriv.DAOD_TRUTH1.e5814_p3401
mc16_13TeV:mc16_13TeV.345123.PowhegPy8EG_NNLOPS_nnlo_30_ggH125_tautauh30h20.deriv.DAOD_TRUTH1.e5814_e5984_p3401
mc16_13TeV:mc16_13TeV.345123.PowhegPy8EG_NNLOPS_nnlo_30_ggH125_tautauh30h20.deriv.DAOD_TRUTH1.e5814_e5984_p3401
mc16_13TeV:mc16_13TeV.345123.PowhegPy8EG_NNLOPS_nnlo_30_ggH125_tautauh30h20.deriv.DAOD_TRUTH1.e5814_p3401
mc16_13TeV:mc16_13TeV.345123.PowhegPy8EG_NNLOPS_nnlo_30_ggH125_tautauh30h20.deriv.DAOD_TRUTH1.e5814_p3401
mc16_13TeV:mc16_13TeV.363355.Sherpa_221_NNPDF30NNLO_ZqqZvv.deriv.DAOD_TRUTH1.e5525_e5984_p3401
mc16_13TeV:mc16_13TeV.363355.Sherpa_221_NNPDF30NNLO_ZqqZvv.deriv.DAOD_TRUTH1.e5525_e5984_p3401
mc16_13TeV:mc16_13TeV.363355.Sherpa_221_NNPDF30NNLO_ZqqZvv.deriv.DAOD_TRUTH1.e5525_p3401
mc16_13TeV:mc16_13TeV.363355.Sherpa_221_NNPDF30NNLO_ZqqZvv.deriv.DAOD_TRUTH1.e5525_p3401
mc16_13TeV:mc16_13TeV.363357.Sherpa_221_NNPDF30NNLO_WqqZvv.deriv.DAOD_TRUTH1.e5525_e5984_p3401
mc16_13TeV:mc16_13TeV.363357.Sherpa_221_NNPDF30NNLO_WqqZvv.deriv.DAOD_TRUTH1.e5525_e5984_p3401
mc16_13TeV:mc16_13TeV.363357.Sherpa_221_NNPDF30NNLO_WqqZvv.deriv.DAOD_TRUTH1.e5525_p3401
mc16_13TeV:mc16_13TeV.363357.Sherpa_221_NNPDF30NNLO_WqqZvv.deriv.DAOD_TRUTH1.e5525_p3401
mc16_13TeV:mc16_13TeV.363358.Sherpa_221_NNPDF30NNLO_WqqZll.deriv.DAOD_TRUTH1.e5525_e5984_p3401
mc16_13TeV:mc16_13TeV.363358.Sherpa_221_NNPDF30NNLO_WqqZll.deriv.DAOD_TRUTH1.e5525_e5984_p3401
mc16_13TeV:mc16_13TeV.363358.Sherpa_221_NNPDF30NNLO_WqqZll.deriv.DAOD_TRUTH1.e5525_e5984_p3401
mc16_13TeV:mc16_13TeV.363358.Sherpa_221_NNPDF30NNLO_WqqZll.deriv.DAOD_TRUTH1.e5525_p3401
mc16_13TeV:mc16_13TeV.363358.Sherpa_221_NNPDF30NNLO_WqqZll.deriv.DAOD_TRUTH1.e5525_p3401
mc16_13TeV:mc16_13TeV.363358.Sherpa_221_NNPDF30NNLO_WqqZll.deriv.DAOD_TRUTH1.e5525_p3401
mc16_13TeV:mc16_13TeV.363359.Sherpa_221_NNPDF30NNLO_WpqqWmlv.deriv.DAOD_TRUTH1.e5583_e5984_p3401
mc16_13TeV:mc16_13TeV.363359.Sherpa_221_NNPDF30NNLO_WpqqWmlv.deriv.DAOD_TRUTH1.e5583_e5984_p3401
mc16_13TeV:mc16_13TeV.363359.Sherpa_221_NNPDF30NNLO_WpqqWmlv.deriv.DAOD_TRUTH1.e5583_e5984_p3401
mc16_13TeV:mc16_13TeV.363359.Sherpa_221_NNPDF30NNLO_WpqqWmlv.deriv.DAOD_TRUTH1.e5583_p3401
mc16_13TeV:mc16_13TeV.363359.Sherpa_221_NNPDF30NNLO_WpqqWmlv.deriv.DAOD_TRUTH1.e5583_p3401
mc16_13TeV:mc16_13TeV.363359.Sherpa_221_NNPDF30NNLO_WpqqWmlv.deriv.DAOD_TRUTH1.e5583_p3401
mc16_13TeV:mc16_13TeV.363360.Sherpa_221_NNPDF30NNLO_WplvWmqq.deriv.DAOD_TRUTH1.e5983_e5984_p3401
mc16_13TeV:mc16_13TeV.363360.Sherpa_221_NNPDF30NNLO_WplvWmqq.deriv.DAOD_TRUTH1.e5983_e5984_p3401
mc16_13TeV:mc16_13TeV.363360.Sherpa_221_NNPDF30NNLO_WplvWmqq.deriv.DAOD_TRUTH1.e5983_e5984_p3401
mc16_13TeV:mc16_13TeV.363360.Sherpa_221_NNPDF30NNLO_WplvWmqq.deriv.DAOD_TRUTH1.e5983_p3401
mc16_13TeV:mc16_13TeV.363360.Sherpa_221_NNPDF30NNLO_WplvWmqq.deriv.DAOD_TRUTH1.e5983_p3401
mc16_13TeV:mc16_13TeV.363360.Sherpa_221_NNPDF30NNLO_WplvWmqq.deriv.DAOD_TRUTH1.e5983_p3401
mc16_13TeV:mc16_13TeV.363489.Sherpa_221_NNPDF30NNLO_WlvZqq.deriv.DAOD_TRUTH1.e5525_e5984_p3401
mc16_13TeV:mc16_13TeV.363489.Sherpa_221_NNPDF30NNLO_WlvZqq.deriv.DAOD_TRUTH1.e5525_e5984_p3401
mc16_13TeV:mc16_13TeV.363489.Sherpa_221_NNPDF30NNLO_WlvZqq.deriv.DAOD_TRUTH1.e5525_e5984_p3401
mc16_13TeV:mc16_13TeV.363489.Sherpa_221_NNPDF30NNLO_WlvZqq.deriv.DAOD_TRUTH1.e5525_p3401
mc16_13TeV:mc16_13TeV.363489.Sherpa_221_NNPDF30NNLO_WlvZqq.deriv.DAOD_TRUTH1.e5525_p3401
mc16_13TeV:mc16_13TeV.363489.Sherpa_221_NNPDF30NNLO_WlvZqq.deriv.DAOD_TRUTH1.e5525_p3401
mc16_13TeV:mc16_13TeV.364100.Sherpa_221_NNPDF30NNLO_Zmumu_MAXHTPTV0_70_CVetoBVeto.deriv.DAOD_TRUTH1.e5271_e5984_p3401
mc16_13TeV:mc16_13TeV.364100.Sherpa_221_NNPDF30NNLO_Zmumu_MAXHTPTV0_70_CVetoBVeto.deriv.DAOD_TRUTH1.e5271_e5984_p3401
mc16_13TeV:mc16_13TeV.364100.Sherpa_221_NNPDF30NNLO_Zmumu_MAXHTPTV0_70_CVetoBVeto.deriv.DAOD_TRUTH1.e5271_p3401
mc16_13TeV:mc16_13TeV.364100.Sherpa_221_NNPDF30NNLO_Zmumu_MAXHTPTV0_70_CVetoBVeto.deriv.DAOD_TRUTH1.e5271_p3401
mc16_13TeV:mc16_13TeV.364101.Sherpa_221_NNPDF30NNLO_Zmumu_MAXHTPTV0_70_CFilterBVeto.deriv.DAOD_TRUTH1.e5271_e5984_p3401
mc16_13TeV:mc16_13TeV.364101.Sherpa_221_NNPDF30NNLO_Zmumu_MAXHTPTV0_70_CFilterBVeto.deriv.DAOD_TRUTH1.e5271_e5984_p3401
mc16_13TeV:mc16_13TeV.364101.Sherpa_221_NNPDF30NNLO_Zmumu_MAXHTPTV0_70_CFilterBVeto.deriv.DAOD_TRUTH1.e5271_e5984_p3401
mc16_13TeV:mc16_13TeV.364101.Sherpa_221_NNPDF30NNLO_Zmumu_MAXHTPTV0_70_CFilterBVeto.deriv.DAOD_TRUTH1.e5271_p3401
mc16_13TeV:mc16_13TeV.364101.Sherpa_221_NNPDF30NNLO_Zmumu_MAXHTPTV0_70_CFilterBVeto.deriv.DAOD_TRUTH1.e5271_p3401
mc16_13TeV:mc16_13TeV.364101.Sherpa_221_NNPDF30NNLO_Zmumu_MAXHTPTV0_70_CFilterBVeto.deriv.DAOD_TRUTH1.e5271_p3401
mc16_13TeV:mc16_13TeV.364102.Sherpa_221_NNPDF30NNLO_Zmumu_MAXHTPTV0_70_BFilter.deriv.DAOD_TRUTH1.e5271_e5984_p3401
mc16_13TeV:mc16_13TeV.364102.Sherpa_221_NNPDF30NNLO_Zmumu_MAXHTPTV0_70_BFilter.deriv.DAOD_TRUTH1.e5271_e5984_p3401
mc16_13TeV:mc16_13TeV.364102.Sherpa_221_NNPDF30NNLO_Zmumu_MAXHTPTV0_70_BFilter.deriv.DAOD_TRUTH1.e5271_p3401
mc16_13TeV:mc16_13TeV.364102.Sherpa_221_NNPDF30NNLO_Zmumu_MAXHTPTV0_70_BFilter.deriv.DAOD_TRUTH1.e5271_p3401
mc16_13TeV:mc16_13TeV.364103.Sherpa_221_NNPDF30NNLO_Zmumu_MAXHTPTV70_140_CVetoBVeto.deriv.DAOD_TRUTH1.e5271_e5984_p3401
mc16_13TeV:mc16_13TeV.364103.Sherpa_221_NNPDF30NNLO_Zmumu_MAXHTPTV70_140_CVetoBVeto.deriv.DAOD_TRUTH1.e5271_e5984_p3401
mc16_13TeV:mc16_13TeV.364103.Sherpa_221_NNPDF30NNLO_Zmumu_MAXHTPTV70_140_CVetoBVeto.deriv.DAOD_TRUTH1.e5271_p3401
mc16_13TeV:mc16_13TeV.364103.Sherpa_221_NNPDF30NNLO_Zmumu_MAXHTPTV70_140_CVetoBVeto.deriv.DAOD_TRUTH1.e5271_p3401
mc16_13TeV:mc16_13TeV.364104.Sherpa_221_NNPDF30NNLO_Zmumu_MAXHTPTV70_140_CFilterBVeto.deriv.DAOD_TRUTH1.e5271_e5984_p3401
mc16_13TeV:mc16_13TeV.364104.Sherpa_221_NNPDF30NNLO_Zmumu_MAXHTPTV70_140_CFilterBVeto.deriv.DAOD_TRUTH1.e5271_e5984_p3401
mc16_13TeV:mc16_13TeV.364104.Sherpa_221_NNPDF30NNLO_Zmumu_MAXHTPTV70_140_CFilterBVeto.deriv.DAOD_TRUTH1.e5271_p3401
mc16_13TeV:mc16_13TeV.364104.Sherpa_221_NNPDF30NNLO_Zmumu_MAXHTPTV70_140_CFilterBVeto.deriv.DAOD_TRUTH1.e5271_p3401
mc16_13TeV:mc16_13TeV.364105.Sherpa_221_NNPDF30NNLO_Zmumu_MAXHTPTV70_140_BFilter.deriv.DAOD_TRUTH1.e5271_e5984_p3401
mc16_13TeV:mc16_13TeV.364105.Sherpa_221_NNPDF30NNLO_Zmumu_MAXHTPTV70_140_BFilter.deriv.DAOD_TRUTH1.e5271_e5984_p3401
mc16_13TeV:mc16_13TeV.364105.Sherpa_221_NNPDF30NNLO_Zmumu_MAXHTPTV70_140_BFilter.deriv.DAOD_TRUTH1.e5271_e5984_p3401
mc16_13TeV:mc16_13TeV.364105.Sherpa_221_NNPDF30NNLO_Zmumu_MAXHTPTV70_140_BFilter.deriv.DAOD_TRUTH1.e5271_p3401
mc16_13TeV:mc16_13TeV.364105.Sherpa_221_NNPDF30NNLO_Zmumu_MAXHTPTV70_140_BFilter.deriv.DAOD_TRUTH1.e5271_p3401
mc16_13TeV:mc16_13TeV.364105.Sherpa_221_NNPDF30NNLO_Zmumu_MAXHTPTV70_140_BFilter.deriv.DAOD_TRUTH1.e5271_p3401
mc16_13TeV:mc16_13TeV.364106.Sherpa_221_NNPDF30NNLO_Zmumu_MAXHTPTV140_280_CVetoBVeto.deriv.DAOD_TRUTH1.e5271_e5984_p3401
mc16_13TeV:mc16_13TeV.364106.Sherpa_221_NNPDF30NNLO_Zmumu_MAXHTPTV140_280_CVetoBVeto.deriv.DAOD_TRUTH1.e5271_e5984_p3401
mc16_13TeV:mc16_13TeV.364106.Sherpa_221_NNPDF30NNLO_Zmumu_MAXHTPTV140_280_CVetoBVeto.deriv.DAOD_TRUTH1.e5271_p3401
mc16_13TeV:mc16_13TeV.364106.Sherpa_221_NNPDF30NNLO_Zmumu_MAXHTPTV140_280_CVetoBVeto.deriv.DAOD_TRUTH1.e5271_p3401
mc16_13TeV:mc16_13TeV.364107.Sherpa_221_NNPDF30NNLO_Zmumu_MAXHTPTV140_280_CFilterBVeto.deriv.DAOD_TRUTH1.e5271_e5984_p3401
mc16_13TeV:mc16_13TeV.364107.Sherpa_221_NNPDF30NNLO_Zmumu_MAXHTPTV140_280_CFilterBVeto.deriv.DAOD_TRUTH1.e5271_e5984_p3401
mc16_13TeV:mc16_13TeV.364107.Sherpa_221_NNPDF30NNLO_Zmumu_MAXHTPTV140_280_CFilterBVeto.deriv.DAOD_TRUTH1.e5271_p3401
mc16_13TeV:mc16_13TeV.364107.Sherpa_221_NNPDF30NNLO_Zmumu_MAXHTPTV140_280_CFilterBVeto.deriv.DAOD_TRUTH1.e5271_p3401
mc16_13TeV:mc16_13TeV.364108.Sherpa_221_NNPDF30NNLO_Zmumu_MAXHTPTV140_280_BFilter.deriv.DAOD_TRUTH1.e5271_e5984_p3401
mc16_13TeV:mc16_13TeV.364108.Sherpa_221_NNPDF30NNLO_Zmumu_MAXHTPTV140_280_BFilter.deriv.DAOD_TRUTH1.e5271_e5984_p3401
mc16_13TeV:mc16_13TeV.364108.Sherpa_221_NNPDF30NNLO_Zmumu_MAXHTPTV140_280_BFilter.deriv.DAOD_TRUTH1.e5271_e5984_p3401
mc16_13TeV:mc16_13TeV.364108.Sherpa_221_NNPDF30NNLO_Zmumu_MAXHTPTV140_280_BFilter.deriv.DAOD_TRUTH1.e5271_p3401
mc16_13TeV:mc16_13TeV.364108.Sherpa_221_NNPDF30NNLO_Zmumu_MAXHTPTV140_280_BFilter.deriv.DAOD_TRUTH1.e5271_p3401
mc16_13TeV:mc16_13TeV.364108.Sherpa_221_NNPDF30NNLO_Zmumu_MAXHTPTV140_280_BFilter.deriv.DAOD_TRUTH1.e5271_p3401
mc16_13TeV:mc16_13TeV.364109.Sherpa_221_NNPDF30NNLO_Zmumu_MAXHTPTV280_500_CVetoBVeto.deriv.DAOD_TRUTH1.e5271_e5984_p3401
mc16_13TeV:mc16_13TeV.364109.Sherpa_221_NNPDF30NNLO_Zmumu_MAXHTPTV280_500_CVetoBVeto.deriv.DAOD_TRUTH1.e5271_e5984_p3401
mc16_13TeV:mc16_13TeV.364109.Sherpa_221_NNPDF30NNLO_Zmumu_MAXHTPTV280_500_CVetoBVeto.deriv.DAOD_TRUTH1.e5271_e5984_p3401
mc16_13TeV:mc16_13TeV.364109.Sherpa_221_NNPDF30NNLO_Zmumu_MAXHTPTV280_500_CVetoBVeto.deriv.DAOD_TRUTH1.e5271_p3401
mc16_13TeV:mc16_13TeV.364109.Sherpa_221_NNPDF30NNLO_Zmumu_MAXHTPTV280_500_CVetoBVeto.deriv.DAOD_TRUTH1.e5271_p3401
mc16_13TeV:mc16_13TeV.364109.Sherpa_221_NNPDF30NNLO_Zmumu_MAXHTPTV280_500_CVetoBVeto.deriv.DAOD_TRUTH1.e5271_p3401
mc16_13TeV:mc16_13TeV.364110.Sherpa_221_NNPDF30NNLO_Zmumu_MAXHTPTV280_500_CFilterBVeto.deriv.DAOD_TRUTH1.e5271_e5984_p3401
mc16_13TeV:mc16_13TeV.364110.Sherpa_221_NNPDF30NNLO_Zmumu_MAXHTPTV280_500_CFilterBVeto.deriv.DAOD_TRUTH1.e5271_e5984_p3401
mc16_13TeV:mc16_13TeV.364110.Sherpa_221_NNPDF30NNLO_Zmumu_MAXHTPTV280_500_CFilterBVeto.deriv.DAOD_TRUTH1.e5271_p3401
mc16_13TeV:mc16_13TeV.364110.Sherpa_221_NNPDF30NNLO_Zmumu_MAXHTPTV280_500_CFilterBVeto.deriv.DAOD_TRUTH1.e5271_p3401
mc16_13TeV:mc16_13TeV.364111.Sherpa_221_NNPDF30NNLO_Zmumu_MAXHTPTV280_500_BFilter.deriv.DAOD_TRUTH1.e5271_e5984_p3401
mc16_13TeV:mc16_13TeV.364111.Sherpa_221_NNPDF30NNLO_Zmumu_MAXHTPTV280_500_BFilter.deriv.DAOD_TRUTH1.e5271_e5984_p3401
mc16_13TeV:mc16_13TeV.364111.Sherpa_221_NNPDF30NNLO_Zmumu_MAXHTPTV280_500_BFilter.deriv.DAOD_TRUTH1.e5271_p3401
mc16_13TeV:mc16_13TeV.364111.Sherpa_221_NNPDF30NNLO_Zmumu_MAXHTPTV280_500_BFilter.deriv.DAOD_TRUTH1.e5271_p3401
mc16_13TeV:mc16_13TeV.364112.Sherpa_221_NNPDF30NNLO_Zmumu_MAXHTPTV500_1000.deriv.DAOD_TRUTH1.e5271_e5984_p3401
mc16_13TeV:mc16_13TeV.364112.Sherpa_221_NNPDF30NNLO_Zmumu_MAXHTPTV500_1000.deriv.DAOD_TRUTH1.e5271_e5984_p3401
mc16_13TeV:mc16_13TeV.364112.Sherpa_221_NNPDF30NNLO_Zmumu_MAXHTPTV500_1000.deriv.DAOD_TRUTH1.e5271_e5984_p3401
mc16_13TeV:mc16_13TeV.364112.Sherpa_221_NNPDF30NNLO_Zmumu_MAXHTPTV500_1000.deriv.DAOD_TRUTH1.e5271_p3401
mc16_13TeV:mc16_13TeV.364112.Sherpa_221_NNPDF30NNLO_Zmumu_MAXHTPTV500_1000.deriv.DAOD_TRUTH1.e5271_p3401
mc16_13TeV:mc16_13TeV.364112.Sherpa_221_NNPDF30NNLO_Zmumu_MAXHTPTV500_1000.deriv.DAOD_TRUTH1.e5271_p3401
mc16_13TeV:mc16_13TeV.364113.Sherpa_221_NNPDF30NNLO_Zmumu_MAXHTPTV1000_E_CMS.deriv.DAOD_TRUTH1.e5271_e5984_p3401
mc16_13TeV:mc16_13TeV.364113.Sherpa_221_NNPDF30NNLO_Zmumu_MAXHTPTV1000_E_CMS.deriv.DAOD_TRUTH1.e5271_e5984_p3401
mc16_13TeV:mc16_13TeV.364113.Sherpa_221_NNPDF30NNLO_Zmumu_MAXHTPTV1000_E_CMS.deriv.DAOD_TRUTH1.e5271_p3401
mc16_13TeV:mc16_13TeV.364113.Sherpa_221_NNPDF30NNLO_Zmumu_MAXHTPTV1000_E_CMS.deriv.DAOD_TRUTH1.e5271_p3401
mc16_13TeV:mc16_13TeV.364114.Sherpa_221_NNPDF30NNLO_Zee_MAXHTPTV0_70_CVetoBVeto.deriv.DAOD_TRUTH1.e5299_e5984_p3401
mc16_13TeV:mc16_13TeV.364114.Sherpa_221_NNPDF30NNLO_Zee_MAXHTPTV0_70_CVetoBVeto.deriv.DAOD_TRUTH1.e5299_e5984_p3401
mc16_13TeV:mc16_13TeV.364114.Sherpa_221_NNPDF30NNLO_Zee_MAXHTPTV0_70_CVetoBVeto.deriv.DAOD_TRUTH1.e5299_p3401
mc16_13TeV:mc16_13TeV.364114.Sherpa_221_NNPDF30NNLO_Zee_MAXHTPTV0_70_CVetoBVeto.deriv.DAOD_TRUTH1.e5299_p3401
mc16_13TeV:mc16_13TeV.364115.Sherpa_221_NNPDF30NNLO_Zee_MAXHTPTV0_70_CFilterBVeto.deriv.DAOD_TRUTH1.e5299_e5984_p3401
mc16_13TeV:mc16_13TeV.364115.Sherpa_221_NNPDF30NNLO_Zee_MAXHTPTV0_70_CFilterBVeto.deriv.DAOD_TRUTH1.e5299_e5984_p3401
mc16_13TeV:mc16_13TeV.364115.Sherpa_221_NNPDF30NNLO_Zee_MAXHTPTV0_70_CFilterBVeto.deriv.DAOD_TRUTH1.e5299_p3401
mc16_13TeV:mc16_13TeV.364115.Sherpa_221_NNPDF30NNLO_Zee_MAXHTPTV0_70_CFilterBVeto.deriv.DAOD_TRUTH1.e5299_p3401
mc16_13TeV:mc16_13TeV.364116.Sherpa_221_NNPDF30NNLO_Zee_MAXHTPTV0_70_BFilter.deriv.DAOD_TRUTH1.e5299_e5984_p3401
mc16_13TeV:mc16_13TeV.364116.Sherpa_221_NNPDF30NNLO_Zee_MAXHTPTV0_70_BFilter.deriv.DAOD_TRUTH1.e5299_e5984_p3401
mc16_13TeV:mc16_13TeV.364116.Sherpa_221_NNPDF30NNLO_Zee_MAXHTPTV0_70_BFilter.deriv.DAOD_TRUTH1.e5299_p3401
mc16_13TeV:mc16_13TeV.364116.Sherpa_221_NNPDF30NNLO_Zee_MAXHTPTV0_70_BFilter.deriv.DAOD_TRUTH1.e5299_p3401
mc16_13TeV:mc16_13TeV.364117.Sherpa_221_NNPDF30NNLO_Zee_MAXHTPTV70_140_CVetoBVeto.deriv.DAOD_TRUTH1.e5299_e5984_p3401
mc16_13TeV:mc16_13TeV.364117.Sherpa_221_NNPDF30NNLO_Zee_MAXHTPTV70_140_CVetoBVeto.deriv.DAOD_TRUTH1.e5299_e5984_p3401
mc16_13TeV:mc16_13TeV.364117.Sherpa_221_NNPDF30NNLO_Zee_MAXHTPTV70_140_CVetoBVeto.deriv.DAOD_TRUTH1.e5299_p3401
mc16_13TeV:mc16_13TeV.364117.Sherpa_221_NNPDF30NNLO_Zee_MAXHTPTV70_140_CVetoBVeto.deriv.DAOD_TRUTH1.e5299_p3401
mc16_13TeV:mc16_13TeV.364118.Sherpa_221_NNPDF30NNLO_Zee_MAXHTPTV70_140_CFilterBVeto.deriv.DAOD_TRUTH1.e5299_e5984_p3401
mc16_13TeV:mc16_13TeV.364118.Sherpa_221_NNPDF30NNLO_Zee_MAXHTPTV70_140_CFilterBVeto.deriv.DAOD_TRUTH1.e5299_e5984_p3401
mc16_13TeV:mc16_13TeV.364118.Sherpa_221_NNPDF30NNLO_Zee_MAXHTPTV70_140_CFilterBVeto.deriv.DAOD_TRUTH1.e5299_p3401
mc16_13TeV:mc16_13TeV.364118.Sherpa_221_NNPDF30NNLO_Zee_MAXHTPTV70_140_CFilterBVeto.deriv.DAOD_TRUTH1.e5299_p3401
mc16_13TeV:mc16_13TeV.364119.Sherpa_221_NNPDF30NNLO_Zee_MAXHTPTV70_140_BFilter.deriv.DAOD_TRUTH1.e5299_e5984_p3401
mc16_13TeV:mc16_13TeV.364119.Sherpa_221_NNPDF30NNLO_Zee_MAXHTPTV70_140_BFilter.deriv.DAOD_TRUTH1.e5299_e5984_p3401
mc16_13TeV:mc16_13TeV.364119.Sherpa_221_NNPDF30NNLO_Zee_MAXHTPTV70_140_BFilter.deriv.DAOD_TRUTH1.e5299_p3401
mc16_13TeV:mc16_13TeV.364119.Sherpa_221_NNPDF30NNLO_Zee_MAXHTPTV70_140_BFilter.deriv.DAOD_TRUTH1.e5299_p3401
mc16_13TeV:mc16_13TeV.364120.Sherpa_221_NNPDF30NNLO_Zee_MAXHTPTV140_280_CVetoBVeto.deriv.DAOD_TRUTH1.e5299_e5984_p3401
mc16_13TeV:mc16_13TeV.364120.Sherpa_221_NNPDF30NNLO_Zee_MAXHTPTV140_280_CVetoBVeto.deriv.DAOD_TRUTH1.e5299_e5984_p3401
mc16_13TeV:mc16_13TeV.364120.Sherpa_221_NNPDF30NNLO_Zee_MAXHTPTV140_280_CVetoBVeto.deriv.DAOD_TRUTH1.e5299_p3401
mc16_13TeV:mc16_13TeV.364120.Sherpa_221_NNPDF30NNLO_Zee_MAXHTPTV140_280_CVetoBVeto.deriv.DAOD_TRUTH1.e5299_p3401
mc16_13TeV:mc16_13TeV.364121.Sherpa_221_NNPDF30NNLO_Zee_MAXHTPTV140_280_CFilterBVeto.deriv.DAOD_TRUTH1.e5299_e5984_p3401
mc16_13TeV:mc16_13TeV.364121.Sherpa_221_NNPDF30NNLO_Zee_MAXHTPTV140_280_CFilterBVeto.deriv.DAOD_TRUTH1.e5299_e5984_p3401
mc16_13TeV:mc16_13TeV.364121.Sherpa_221_NNPDF30NNLO_Zee_MAXHTPTV140_280_CFilterBVeto.deriv.DAOD_TRUTH1.e5299_p3401
mc16_13TeV:mc16_13TeV.364121.Sherpa_221_NNPDF30NNLO_Zee_MAXHTPTV140_280_CFilterBVeto.deriv.DAOD_TRUTH1.e5299_p3401
mc16_13TeV:mc16_13TeV.364122.Sherpa_221_NNPDF30NNLO_Zee_MAXHTPTV140_280_BFilter.deriv.DAOD_TRUTH1.e5299_e5984_p3401
mc16_13TeV:mc16_13TeV.364122.Sherpa_221_NNPDF30NNLO_Zee_MAXHTPTV140_280_BFilter.deriv.DAOD_TRUTH1.e5299_e5984_p3401
mc16_13TeV:mc16_13TeV.364122.Sherpa_221_NNPDF30NNLO_Zee_MAXHTPTV140_280_BFilter.deriv.DAOD_TRUTH1.e5299_p3401
mc16_13TeV:mc16_13TeV.364122.Sherpa_221_NNPDF30NNLO_Zee_MAXHTPTV140_280_BFilter.deriv.DAOD_TRUTH1.e5299_p3401
mc16_13TeV:mc16_13TeV.364123.Sherpa_221_NNPDF30NNLO_Zee_MAXHTPTV280_500_CVetoBVeto.deriv.DAOD_TRUTH1.e5299_e5984_p3401
mc16_13TeV:mc16_13TeV.364123.Sherpa_221_NNPDF30NNLO_Zee_MAXHTPTV280_500_CVetoBVeto.deriv.DAOD_TRUTH1.e5299_e5984_p3401
mc16_13TeV:mc16_13TeV.364123.Sherpa_221_NNPDF30NNLO_Zee_MAXHTPTV280_500_CVetoBVeto.deriv.DAOD_TRUTH1.e5299_p3401
mc16_13TeV:mc16_13TeV.364123.Sherpa_221_NNPDF30NNLO_Zee_MAXHTPTV280_500_CVetoBVeto.deriv.DAOD_TRUTH1.e5299_p3401
mc16_13TeV:mc16_13TeV.364124.Sherpa_221_NNPDF30NNLO_Zee_MAXHTPTV280_500_CFilterBVeto.deriv.DAOD_TRUTH1.e5299_e5984_p3401
mc16_13TeV:mc16_13TeV.364124.Sherpa_221_NNPDF30NNLO_Zee_MAXHTPTV280_500_CFilterBVeto.deriv.DAOD_TRUTH1.e5299_e5984_p3401
mc16_13TeV:mc16_13TeV.364124.Sherpa_221_NNPDF30NNLO_Zee_MAXHTPTV280_500_CFilterBVeto.deriv.DAOD_TRUTH1.e5299_p3401
mc16_13TeV:mc16_13TeV.364124.Sherpa_221_NNPDF30NNLO_Zee_MAXHTPTV280_500_CFilterBVeto.deriv.DAOD_TRUTH1.e5299_p3401
mc16_13TeV:mc16_13TeV.364125.Sherpa_221_NNPDF30NNLO_Zee_MAXHTPTV280_500_BFilter.deriv.DAOD_TRUTH1.e5299_e5984_p3401
mc16_13TeV:mc16_13TeV.364125.Sherpa_221_NNPDF30NNLO_Zee_MAXHTPTV280_500_BFilter.deriv.DAOD_TRUTH1.e5299_e5984_p3401
mc16_13TeV:mc16_13TeV.364125.Sherpa_221_NNPDF30NNLO_Zee_MAXHTPTV280_500_BFilter.deriv.DAOD_TRUTH1.e5299_p3401
mc16_13TeV:mc16_13TeV.364125.Sherpa_221_NNPDF30NNLO_Zee_MAXHTPTV280_500_BFilter.deriv.DAOD_TRUTH1.e5299_p3401
mc16_13TeV:mc16_13TeV.364126.Sherpa_221_NNPDF30NNLO_Zee_MAXHTPTV500_1000.deriv.DAOD_TRUTH1.e5299_e5984_p3401
mc16_13TeV:mc16_13TeV.364126.Sherpa_221_NNPDF30NNLO_Zee_MAXHTPTV500_1000.deriv.DAOD_TRUTH1.e5299_e5984_p3401
mc16_13TeV:mc16_13TeV.364126.Sherpa_221_NNPDF30NNLO_Zee_MAXHTPTV500_1000.deriv.DAOD_TRUTH1.e5299_p3401
mc16_13TeV:mc16_13TeV.364126.Sherpa_221_NNPDF30NNLO_Zee_MAXHTPTV500_1000.deriv.DAOD_TRUTH1.e5299_p3401
mc16_13TeV:mc16_13TeV.364127.Sherpa_221_NNPDF30NNLO_Zee_MAXHTPTV1000_E_CMS.deriv.DAOD_TRUTH1.e5299_e5984_p3401
mc16_13TeV:mc16_13TeV.364127.Sherpa_221_NNPDF30NNLO_Zee_MAXHTPTV1000_E_CMS.deriv.DAOD_TRUTH1.e5299_e5984_p3401
mc16_13TeV:mc16_13TeV.364127.Sherpa_221_NNPDF30NNLO_Zee_MAXHTPTV1000_E_CMS.deriv.DAOD_TRUTH1.e5299_p3401
mc16_13TeV:mc16_13TeV.364127.Sherpa_221_NNPDF30NNLO_Zee_MAXHTPTV1000_E_CMS.deriv.DAOD_TRUTH1.e5299_p3401
mc16_13TeV:mc16_13TeV.364128.Sherpa_221_NNPDF30NNLO_Ztautau_MAXHTPTV0_70_CVetoBVeto.deriv.DAOD_TRUTH1.e5307_e5984_p3401
mc16_13TeV:mc16_13TeV.364128.Sherpa_221_NNPDF30NNLO_Ztautau_MAXHTPTV0_70_CVetoBVeto.deriv.DAOD_TRUTH1.e5307_e5984_p3401
mc16_13TeV:mc16_13TeV.364128.Sherpa_221_NNPDF30NNLO_Ztautau_MAXHTPTV0_70_CVetoBVeto.deriv.DAOD_TRUTH1.e5307_p3401
mc16_13TeV:mc16_13TeV.364128.Sherpa_221_NNPDF30NNLO_Ztautau_MAXHTPTV0_70_CVetoBVeto.deriv.DAOD_TRUTH1.e5307_p3401
mc16_13TeV:mc16_13TeV.364129.Sherpa_221_NNPDF30NNLO_Ztautau_MAXHTPTV0_70_CFilterBVeto.deriv.DAOD_TRUTH1.e5307_e5984_p3401
mc16_13TeV:mc16_13TeV.364129.Sherpa_221_NNPDF30NNLO_Ztautau_MAXHTPTV0_70_CFilterBVeto.deriv.DAOD_TRUTH1.e5307_e5984_p3401
mc16_13TeV:mc16_13TeV.364129.Sherpa_221_NNPDF30NNLO_Ztautau_MAXHTPTV0_70_CFilterBVeto.deriv.DAOD_TRUTH1.e5307_p3401
mc16_13TeV:mc16_13TeV.364129.Sherpa_221_NNPDF30NNLO_Ztautau_MAXHTPTV0_70_CFilterBVeto.deriv.DAOD_TRUTH1.e5307_p3401
mc16_13TeV:mc16_13TeV.364130.Sherpa_221_NNPDF30NNLO_Ztautau_MAXHTPTV0_70_BFilter.deriv.DAOD_TRUTH1.e5307_e5984_p3401
mc16_13TeV:mc16_13TeV.364130.Sherpa_221_NNPDF30NNLO_Ztautau_MAXHTPTV0_70_BFilter.deriv.DAOD_TRUTH1.e5307_e5984_p3401
mc16_13TeV:mc16_13TeV.364130.Sherpa_221_NNPDF30NNLO_Ztautau_MAXHTPTV0_70_BFilter.deriv.DAOD_TRUTH1.e5307_p3401
mc16_13TeV:mc16_13TeV.364130.Sherpa_221_NNPDF30NNLO_Ztautau_MAXHTPTV0_70_BFilter.deriv.DAOD_TRUTH1.e5307_p3401
mc16_13TeV:mc16_13TeV.364131.Sherpa_221_NNPDF30NNLO_Ztautau_MAXHTPTV70_140_CVetoBVeto.deriv.DAOD_TRUTH1.e5307_e5984_p3401
mc16_13TeV:mc16_13TeV.364131.Sherpa_221_NNPDF30NNLO_Ztautau_MAXHTPTV70_140_CVetoBVeto.deriv.DAOD_TRUTH1.e5307_e5984_p3401
mc16_13TeV:mc16_13TeV.364131.Sherpa_221_NNPDF30NNLO_Ztautau_MAXHTPTV70_140_CVetoBVeto.deriv.DAOD_TRUTH1.e5307_p3401
mc16_13TeV:mc16_13TeV.364131.Sherpa_221_NNPDF30NNLO_Ztautau_MAXHTPTV70_140_CVetoBVeto.deriv.DAOD_TRUTH1.e5307_p3401
mc16_13TeV:mc16_13TeV.364132.Sherpa_221_NNPDF30NNLO_Ztautau_MAXHTPTV70_140_CFilterBVeto.deriv.DAOD_TRUTH1.e5307_e5984_p3401
mc16_13TeV:mc16_13TeV.364132.Sherpa_221_NNPDF30NNLO_Ztautau_MAXHTPTV70_140_CFilterBVeto.deriv.DAOD_TRUTH1.e5307_e5984_p3401
mc16_13TeV:mc16_13TeV.364132.Sherpa_221_NNPDF30NNLO_Ztautau_MAXHTPTV70_140_CFilterBVeto.deriv.DAOD_TRUTH1.e5307_p3401
mc16_13TeV:mc16_13TeV.364132.Sherpa_221_NNPDF30NNLO_Ztautau_MAXHTPTV70_140_CFilterBVeto.deriv.DAOD_TRUTH1.e5307_p3401
mc16_13TeV:mc16_13TeV.364133.Sherpa_221_NNPDF30NNLO_Ztautau_MAXHTPTV70_140_BFilter.deriv.DAOD_TRUTH1.e5307_e5984_p3401
mc16_13TeV:mc16_13TeV.364133.Sherpa_221_NNPDF30NNLO_Ztautau_MAXHTPTV70_140_BFilter.deriv.DAOD_TRUTH1.e5307_e5984_p3401
mc16_13TeV:mc16_13TeV.364133.Sherpa_221_NNPDF30NNLO_Ztautau_MAXHTPTV70_140_BFilter.deriv.DAOD_TRUTH1.e5307_p3401
mc16_13TeV:mc16_13TeV.364133.Sherpa_221_NNPDF30NNLO_Ztautau_MAXHTPTV70_140_BFilter.deriv.DAOD_TRUTH1.e5307_p3401
mc16_13TeV:mc16_13TeV.364134.Sherpa_221_NNPDF30NNLO_Ztautau_MAXHTPTV140_280_CVetoBVeto.deriv.DAOD_TRUTH1.e5307_e5984_p3401
mc16_13TeV:mc16_13TeV.364134.Sherpa_221_NNPDF30NNLO_Ztautau_MAXHTPTV140_280_CVetoBVeto.deriv.DAOD_TRUTH1.e5307_e5984_p3401
mc16_13TeV:mc16_13TeV.364134.Sherpa_221_NNPDF30NNLO_Ztautau_MAXHTPTV140_280_CVetoBVeto.deriv.DAOD_TRUTH1.e5307_p3401
mc16_13TeV:mc16_13TeV.364134.Sherpa_221_NNPDF30NNLO_Ztautau_MAXHTPTV140_280_CVetoBVeto.deriv.DAOD_TRUTH1.e5307_p3401
mc16_13TeV:mc16_13TeV.364135.Sherpa_221_NNPDF30NNLO_Ztautau_MAXHTPTV140_280_CFilterBVeto.deriv.DAOD_TRUTH1.e5307_e5984_p3401
mc16_13TeV:mc16_13TeV.364135.Sherpa_221_NNPDF30NNLO_Ztautau_MAXHTPTV140_280_CFilterBVeto.deriv.DAOD_TRUTH1.e5307_e5984_p3401
mc16_13TeV:mc16_13TeV.364135.Sherpa_221_NNPDF30NNLO_Ztautau_MAXHTPTV140_280_CFilterBVeto.deriv.DAOD_TRUTH1.e5307_p3401
mc16_13TeV:mc16_13TeV.364135.Sherpa_221_NNPDF30NNLO_Ztautau_MAXHTPTV140_280_CFilterBVeto.deriv.DAOD_TRUTH1.e5307_p3401
mc16_13TeV:mc16_13TeV.364136.Sherpa_221_NNPDF30NNLO_Ztautau_MAXHTPTV140_280_BFilter.deriv.DAOD_TRUTH1.e5307_e5984_p3401
mc16_13TeV:mc16_13TeV.364136.Sherpa_221_NNPDF30NNLO_Ztautau_MAXHTPTV140_280_BFilter.deriv.DAOD_TRUTH1.e5307_e5984_p3401
mc16_13TeV:mc16_13TeV.364136.Sherpa_221_NNPDF30NNLO_Ztautau_MAXHTPTV140_280_BFilter.deriv.DAOD_TRUTH1.e5307_p3401
mc16_13TeV:mc16_13TeV.364136.Sherpa_221_NNPDF30NNLO_Ztautau_MAXHTPTV140_280_BFilter.deriv.DAOD_TRUTH1.e5307_p3401
mc16_13TeV:mc16_13TeV.364137.Sherpa_221_NNPDF30NNLO_Ztautau_MAXHTPTV280_500_CVetoBVeto.deriv.DAOD_TRUTH1.e5307_e5984_p3401
mc16_13TeV:mc16_13TeV.364137.Sherpa_221_NNPDF30NNLO_Ztautau_MAXHTPTV280_500_CVetoBVeto.deriv.DAOD_TRUTH1.e5307_e5984_p3401
mc16_13TeV:mc16_13TeV.364137.Sherpa_221_NNPDF30NNLO_Ztautau_MAXHTPTV280_500_CVetoBVeto.deriv.DAOD_TRUTH1.e5307_p3401
mc16_13TeV:mc16_13TeV.364137.Sherpa_221_NNPDF30NNLO_Ztautau_MAXHTPTV280_500_CVetoBVeto.deriv.DAOD_TRUTH1.e5307_p3401
mc16_13TeV:mc16_13TeV.364138.Sherpa_221_NNPDF30NNLO_Ztautau_MAXHTPTV280_500_CFilterBVeto.deriv.DAOD_TRUTH1.e5313_e5984_p3401
mc16_13TeV:mc16_13TeV.364138.Sherpa_221_NNPDF30NNLO_Ztautau_MAXHTPTV280_500_CFilterBVeto.deriv.DAOD_TRUTH1.e5313_e5984_p3401
mc16_13TeV:mc16_13TeV.364138.Sherpa_221_NNPDF30NNLO_Ztautau_MAXHTPTV280_500_CFilterBVeto.deriv.DAOD_TRUTH1.e5313_p3401
mc16_13TeV:mc16_13TeV.364138.Sherpa_221_NNPDF30NNLO_Ztautau_MAXHTPTV280_500_CFilterBVeto.deriv.DAOD_TRUTH1.e5313_p3401
mc16_13TeV:mc16_13TeV.364139.Sherpa_221_NNPDF30NNLO_Ztautau_MAXHTPTV280_500_BFilter.deriv.DAOD_TRUTH1.e5313_e5984_p3401
mc16_13TeV:mc16_13TeV.364139.Sherpa_221_NNPDF30NNLO_Ztautau_MAXHTPTV280_500_BFilter.deriv.DAOD_TRUTH1.e5313_e5984_p3401
mc16_13TeV:mc16_13TeV.364139.Sherpa_221_NNPDF30NNLO_Ztautau_MAXHTPTV280_500_BFilter.deriv.DAOD_TRUTH1.e5313_p3401
mc16_13TeV:mc16_13TeV.364139.Sherpa_221_NNPDF30NNLO_Ztautau_MAXHTPTV280_500_BFilter.deriv.DAOD_TRUTH1.e5313_p3401
mc16_13TeV:mc16_13TeV.364140.Sherpa_221_NNPDF30NNLO_Ztautau_MAXHTPTV500_1000.deriv.DAOD_TRUTH1.e5307_e5984_p3401
mc16_13TeV:mc16_13TeV.364140.Sherpa_221_NNPDF30NNLO_Ztautau_MAXHTPTV500_1000.deriv.DAOD_TRUTH1.e5307_e5984_p3401
mc16_13TeV:mc16_13TeV.364140.Sherpa_221_NNPDF30NNLO_Ztautau_MAXHTPTV500_1000.deriv.DAOD_TRUTH1.e5307_p3401
mc16_13TeV:mc16_13TeV.364140.Sherpa_221_NNPDF30NNLO_Ztautau_MAXHTPTV500_1000.deriv.DAOD_TRUTH1.e5307_p3401
mc16_13TeV:mc16_13TeV.364141.Sherpa_221_NNPDF30NNLO_Ztautau_MAXHTPTV1000_E_CMS.deriv.DAOD_TRUTH1.e5307_e5984_p3401
mc16_13TeV:mc16_13TeV.364141.Sherpa_221_NNPDF30NNLO_Ztautau_MAXHTPTV1000_E_CMS.deriv.DAOD_TRUTH1.e5307_e5984_p3401
mc16_13TeV:mc16_13TeV.364141.Sherpa_221_NNPDF30NNLO_Ztautau_MAXHTPTV1000_E_CMS.deriv.DAOD_TRUTH1.e5307_p3401
mc16_13TeV:mc16_13TeV.364141.Sherpa_221_NNPDF30NNLO_Ztautau_MAXHTPTV1000_E_CMS.deriv.DAOD_TRUTH1.e5307_p3401
mc16_13TeV:mc16_13TeV.364156.Sherpa_221_NNPDF30NNLO_Wmunu_MAXHTPTV0_70_CVetoBVeto.deriv.DAOD_TRUTH1.e5340_e5984_p3401
mc16_13TeV:mc16_13TeV.364156.Sherpa_221_NNPDF30NNLO_Wmunu_MAXHTPTV0_70_CVetoBVeto.deriv.DAOD_TRUTH1.e5340_e5984_p3401
mc16_13TeV:mc16_13TeV.364156.Sherpa_221_NNPDF30NNLO_Wmunu_MAXHTPTV0_70_CVetoBVeto.deriv.DAOD_TRUTH1.e5340_e5984_p3401
mc16_13TeV:mc16_13TeV.364156.Sherpa_221_NNPDF30NNLO_Wmunu_MAXHTPTV0_70_CVetoBVeto.deriv.DAOD_TRUTH1.e5340_p3401
mc16_13TeV:mc16_13TeV.364156.Sherpa_221_NNPDF30NNLO_Wmunu_MAXHTPTV0_70_CVetoBVeto.deriv.DAOD_TRUTH1.e5340_p3401
mc16_13TeV:mc16_13TeV.364156.Sherpa_221_NNPDF30NNLO_Wmunu_MAXHTPTV0_70_CVetoBVeto.deriv.DAOD_TRUTH1.e5340_p3401
mc16_13TeV:mc16_13TeV.364157.Sherpa_221_NNPDF30NNLO_Wmunu_MAXHTPTV0_70_CFilterBVeto.deriv.DAOD_TRUTH1.e5340_e5984_p3401
mc16_13TeV:mc16_13TeV.364157.Sherpa_221_NNPDF30NNLO_Wmunu_MAXHTPTV0_70_CFilterBVeto.deriv.DAOD_TRUTH1.e5340_e5984_p3401
mc16_13TeV:mc16_13TeV.364157.Sherpa_221_NNPDF30NNLO_Wmunu_MAXHTPTV0_70_CFilterBVeto.deriv.DAOD_TRUTH1.e5340_e5984_p3401
mc16_13TeV:mc16_13TeV.364157.Sherpa_221_NNPDF30NNLO_Wmunu_MAXHTPTV0_70_CFilterBVeto.deriv.DAOD_TRUTH1.e5340_p3401
mc16_13TeV:mc16_13TeV.364157.Sherpa_221_NNPDF30NNLO_Wmunu_MAXHTPTV0_70_CFilterBVeto.deriv.DAOD_TRUTH1.e5340_p3401
mc16_13TeV:mc16_13TeV.364157.Sherpa_221_NNPDF30NNLO_Wmunu_MAXHTPTV0_70_CFilterBVeto.deriv.DAOD_TRUTH1.e5340_p3401
mc16_13TeV:mc16_13TeV.364158.Sherpa_221_NNPDF30NNLO_Wmunu_MAXHTPTV0_70_BFilter.deriv.DAOD_TRUTH1.e5340_e5984_p3401
mc16_13TeV:mc16_13TeV.364158.Sherpa_221_NNPDF30NNLO_Wmunu_MAXHTPTV0_70_BFilter.deriv.DAOD_TRUTH1.e5340_e5984_p3401
mc16_13TeV:mc16_13TeV.364158.Sherpa_221_NNPDF30NNLO_Wmunu_MAXHTPTV0_70_BFilter.deriv.DAOD_TRUTH1.e5340_e5984_p3401
mc16_13TeV:mc16_13TeV.364158.Sherpa_221_NNPDF30NNLO_Wmunu_MAXHTPTV0_70_BFilter.deriv.DAOD_TRUTH1.e5340_p3401
mc16_13TeV:mc16_13TeV.364158.Sherpa_221_NNPDF30NNLO_Wmunu_MAXHTPTV0_70_BFilter.deriv.DAOD_TRUTH1.e5340_p3401
mc16_13TeV:mc16_13TeV.364158.Sherpa_221_NNPDF30NNLO_Wmunu_MAXHTPTV0_70_BFilter.deriv.DAOD_TRUTH1.e5340_p3401
mc16_13TeV:mc16_13TeV.364159.Sherpa_221_NNPDF30NNLO_Wmunu_MAXHTPTV70_140_CVetoBVeto.deriv.DAOD_TRUTH1.e5340_e5984_p3401
mc16_13TeV:mc16_13TeV.364159.Sherpa_221_NNPDF30NNLO_Wmunu_MAXHTPTV70_140_CVetoBVeto.deriv.DAOD_TRUTH1.e5340_e5984_p3401
mc16_13TeV:mc16_13TeV.364159.Sherpa_221_NNPDF30NNLO_Wmunu_MAXHTPTV70_140_CVetoBVeto.deriv.DAOD_TRUTH1.e5340_e5984_p3401
mc16_13TeV:mc16_13TeV.364159.Sherpa_221_NNPDF30NNLO_Wmunu_MAXHTPTV70_140_CVetoBVeto.deriv.DAOD_TRUTH1.e5340_e5984_p3401
mc16_13TeV:mc16_13TeV.364159.Sherpa_221_NNPDF30NNLO_Wmunu_MAXHTPTV70_140_CVetoBVeto.deriv.DAOD_TRUTH1.e5340_p3401
mc16_13TeV:mc16_13TeV.364159.Sherpa_221_NNPDF30NNLO_Wmunu_MAXHTPTV70_140_CVetoBVeto.deriv.DAOD_TRUTH1.e5340_p3401
mc16_13TeV:mc16_13TeV.364159.Sherpa_221_NNPDF30NNLO_Wmunu_MAXHTPTV70_140_CVetoBVeto.deriv.DAOD_TRUTH1.e5340_p3401
mc16_13TeV:mc16_13TeV.364159.Sherpa_221_NNPDF30NNLO_Wmunu_MAXHTPTV70_140_CVetoBVeto.deriv.DAOD_TRUTH1.e5340_p3401
mc16_13TeV:mc16_13TeV.364160.Sherpa_221_NNPDF30NNLO_Wmunu_MAXHTPTV70_140_CFilterBVeto.deriv.DAOD_TRUTH1.e5340_e5984_p3401
mc16_13TeV:mc16_13TeV.364160.Sherpa_221_NNPDF30NNLO_Wmunu_MAXHTPTV70_140_CFilterBVeto.deriv.DAOD_TRUTH1.e5340_e5984_p3401
mc16_13TeV:mc16_13TeV.364160.Sherpa_221_NNPDF30NNLO_Wmunu_MAXHTPTV70_140_CFilterBVeto.deriv.DAOD_TRUTH1.e5340_e5984_p3401
mc16_13TeV:mc16_13TeV.364160.Sherpa_221_NNPDF30NNLO_Wmunu_MAXHTPTV70_140_CFilterBVeto.deriv.DAOD_TRUTH1.e5340_p3401
mc16_13TeV:mc16_13TeV.364160.Sherpa_221_NNPDF30NNLO_Wmunu_MAXHTPTV70_140_CFilterBVeto.deriv.DAOD_TRUTH1.e5340_p3401
mc16_13TeV:mc16_13TeV.364160.Sherpa_221_NNPDF30NNLO_Wmunu_MAXHTPTV70_140_CFilterBVeto.deriv.DAOD_TRUTH1.e5340_p3401
mc16_13TeV:mc16_13TeV.364161.Sherpa_221_NNPDF30NNLO_Wmunu_MAXHTPTV70_140_BFilter.deriv.DAOD_TRUTH1.e5340_e5984_p3401
mc16_13TeV:mc16_13TeV.364161.Sherpa_221_NNPDF30NNLO_Wmunu_MAXHTPTV70_140_BFilter.deriv.DAOD_TRUTH1.e5340_e5984_p3401
mc16_13TeV:mc16_13TeV.364161.Sherpa_221_NNPDF30NNLO_Wmunu_MAXHTPTV70_140_BFilter.deriv.DAOD_TRUTH1.e5340_e5984_p3401
mc16_13TeV:mc16_13TeV.364161.Sherpa_221_NNPDF30NNLO_Wmunu_MAXHTPTV70_140_BFilter.deriv.DAOD_TRUTH1.e5340_p3401
mc16_13TeV:mc16_13TeV.364161.Sherpa_221_NNPDF30NNLO_Wmunu_MAXHTPTV70_140_BFilter.deriv.DAOD_TRUTH1.e5340_p3401
mc16_13TeV:mc16_13TeV.364161.Sherpa_221_NNPDF30NNLO_Wmunu_MAXHTPTV70_140_BFilter.deriv.DAOD_TRUTH1.e5340_p3401
mc16_13TeV:mc16_13TeV.364162.Sherpa_221_NNPDF30NNLO_Wmunu_MAXHTPTV140_280_CVetoBVeto.deriv.DAOD_TRUTH1.e5340_e5984_p3401
mc16_13TeV:mc16_13TeV.364162.Sherpa_221_NNPDF30NNLO_Wmunu_MAXHTPTV140_280_CVetoBVeto.deriv.DAOD_TRUTH1.e5340_e5984_p3401
mc16_13TeV:mc16_13TeV.364162.Sherpa_221_NNPDF30NNLO_Wmunu_MAXHTPTV140_280_CVetoBVeto.deriv.DAOD_TRUTH1.e5340_e5984_p3401
mc16_13TeV:mc16_13TeV.364162.Sherpa_221_NNPDF30NNLO_Wmunu_MAXHTPTV140_280_CVetoBVeto.deriv.DAOD_TRUTH1.e5340_p3401
mc16_13TeV:mc16_13TeV.364162.Sherpa_221_NNPDF30NNLO_Wmunu_MAXHTPTV140_280_CVetoBVeto.deriv.DAOD_TRUTH1.e5340_p3401
mc16_13TeV:mc16_13TeV.364162.Sherpa_221_NNPDF30NNLO_Wmunu_MAXHTPTV140_280_CVetoBVeto.deriv.DAOD_TRUTH1.e5340_p3401
mc16_13TeV:mc16_13TeV.364163.Sherpa_221_NNPDF30NNLO_Wmunu_MAXHTPTV140_280_CFilterBVeto.deriv.DAOD_TRUTH1.e5340_e5984_p3401
mc16_13TeV:mc16_13TeV.364163.Sherpa_221_NNPDF30NNLO_Wmunu_MAXHTPTV140_280_CFilterBVeto.deriv.DAOD_TRUTH1.e5340_e5984_p3401
mc16_13TeV:mc16_13TeV.364163.Sherpa_221_NNPDF30NNLO_Wmunu_MAXHTPTV140_280_CFilterBVeto.deriv.DAOD_TRUTH1.e5340_e5984_p3401
mc16_13TeV:mc16_13TeV.364163.Sherpa_221_NNPDF30NNLO_Wmunu_MAXHTPTV140_280_CFilterBVeto.deriv.DAOD_TRUTH1.e5340_p3401
mc16_13TeV:mc16_13TeV.364163.Sherpa_221_NNPDF30NNLO_Wmunu_MAXHTPTV140_280_CFilterBVeto.deriv.DAOD_TRUTH1.e5340_p3401
mc16_13TeV:mc16_13TeV.364163.Sherpa_221_NNPDF30NNLO_Wmunu_MAXHTPTV140_280_CFilterBVeto.deriv.DAOD_TRUTH1.e5340_p3401
mc16_13TeV:mc16_13TeV.364164.Sherpa_221_NNPDF30NNLO_Wmunu_MAXHTPTV140_280_BFilter.deriv.DAOD_TRUTH1.e5340_e5984_p3401
mc16_13TeV:mc16_13TeV.364164.Sherpa_221_NNPDF30NNLO_Wmunu_MAXHTPTV140_280_BFilter.deriv.DAOD_TRUTH1.e5340_e5984_p3401
mc16_13TeV:mc16_13TeV.364164.Sherpa_221_NNPDF30NNLO_Wmunu_MAXHTPTV140_280_BFilter.deriv.DAOD_TRUTH1.e5340_e5984_p3401
mc16_13TeV:mc16_13TeV.364164.Sherpa_221_NNPDF30NNLO_Wmunu_MAXHTPTV140_280_BFilter.deriv.DAOD_TRUTH1.e5340_p3401
mc16_13TeV:mc16_13TeV.364164.Sherpa_221_NNPDF30NNLO_Wmunu_MAXHTPTV140_280_BFilter.deriv.DAOD_TRUTH1.e5340_p3401
mc16_13TeV:mc16_13TeV.364164.Sherpa_221_NNPDF30NNLO_Wmunu_MAXHTPTV140_280_BFilter.deriv.DAOD_TRUTH1.e5340_p3401
mc16_13TeV:mc16_13TeV.364165.Sherpa_221_NNPDF30NNLO_Wmunu_MAXHTPTV280_500_CVetoBVeto.deriv.DAOD_TRUTH1.e5340_e5984_p3401
mc16_13TeV:mc16_13TeV.364165.Sherpa_221_NNPDF30NNLO_Wmunu_MAXHTPTV280_500_CVetoBVeto.deriv.DAOD_TRUTH1.e5340_e5984_p3401
mc16_13TeV:mc16_13TeV.364165.Sherpa_221_NNPDF30NNLO_Wmunu_MAXHTPTV280_500_CVetoBVeto.deriv.DAOD_TRUTH1.e5340_e5984_p3401
mc16_13TeV:mc16_13TeV.364165.Sherpa_221_NNPDF30NNLO_Wmunu_MAXHTPTV280_500_CVetoBVeto.deriv.DAOD_TRUTH1.e5340_p3401
mc16_13TeV:mc16_13TeV.364165.Sherpa_221_NNPDF30NNLO_Wmunu_MAXHTPTV280_500_CVetoBVeto.deriv.DAOD_TRUTH1.e5340_p3401
mc16_13TeV:mc16_13TeV.364165.Sherpa_221_NNPDF30NNLO_Wmunu_MAXHTPTV280_500_CVetoBVeto.deriv.DAOD_TRUTH1.e5340_p3401
mc16_13TeV:mc16_13TeV.364166.Sherpa_221_NNPDF30NNLO_Wmunu_MAXHTPTV280_500_CFilterBVeto.deriv.DAOD_TRUTH1.e5340_e5984_p3401
mc16_13TeV:mc16_13TeV.364166.Sherpa_221_NNPDF30NNLO_Wmunu_MAXHTPTV280_500_CFilterBVeto.deriv.DAOD_TRUTH1.e5340_e5984_p3401
mc16_13TeV:mc16_13TeV.364166.Sherpa_221_NNPDF30NNLO_Wmunu_MAXHTPTV280_500_CFilterBVeto.deriv.DAOD_TRUTH1.e5340_e5984_p3401
mc16_13TeV:mc16_13TeV.364166.Sherpa_221_NNPDF30NNLO_Wmunu_MAXHTPTV280_500_CFilterBVeto.deriv.DAOD_TRUTH1.e5340_p3401
mc16_13TeV:mc16_13TeV.364166.Sherpa_221_NNPDF30NNLO_Wmunu_MAXHTPTV280_500_CFilterBVeto.deriv.DAOD_TRUTH1.e5340_p3401
mc16_13TeV:mc16_13TeV.364166.Sherpa_221_NNPDF30NNLO_Wmunu_MAXHTPTV280_500_CFilterBVeto.deriv.DAOD_TRUTH1.e5340_p3401
mc16_13TeV:mc16_13TeV.364167.Sherpa_221_NNPDF30NNLO_Wmunu_MAXHTPTV280_500_BFilter.deriv.DAOD_TRUTH1.e5340_e5984_p3401
mc16_13TeV:mc16_13TeV.364167.Sherpa_221_NNPDF30NNLO_Wmunu_MAXHTPTV280_500_BFilter.deriv.DAOD_TRUTH1.e5340_e5984_p3401
mc16_13TeV:mc16_13TeV.364167.Sherpa_221_NNPDF30NNLO_Wmunu_MAXHTPTV280_500_BFilter.deriv.DAOD_TRUTH1.e5340_e5984_p3401
mc16_13TeV:mc16_13TeV.364167.Sherpa_221_NNPDF30NNLO_Wmunu_MAXHTPTV280_500_BFilter.deriv.DAOD_TRUTH1.e5340_p3401
mc16_13TeV:mc16_13TeV.364167.Sherpa_221_NNPDF30NNLO_Wmunu_MAXHTPTV280_500_BFilter.deriv.DAOD_TRUTH1.e5340_p3401
mc16_13TeV:mc16_13TeV.364167.Sherpa_221_NNPDF30NNLO_Wmunu_MAXHTPTV280_500_BFilter.deriv.DAOD_TRUTH1.e5340_p3401
mc16_13TeV:mc16_13TeV.364168.Sherpa_221_NNPDF30NNLO_Wmunu_MAXHTPTV500_1000.deriv.DAOD_TRUTH1.e5340_e5984_p3401
mc16_13TeV:mc16_13TeV.364168.Sherpa_221_NNPDF30NNLO_Wmunu_MAXHTPTV500_1000.deriv.DAOD_TRUTH1.e5340_e5984_p3401
mc16_13TeV:mc16_13TeV.364168.Sherpa_221_NNPDF30NNLO_Wmunu_MAXHTPTV500_1000.deriv.DAOD_TRUTH1.e5340_e5984_p3401
mc16_13TeV:mc16_13TeV.364168.Sherpa_221_NNPDF30NNLO_Wmunu_MAXHTPTV500_1000.deriv.DAOD_TRUTH1.e5340_p3401
mc16_13TeV:mc16_13TeV.364168.Sherpa_221_NNPDF30NNLO_Wmunu_MAXHTPTV500_1000.deriv.DAOD_TRUTH1.e5340_p3401
mc16_13TeV:mc16_13TeV.364168.Sherpa_221_NNPDF30NNLO_Wmunu_MAXHTPTV500_1000.deriv.DAOD_TRUTH1.e5340_p3401
mc16_13TeV:mc16_13TeV.364169.Sherpa_221_NNPDF30NNLO_Wmunu_MAXHTPTV1000_E_CMS.deriv.DAOD_TRUTH1.e5340_e5984_p3401
mc16_13TeV:mc16_13TeV.364169.Sherpa_221_NNPDF30NNLO_Wmunu_MAXHTPTV1000_E_CMS.deriv.DAOD_TRUTH1.e5340_e5984_p3401
mc16_13TeV:mc16_13TeV.364169.Sherpa_221_NNPDF30NNLO_Wmunu_MAXHTPTV1000_E_CMS.deriv.DAOD_TRUTH1.e5340_e5984_p3401
mc16_13TeV:mc16_13TeV.364169.Sherpa_221_NNPDF30NNLO_Wmunu_MAXHTPTV1000_E_CMS.deriv.DAOD_TRUTH1.e5340_p3401
mc16_13TeV:mc16_13TeV.364169.Sherpa_221_NNPDF30NNLO_Wmunu_MAXHTPTV1000_E_CMS.deriv.DAOD_TRUTH1.e5340_p3401
mc16_13TeV:mc16_13TeV.364169.Sherpa_221_NNPDF30NNLO_Wmunu_MAXHTPTV1000_E_CMS.deriv.DAOD_TRUTH1.e5340_p3401
mc16_13TeV:mc16_13TeV.364170.Sherpa_221_NNPDF30NNLO_Wenu_MAXHTPTV0_70_CVetoBVeto.deriv.DAOD_TRUTH1.e5340_e5984_p3401
mc16_13TeV:mc16_13TeV.364170.Sherpa_221_NNPDF30NNLO_Wenu_MAXHTPTV0_70_CVetoBVeto.deriv.DAOD_TRUTH1.e5340_e5984_p3401
mc16_13TeV:mc16_13TeV.364170.Sherpa_221_NNPDF30NNLO_Wenu_MAXHTPTV0_70_CVetoBVeto.deriv.DAOD_TRUTH1.e5340_e5984_p3401
mc16_13TeV:mc16_13TeV.364170.Sherpa_221_NNPDF30NNLO_Wenu_MAXHTPTV0_70_CVetoBVeto.deriv.DAOD_TRUTH1.e5340_p3401
mc16_13TeV:mc16_13TeV.364170.Sherpa_221_NNPDF30NNLO_Wenu_MAXHTPTV0_70_CVetoBVeto.deriv.DAOD_TRUTH1.e5340_p3401
mc16_13TeV:mc16_13TeV.364170.Sherpa_221_NNPDF30NNLO_Wenu_MAXHTPTV0_70_CVetoBVeto.deriv.DAOD_TRUTH1.e5340_p3401
mc16_13TeV:mc16_13TeV.364171.Sherpa_221_NNPDF30NNLO_Wenu_MAXHTPTV0_70_CFilterBVeto.deriv.DAOD_TRUTH1.e5340_e5984_p3401
mc16_13TeV:mc16_13TeV.364171.Sherpa_221_NNPDF30NNLO_Wenu_MAXHTPTV0_70_CFilterBVeto.deriv.DAOD_TRUTH1.e5340_e5984_p3401
mc16_13TeV:mc16_13TeV.364171.Sherpa_221_NNPDF30NNLO_Wenu_MAXHTPTV0_70_CFilterBVeto.deriv.DAOD_TRUTH1.e5340_e5984_p3401
mc16_13TeV:mc16_13TeV.364171.Sherpa_221_NNPDF30NNLO_Wenu_MAXHTPTV0_70_CFilterBVeto.deriv.DAOD_TRUTH1.e5340_p3401
mc16_13TeV:mc16_13TeV.364171.Sherpa_221_NNPDF30NNLO_Wenu_MAXHTPTV0_70_CFilterBVeto.deriv.DAOD_TRUTH1.e5340_p3401
mc16_13TeV:mc16_13TeV.364171.Sherpa_221_NNPDF30NNLO_Wenu_MAXHTPTV0_70_CFilterBVeto.deriv.DAOD_TRUTH1.e5340_p3401
mc16_13TeV:mc16_13TeV.364172.Sherpa_221_NNPDF30NNLO_Wenu_MAXHTPTV0_70_BFilter.deriv.DAOD_TRUTH1.e5340_e5984_p3401
mc16_13TeV:mc16_13TeV.364172.Sherpa_221_NNPDF30NNLO_Wenu_MAXHTPTV0_70_BFilter.deriv.DAOD_TRUTH1.e5340_e5984_p3401
mc16_13TeV:mc16_13TeV.364172.Sherpa_221_NNPDF30NNLO_Wenu_MAXHTPTV0_70_BFilter.deriv.DAOD_TRUTH1.e5340_e5984_p3401
mc16_13TeV:mc16_13TeV.364172.Sherpa_221_NNPDF30NNLO_Wenu_MAXHTPTV0_70_BFilter.deriv.DAOD_TRUTH1.e5340_e5984_p3401
mc16_13TeV:mc16_13TeV.364172.Sherpa_221_NNPDF30NNLO_Wenu_MAXHTPTV0_70_BFilter.deriv.DAOD_TRUTH1.e5340_p3401
mc16_13TeV:mc16_13TeV.364172.Sherpa_221_NNPDF30NNLO_Wenu_MAXHTPTV0_70_BFilter.deriv.DAOD_TRUTH1.e5340_p3401
mc16_13TeV:mc16_13TeV.364172.Sherpa_221_NNPDF30NNLO_Wenu_MAXHTPTV0_70_BFilter.deriv.DAOD_TRUTH1.e5340_p3401
mc16_13TeV:mc16_13TeV.364172.Sherpa_221_NNPDF30NNLO_Wenu_MAXHTPTV0_70_BFilter.deriv.DAOD_TRUTH1.e5340_p3401
mc16_13TeV:mc16_13TeV.364173.Sherpa_221_NNPDF30NNLO_Wenu_MAXHTPTV70_140_CVetoBVeto.deriv.DAOD_TRUTH1.e5340_e5984_p3401
mc16_13TeV:mc16_13TeV.364173.Sherpa_221_NNPDF30NNLO_Wenu_MAXHTPTV70_140_CVetoBVeto.deriv.DAOD_TRUTH1.e5340_e5984_p3401
mc16_13TeV:mc16_13TeV.364173.Sherpa_221_NNPDF30NNLO_Wenu_MAXHTPTV70_140_CVetoBVeto.deriv.DAOD_TRUTH1.e5340_e5984_p3401
mc16_13TeV:mc16_13TeV.364173.Sherpa_221_NNPDF30NNLO_Wenu_MAXHTPTV70_140_CVetoBVeto.deriv.DAOD_TRUTH1.e5340_p3401
mc16_13TeV:mc16_13TeV.364173.Sherpa_221_NNPDF30NNLO_Wenu_MAXHTPTV70_140_CVetoBVeto.deriv.DAOD_TRUTH1.e5340_p3401
mc16_13TeV:mc16_13TeV.364173.Sherpa_221_NNPDF30NNLO_Wenu_MAXHTPTV70_140_CVetoBVeto.deriv.DAOD_TRUTH1.e5340_p3401
mc16_13TeV:mc16_13TeV.364174.Sherpa_221_NNPDF30NNLO_Wenu_MAXHTPTV70_140_CFilterBVeto.deriv.DAOD_TRUTH1.e5340_e5984_p3401
mc16_13TeV:mc16_13TeV.364174.Sherpa_221_NNPDF30NNLO_Wenu_MAXHTPTV70_140_CFilterBVeto.deriv.DAOD_TRUTH1.e5340_e5984_p3401
mc16_13TeV:mc16_13TeV.364174.Sherpa_221_NNPDF30NNLO_Wenu_MAXHTPTV70_140_CFilterBVeto.deriv.DAOD_TRUTH1.e5340_e5984_p3401
mc16_13TeV:mc16_13TeV.364174.Sherpa_221_NNPDF30NNLO_Wenu_MAXHTPTV70_140_CFilterBVeto.deriv.DAOD_TRUTH1.e5340_p3401
mc16_13TeV:mc16_13TeV.364174.Sherpa_221_NNPDF30NNLO_Wenu_MAXHTPTV70_140_CFilterBVeto.deriv.DAOD_TRUTH1.e5340_p3401
mc16_13TeV:mc16_13TeV.364174.Sherpa_221_NNPDF30NNLO_Wenu_MAXHTPTV70_140_CFilterBVeto.deriv.DAOD_TRUTH1.e5340_p3401
mc16_13TeV:mc16_13TeV.364175.Sherpa_221_NNPDF30NNLO_Wenu_MAXHTPTV70_140_BFilter.deriv.DAOD_TRUTH1.e5340_e5984_p3401
mc16_13TeV:mc16_13TeV.364175.Sherpa_221_NNPDF30NNLO_Wenu_MAXHTPTV70_140_BFilter.deriv.DAOD_TRUTH1.e5340_e5984_p3401
mc16_13TeV:mc16_13TeV.364175.Sherpa_221_NNPDF30NNLO_Wenu_MAXHTPTV70_140_BFilter.deriv.DAOD_TRUTH1.e5340_e5984_p3401
mc16_13TeV:mc16_13TeV.364175.Sherpa_221_NNPDF30NNLO_Wenu_MAXHTPTV70_140_BFilter.deriv.DAOD_TRUTH1.e5340_p3401
mc16_13TeV:mc16_13TeV.364175.Sherpa_221_NNPDF30NNLO_Wenu_MAXHTPTV70_140_BFilter.deriv.DAOD_TRUTH1.e5340_p3401
mc16_13TeV:mc16_13TeV.364175.Sherpa_221_NNPDF30NNLO_Wenu_MAXHTPTV70_140_BFilter.deriv.DAOD_TRUTH1.e5340_p3401
mc16_13TeV:mc16_13TeV.364176.Sherpa_221_NNPDF30NNLO_Wenu_MAXHTPTV140_280_CVetoBVeto.deriv.DAOD_TRUTH1.e5340_e5984_p3401
mc16_13TeV:mc16_13TeV.364176.Sherpa_221_NNPDF30NNLO_Wenu_MAXHTPTV140_280_CVetoBVeto.deriv.DAOD_TRUTH1.e5340_e5984_p3401
mc16_13TeV:mc16_13TeV.364176.Sherpa_221_NNPDF30NNLO_Wenu_MAXHTPTV140_280_CVetoBVeto.deriv.DAOD_TRUTH1.e5340_e5984_p3401
mc16_13TeV:mc16_13TeV.364176.Sherpa_221_NNPDF30NNLO_Wenu_MAXHTPTV140_280_CVetoBVeto.deriv.DAOD_TRUTH1.e5340_p3401
mc16_13TeV:mc16_13TeV.364176.Sherpa_221_NNPDF30NNLO_Wenu_MAXHTPTV140_280_CVetoBVeto.deriv.DAOD_TRUTH1.e5340_p3401
mc16_13TeV:mc16_13TeV.364176.Sherpa_221_NNPDF30NNLO_Wenu_MAXHTPTV140_280_CVetoBVeto.deriv.DAOD_TRUTH1.e5340_p3401
mc16_13TeV:mc16_13TeV.364177.Sherpa_221_NNPDF30NNLO_Wenu_MAXHTPTV140_280_CFilterBVeto.deriv.DAOD_TRUTH1.e5340_e5984_p3401
mc16_13TeV:mc16_13TeV.364177.Sherpa_221_NNPDF30NNLO_Wenu_MAXHTPTV140_280_CFilterBVeto.deriv.DAOD_TRUTH1.e5340_e5984_p3401
mc16_13TeV:mc16_13TeV.364177.Sherpa_221_NNPDF30NNLO_Wenu_MAXHTPTV140_280_CFilterBVeto.deriv.DAOD_TRUTH1.e5340_e5984_p3401
mc16_13TeV:mc16_13TeV.364177.Sherpa_221_NNPDF30NNLO_Wenu_MAXHTPTV140_280_CFilterBVeto.deriv.DAOD_TRUTH1.e5340_p3401
mc16_13TeV:mc16_13TeV.364177.Sherpa_221_NNPDF30NNLO_Wenu_MAXHTPTV140_280_CFilterBVeto.deriv.DAOD_TRUTH1.e5340_p3401
mc16_13TeV:mc16_13TeV.364177.Sherpa_221_NNPDF30NNLO_Wenu_MAXHTPTV140_280_CFilterBVeto.deriv.DAOD_TRUTH1.e5340_p3401
mc16_13TeV:mc16_13TeV.364178.Sherpa_221_NNPDF30NNLO_Wenu_MAXHTPTV140_280_BFilter.deriv.DAOD_TRUTH1.e5340_e5984_p3401
mc16_13TeV:mc16_13TeV.364178.Sherpa_221_NNPDF30NNLO_Wenu_MAXHTPTV140_280_BFilter.deriv.DAOD_TRUTH1.e5340_e5984_p3401
mc16_13TeV:mc16_13TeV.364178.Sherpa_221_NNPDF30NNLO_Wenu_MAXHTPTV140_280_BFilter.deriv.DAOD_TRUTH1.e5340_e5984_p3401
mc16_13TeV:mc16_13TeV.364178.Sherpa_221_NNPDF30NNLO_Wenu_MAXHTPTV140_280_BFilter.deriv.DAOD_TRUTH1.e5340_p3401
mc16_13TeV:mc16_13TeV.364178.Sherpa_221_NNPDF30NNLO_Wenu_MAXHTPTV140_280_BFilter.deriv.DAOD_TRUTH1.e5340_p3401
mc16_13TeV:mc16_13TeV.364178.Sherpa_221_NNPDF30NNLO_Wenu_MAXHTPTV140_280_BFilter.deriv.DAOD_TRUTH1.e5340_p3401
mc16_13TeV:mc16_13TeV.364179.Sherpa_221_NNPDF30NNLO_Wenu_MAXHTPTV280_500_CVetoBVeto.deriv.DAOD_TRUTH1.e5340_e5984_p3401
mc16_13TeV:mc16_13TeV.364179.Sherpa_221_NNPDF30NNLO_Wenu_MAXHTPTV280_500_CVetoBVeto.deriv.DAOD_TRUTH1.e5340_e5984_p3401
mc16_13TeV:mc16_13TeV.364179.Sherpa_221_NNPDF30NNLO_Wenu_MAXHTPTV280_500_CVetoBVeto.deriv.DAOD_TRUTH1.e5340_e5984_p3401
mc16_13TeV:mc16_13TeV.364179.Sherpa_221_NNPDF30NNLO_Wenu_MAXHTPTV280_500_CVetoBVeto.deriv.DAOD_TRUTH1.e5340_p3401
mc16_13TeV:mc16_13TeV.364179.Sherpa_221_NNPDF30NNLO_Wenu_MAXHTPTV280_500_CVetoBVeto.deriv.DAOD_TRUTH1.e5340_p3401
mc16_13TeV:mc16_13TeV.364179.Sherpa_221_NNPDF30NNLO_Wenu_MAXHTPTV280_500_CVetoBVeto.deriv.DAOD_TRUTH1.e5340_p3401
mc16_13TeV:mc16_13TeV.364180.Sherpa_221_NNPDF30NNLO_Wenu_MAXHTPTV280_500_CFilterBVeto.deriv.DAOD_TRUTH1.e5340_e5984_p3401
mc16_13TeV:mc16_13TeV.364180.Sherpa_221_NNPDF30NNLO_Wenu_MAXHTPTV280_500_CFilterBVeto.deriv.DAOD_TRUTH1.e5340_e5984_p3401
mc16_13TeV:mc16_13TeV.364180.Sherpa_221_NNPDF30NNLO_Wenu_MAXHTPTV280_500_CFilterBVeto.deriv.DAOD_TRUTH1.e5340_e5984_p3401
mc16_13TeV:mc16_13TeV.364180.Sherpa_221_NNPDF30NNLO_Wenu_MAXHTPTV280_500_CFilterBVeto.deriv.DAOD_TRUTH1.e5340_p3401
mc16_13TeV:mc16_13TeV.364180.Sherpa_221_NNPDF30NNLO_Wenu_MAXHTPTV280_500_CFilterBVeto.deriv.DAOD_TRUTH1.e5340_p3401
mc16_13TeV:mc16_13TeV.364180.Sherpa_221_NNPDF30NNLO_Wenu_MAXHTPTV280_500_CFilterBVeto.deriv.DAOD_TRUTH1.e5340_p3401
mc16_13TeV:mc16_13TeV.364181.Sherpa_221_NNPDF30NNLO_Wenu_MAXHTPTV280_500_BFilter.deriv.DAOD_TRUTH1.e5340_e5984_p3401
mc16_13TeV:mc16_13TeV.364181.Sherpa_221_NNPDF30NNLO_Wenu_MAXHTPTV280_500_BFilter.deriv.DAOD_TRUTH1.e5340_e5984_p3401
mc16_13TeV:mc16_13TeV.364181.Sherpa_221_NNPDF30NNLO_Wenu_MAXHTPTV280_500_BFilter.deriv.DAOD_TRUTH1.e5340_e5984_p3401
mc16_13TeV:mc16_13TeV.364181.Sherpa_221_NNPDF30NNLO_Wenu_MAXHTPTV280_500_BFilter.deriv.DAOD_TRUTH1.e5340_p3401
mc16_13TeV:mc16_13TeV.364181.Sherpa_221_NNPDF30NNLO_Wenu_MAXHTPTV280_500_BFilter.deriv.DAOD_TRUTH1.e5340_p3401
mc16_13TeV:mc16_13TeV.364181.Sherpa_221_NNPDF30NNLO_Wenu_MAXHTPTV280_500_BFilter.deriv.DAOD_TRUTH1.e5340_p3401
mc16_13TeV:mc16_13TeV.364182.Sherpa_221_NNPDF30NNLO_Wenu_MAXHTPTV500_1000.deriv.DAOD_TRUTH1.e5340_e5984_p3401
mc16_13TeV:mc16_13TeV.364182.Sherpa_221_NNPDF30NNLO_Wenu_MAXHTPTV500_1000.deriv.DAOD_TRUTH1.e5340_e5984_p3401
mc16_13TeV:mc16_13TeV.364182.Sherpa_221_NNPDF30NNLO_Wenu_MAXHTPTV500_1000.deriv.DAOD_TRUTH1.e5340_e5984_p3401
mc16_13TeV:mc16_13TeV.364182.Sherpa_221_NNPDF30NNLO_Wenu_MAXHTPTV500_1000.deriv.DAOD_TRUTH1.e5340_p3401
mc16_13TeV:mc16_13TeV.364182.Sherpa_221_NNPDF30NNLO_Wenu_MAXHTPTV500_1000.deriv.DAOD_TRUTH1.e5340_p3401
mc16_13TeV:mc16_13TeV.364182.Sherpa_221_NNPDF30NNLO_Wenu_MAXHTPTV500_1000.deriv.DAOD_TRUTH1.e5340_p3401
mc16_13TeV:mc16_13TeV.364183.Sherpa_221_NNPDF30NNLO_Wenu_MAXHTPTV1000_E_CMS.deriv.DAOD_TRUTH1.e5340_e5984_p3401
mc16_13TeV:mc16_13TeV.364183.Sherpa_221_NNPDF30NNLO_Wenu_MAXHTPTV1000_E_CMS.deriv.DAOD_TRUTH1.e5340_e5984_p3401
mc16_13TeV:mc16_13TeV.364183.Sherpa_221_NNPDF30NNLO_Wenu_MAXHTPTV1000_E_CMS.deriv.DAOD_TRUTH1.e5340_p3401
mc16_13TeV:mc16_13TeV.364183.Sherpa_221_NNPDF30NNLO_Wenu_MAXHTPTV1000_E_CMS.deriv.DAOD_TRUTH1.e5340_p3401
mc16_13TeV:mc16_13TeV.364184.Sherpa_221_NNPDF30NNLO_Wtaunu_MAXHTPTV0_70_CVetoBVeto.deriv.DAOD_TRUTH1.e5340_e5984_p3401
mc16_13TeV:mc16_13TeV.364184.Sherpa_221_NNPDF30NNLO_Wtaunu_MAXHTPTV0_70_CVetoBVeto.deriv.DAOD_TRUTH1.e5340_e5984_p3401
mc16_13TeV:mc16_13TeV.364184.Sherpa_221_NNPDF30NNLO_Wtaunu_MAXHTPTV0_70_CVetoBVeto.deriv.DAOD_TRUTH1.e5340_e5984_p3401
mc16_13TeV:mc16_13TeV.364184.Sherpa_221_NNPDF30NNLO_Wtaunu_MAXHTPTV0_70_CVetoBVeto.deriv.DAOD_TRUTH1.e5340_p3401
mc16_13TeV:mc16_13TeV.364184.Sherpa_221_NNPDF30NNLO_Wtaunu_MAXHTPTV0_70_CVetoBVeto.deriv.DAOD_TRUTH1.e5340_p3401
mc16_13TeV:mc16_13TeV.364184.Sherpa_221_NNPDF30NNLO_Wtaunu_MAXHTPTV0_70_CVetoBVeto.deriv.DAOD_TRUTH1.e5340_p3401
mc16_13TeV:mc16_13TeV.364185.Sherpa_221_NNPDF30NNLO_Wtaunu_MAXHTPTV0_70_CFilterBVeto.deriv.DAOD_TRUTH1.e5340_e5984_p3401
mc16_13TeV:mc16_13TeV.364185.Sherpa_221_NNPDF30NNLO_Wtaunu_MAXHTPTV0_70_CFilterBVeto.deriv.DAOD_TRUTH1.e5340_e5984_p3401
mc16_13TeV:mc16_13TeV.364185.Sherpa_221_NNPDF30NNLO_Wtaunu_MAXHTPTV0_70_CFilterBVeto.deriv.DAOD_TRUTH1.e5340_p3401
mc16_13TeV:mc16_13TeV.364185.Sherpa_221_NNPDF30NNLO_Wtaunu_MAXHTPTV0_70_CFilterBVeto.deriv.DAOD_TRUTH1.e5340_p3401
mc16_13TeV:mc16_13TeV.364186.Sherpa_221_NNPDF30NNLO_Wtaunu_MAXHTPTV0_70_BFilter.deriv.DAOD_TRUTH1.e5340_e5984_p3401
mc16_13TeV:mc16_13TeV.364186.Sherpa_221_NNPDF30NNLO_Wtaunu_MAXHTPTV0_70_BFilter.deriv.DAOD_TRUTH1.e5340_e5984_p3401
mc16_13TeV:mc16_13TeV.364186.Sherpa_221_NNPDF30NNLO_Wtaunu_MAXHTPTV0_70_BFilter.deriv.DAOD_TRUTH1.e5340_p3401
mc16_13TeV:mc16_13TeV.364186.Sherpa_221_NNPDF30NNLO_Wtaunu_MAXHTPTV0_70_BFilter.deriv.DAOD_TRUTH1.e5340_p3401
mc16_13TeV:mc16_13TeV.364187.Sherpa_221_NNPDF30NNLO_Wtaunu_MAXHTPTV70_140_CVetoBVeto.deriv.DAOD_TRUTH1.e5340_e5984_p3401
mc16_13TeV:mc16_13TeV.364187.Sherpa_221_NNPDF30NNLO_Wtaunu_MAXHTPTV70_140_CVetoBVeto.deriv.DAOD_TRUTH1.e5340_e5984_p3401
mc16_13TeV:mc16_13TeV.364187.Sherpa_221_NNPDF30NNLO_Wtaunu_MAXHTPTV70_140_CVetoBVeto.deriv.DAOD_TRUTH1.e5340_p3401
mc16_13TeV:mc16_13TeV.364187.Sherpa_221_NNPDF30NNLO_Wtaunu_MAXHTPTV70_140_CVetoBVeto.deriv.DAOD_TRUTH1.e5340_p3401
mc16_13TeV:mc16_13TeV.364188.Sherpa_221_NNPDF30NNLO_Wtaunu_MAXHTPTV70_140_CFilterBVeto.deriv.DAOD_TRUTH1.e5340_e5984_p3401
mc16_13TeV:mc16_13TeV.364188.Sherpa_221_NNPDF30NNLO_Wtaunu_MAXHTPTV70_140_CFilterBVeto.deriv.DAOD_TRUTH1.e5340_e5984_p3401
mc16_13TeV:mc16_13TeV.364188.Sherpa_221_NNPDF30NNLO_Wtaunu_MAXHTPTV70_140_CFilterBVeto.deriv.DAOD_TRUTH1.e5340_p3401
mc16_13TeV:mc16_13TeV.364188.Sherpa_221_NNPDF30NNLO_Wtaunu_MAXHTPTV70_140_CFilterBVeto.deriv.DAOD_TRUTH1.e5340_p3401
mc16_13TeV:mc16_13TeV.364189.Sherpa_221_NNPDF30NNLO_Wtaunu_MAXHTPTV70_140_BFilter.deriv.DAOD_TRUTH1.e5340_e5984_p3401
mc16_13TeV:mc16_13TeV.364189.Sherpa_221_NNPDF30NNLO_Wtaunu_MAXHTPTV70_140_BFilter.deriv.DAOD_TRUTH1.e5340_e5984_p3401
mc16_13TeV:mc16_13TeV.364189.Sherpa_221_NNPDF30NNLO_Wtaunu_MAXHTPTV70_140_BFilter.deriv.DAOD_TRUTH1.e5340_e5984_p3401
mc16_13TeV:mc16_13TeV.364189.Sherpa_221_NNPDF30NNLO_Wtaunu_MAXHTPTV70_140_BFilter.deriv.DAOD_TRUTH1.e5340_p3401
mc16_13TeV:mc16_13TeV.364189.Sherpa_221_NNPDF30NNLO_Wtaunu_MAXHTPTV70_140_BFilter.deriv.DAOD_TRUTH1.e5340_p3401
mc16_13TeV:mc16_13TeV.364189.Sherpa_221_NNPDF30NNLO_Wtaunu_MAXHTPTV70_140_BFilter.deriv.DAOD_TRUTH1.e5340_p3401
mc16_13TeV:mc16_13TeV.364190.Sherpa_221_NNPDF30NNLO_Wtaunu_MAXHTPTV140_280_CVetoBVeto.deriv.DAOD_TRUTH1.e5340_e5984_p3401
mc16_13TeV:mc16_13TeV.364190.Sherpa_221_NNPDF30NNLO_Wtaunu_MAXHTPTV140_280_CVetoBVeto.deriv.DAOD_TRUTH1.e5340_e5984_p3401
mc16_13TeV:mc16_13TeV.364190.Sherpa_221_NNPDF30NNLO_Wtaunu_MAXHTPTV140_280_CVetoBVeto.deriv.DAOD_TRUTH1.e5340_e5984_p3401
mc16_13TeV:mc16_13TeV.364190.Sherpa_221_NNPDF30NNLO_Wtaunu_MAXHTPTV140_280_CVetoBVeto.deriv.DAOD_TRUTH1.e5340_p3401
mc16_13TeV:mc16_13TeV.364190.Sherpa_221_NNPDF30NNLO_Wtaunu_MAXHTPTV140_280_CVetoBVeto.deriv.DAOD_TRUTH1.e5340_p3401
mc16_13TeV:mc16_13TeV.364190.Sherpa_221_NNPDF30NNLO_Wtaunu_MAXHTPTV140_280_CVetoBVeto.deriv.DAOD_TRUTH1.e5340_p3401
mc16_13TeV:mc16_13TeV.364191.Sherpa_221_NNPDF30NNLO_Wtaunu_MAXHTPTV140_280_CFilterBVeto.deriv.DAOD_TRUTH1.e5340_e5984_p3401
mc16_13TeV:mc16_13TeV.364191.Sherpa_221_NNPDF30NNLO_Wtaunu_MAXHTPTV140_280_CFilterBVeto.deriv.DAOD_TRUTH1.e5340_e5984_p3401
mc16_13TeV:mc16_13TeV.364191.Sherpa_221_NNPDF30NNLO_Wtaunu_MAXHTPTV140_280_CFilterBVeto.deriv.DAOD_TRUTH1.e5340_e5984_p3401
mc16_13TeV:mc16_13TeV.364191.Sherpa_221_NNPDF30NNLO_Wtaunu_MAXHTPTV140_280_CFilterBVeto.deriv.DAOD_TRUTH1.e5340_p3401
mc16_13TeV:mc16_13TeV.364191.Sherpa_221_NNPDF30NNLO_Wtaunu_MAXHTPTV140_280_CFilterBVeto.deriv.DAOD_TRUTH1.e5340_p3401
mc16_13TeV:mc16_13TeV.364191.Sherpa_221_NNPDF30NNLO_Wtaunu_MAXHTPTV140_280_CFilterBVeto.deriv.DAOD_TRUTH1.e5340_p3401
mc16_13TeV:mc16_13TeV.364192.Sherpa_221_NNPDF30NNLO_Wtaunu_MAXHTPTV140_280_BFilter.deriv.DAOD_TRUTH1.e5340_e5984_p3401
mc16_13TeV:mc16_13TeV.364192.Sherpa_221_NNPDF30NNLO_Wtaunu_MAXHTPTV140_280_BFilter.deriv.DAOD_TRUTH1.e5340_e5984_p3401
mc16_13TeV:mc16_13TeV.364192.Sherpa_221_NNPDF30NNLO_Wtaunu_MAXHTPTV140_280_BFilter.deriv.DAOD_TRUTH1.e5340_p3401
mc16_13TeV:mc16_13TeV.364192.Sherpa_221_NNPDF30NNLO_Wtaunu_MAXHTPTV140_280_BFilter.deriv.DAOD_TRUTH1.e5340_p3401
mc16_13TeV:mc16_13TeV.364193.Sherpa_221_NNPDF30NNLO_Wtaunu_MAXHTPTV280_500_CVetoBVeto.deriv.DAOD_TRUTH1.e5340_e5984_p3401
mc16_13TeV:mc16_13TeV.364193.Sherpa_221_NNPDF30NNLO_Wtaunu_MAXHTPTV280_500_CVetoBVeto.deriv.DAOD_TRUTH1.e5340_e5984_p3401
mc16_13TeV:mc16_13TeV.364193.Sherpa_221_NNPDF30NNLO_Wtaunu_MAXHTPTV280_500_CVetoBVeto.deriv.DAOD_TRUTH1.e5340_p3401
mc16_13TeV:mc16_13TeV.364193.Sherpa_221_NNPDF30NNLO_Wtaunu_MAXHTPTV280_500_CVetoBVeto.deriv.DAOD_TRUTH1.e5340_p3401
mc16_13TeV:mc16_13TeV.364194.Sherpa_221_NNPDF30NNLO_Wtaunu_MAXHTPTV280_500_CFilterBVeto.deriv.DAOD_TRUTH1.e5340_e5984_p3401
mc16_13TeV:mc16_13TeV.364194.Sherpa_221_NNPDF30NNLO_Wtaunu_MAXHTPTV280_500_CFilterBVeto.deriv.DAOD_TRUTH1.e5340_e5984_p3401
mc16_13TeV:mc16_13TeV.364194.Sherpa_221_NNPDF30NNLO_Wtaunu_MAXHTPTV280_500_CFilterBVeto.deriv.DAOD_TRUTH1.e5340_e5984_p3401
mc16_13TeV:mc16_13TeV.364194.Sherpa_221_NNPDF30NNLO_Wtaunu_MAXHTPTV280_500_CFilterBVeto.deriv.DAOD_TRUTH1.e5340_p3401
mc16_13TeV:mc16_13TeV.364194.Sherpa_221_NNPDF30NNLO_Wtaunu_MAXHTPTV280_500_CFilterBVeto.deriv.DAOD_TRUTH1.e5340_p3401
mc16_13TeV:mc16_13TeV.364194.Sherpa_221_NNPDF30NNLO_Wtaunu_MAXHTPTV280_500_CFilterBVeto.deriv.DAOD_TRUTH1.e5340_p3401
mc16_13TeV:mc16_13TeV.364195.Sherpa_221_NNPDF30NNLO_Wtaunu_MAXHTPTV280_500_BFilter.deriv.DAOD_TRUTH1.e5340_e5984_p3401
mc16_13TeV:mc16_13TeV.364195.Sherpa_221_NNPDF30NNLO_Wtaunu_MAXHTPTV280_500_BFilter.deriv.DAOD_TRUTH1.e5340_e5984_p3401
mc16_13TeV:mc16_13TeV.364195.Sherpa_221_NNPDF30NNLO_Wtaunu_MAXHTPTV280_500_BFilter.deriv.DAOD_TRUTH1.e5340_e5984_p3401
mc16_13TeV:mc16_13TeV.364195.Sherpa_221_NNPDF30NNLO_Wtaunu_MAXHTPTV280_500_BFilter.deriv.DAOD_TRUTH1.e5340_p3401
mc16_13TeV:mc16_13TeV.364195.Sherpa_221_NNPDF30NNLO_Wtaunu_MAXHTPTV280_500_BFilter.deriv.DAOD_TRUTH1.e5340_p3401
mc16_13TeV:mc16_13TeV.364195.Sherpa_221_NNPDF30NNLO_Wtaunu_MAXHTPTV280_500_BFilter.deriv.DAOD_TRUTH1.e5340_p3401
mc16_13TeV:mc16_13TeV.364196.Sherpa_221_NNPDF30NNLO_Wtaunu_MAXHTPTV500_1000.deriv.DAOD_TRUTH1.e5340_e5984_p3401
mc16_13TeV:mc16_13TeV.364196.Sherpa_221_NNPDF30NNLO_Wtaunu_MAXHTPTV500_1000.deriv.DAOD_TRUTH1.e5340_e5984_p3401
mc16_13TeV:mc16_13TeV.364196.Sherpa_221_NNPDF30NNLO_Wtaunu_MAXHTPTV500_1000.deriv.DAOD_TRUTH1.e5340_e5984_p3401
mc16_13TeV:mc16_13TeV.364196.Sherpa_221_NNPDF30NNLO_Wtaunu_MAXHTPTV500_1000.deriv.DAOD_TRUTH1.e5340_p3401
mc16_13TeV:mc16_13TeV.364196.Sherpa_221_NNPDF30NNLO_Wtaunu_MAXHTPTV500_1000.deriv.DAOD_TRUTH1.e5340_p3401
mc16_13TeV:mc16_13TeV.364196.Sherpa_221_NNPDF30NNLO_Wtaunu_MAXHTPTV500_1000.deriv.DAOD_TRUTH1.e5340_p3401
mc16_13TeV:mc16_13TeV.364197.Sherpa_221_NNPDF30NNLO_Wtaunu_MAXHTPTV1000_E_CMS.deriv.DAOD_TRUTH1.e5340_e5984_p3401
mc16_13TeV:mc16_13TeV.364197.Sherpa_221_NNPDF30NNLO_Wtaunu_MAXHTPTV1000_E_CMS.deriv.DAOD_TRUTH1.e5340_e5984_p3401
mc16_13TeV:mc16_13TeV.364197.Sherpa_221_NNPDF30NNLO_Wtaunu_MAXHTPTV1000_E_CMS.deriv.DAOD_TRUTH1.e5340_p3401
mc16_13TeV:mc16_13TeV.364197.Sherpa_221_NNPDF30NNLO_Wtaunu_MAXHTPTV1000_E_CMS.deriv.DAOD_TRUTH1.e5340_p3401
mc16_13TeV:mc16_13TeV.364198.Sherpa_221_NN30NNLO_Zmm_Mll10_40_MAXHTPTV0_70_BVeto.deriv.DAOD_TRUTH1.e5421_e5984_p3401
mc16_13TeV:mc16_13TeV.364198.Sherpa_221_NN30NNLO_Zmm_Mll10_40_MAXHTPTV0_70_BVeto.deriv.DAOD_TRUTH1.e5421_e5984_p3401
mc16_13TeV:mc16_13TeV.364198.Sherpa_221_NN30NNLO_Zmm_Mll10_40_MAXHTPTV0_70_BVeto.deriv.DAOD_TRUTH1.e5421_p3401
mc16_13TeV:mc16_13TeV.364198.Sherpa_221_NN30NNLO_Zmm_Mll10_40_MAXHTPTV0_70_BVeto.deriv.DAOD_TRUTH1.e5421_p3401
mc16_13TeV:mc16_13TeV.364199.Sherpa_221_NN30NNLO_Zmm_Mll10_40_MAXHTPTV0_70_BFilter.deriv.DAOD_TRUTH1.e5421_e5984_p3401
mc16_13TeV:mc16_13TeV.364199.Sherpa_221_NN30NNLO_Zmm_Mll10_40_MAXHTPTV0_70_BFilter.deriv.DAOD_TRUTH1.e5421_e5984_p3401
mc16_13TeV:mc16_13TeV.364199.Sherpa_221_NN30NNLO_Zmm_Mll10_40_MAXHTPTV0_70_BFilter.deriv.DAOD_TRUTH1.e5421_p3401
mc16_13TeV:mc16_13TeV.364199.Sherpa_221_NN30NNLO_Zmm_Mll10_40_MAXHTPTV0_70_BFilter.deriv.DAOD_TRUTH1.e5421_p3401
mc16_13TeV:mc16_13TeV.364201.Sherpa_221_NN30NNLO_Zmm_Mll10_40_MAXHTPTV70_280_BFilter.deriv.DAOD_TRUTH1.e5421_e5984_p3401
mc16_13TeV:mc16_13TeV.364201.Sherpa_221_NN30NNLO_Zmm_Mll10_40_MAXHTPTV70_280_BFilter.deriv.DAOD_TRUTH1.e5421_e5984_p3401
mc16_13TeV:mc16_13TeV.364201.Sherpa_221_NN30NNLO_Zmm_Mll10_40_MAXHTPTV70_280_BFilter.deriv.DAOD_TRUTH1.e5421_p3401
mc16_13TeV:mc16_13TeV.364201.Sherpa_221_NN30NNLO_Zmm_Mll10_40_MAXHTPTV70_280_BFilter.deriv.DAOD_TRUTH1.e5421_p3401
mc16_13TeV:mc16_13TeV.364202.Sherpa_221_NN30NNLO_Zmm_Mll10_40_MAXHTPTV280_E_CMS_BVeto.deriv.DAOD_TRUTH1.e5421_e5984_p3401
mc16_13TeV:mc16_13TeV.364202.Sherpa_221_NN30NNLO_Zmm_Mll10_40_MAXHTPTV280_E_CMS_BVeto.deriv.DAOD_TRUTH1.e5421_e5984_p3401
mc16_13TeV:mc16_13TeV.364202.Sherpa_221_NN30NNLO_Zmm_Mll10_40_MAXHTPTV280_E_CMS_BVeto.deriv.DAOD_TRUTH1.e5421_p3401
mc16_13TeV:mc16_13TeV.364202.Sherpa_221_NN30NNLO_Zmm_Mll10_40_MAXHTPTV280_E_CMS_BVeto.deriv.DAOD_TRUTH1.e5421_p3401
mc16_13TeV:mc16_13TeV.364203.Sherpa_221_NN30NNLO_Zmm_Mll10_40_MAXHTPTV280_E_CMS_BFilter.deriv.DAOD_TRUTH1.e5421_e5984_p3401
mc16_13TeV:mc16_13TeV.364203.Sherpa_221_NN30NNLO_Zmm_Mll10_40_MAXHTPTV280_E_CMS_BFilter.deriv.DAOD_TRUTH1.e5421_e5984_p3401
mc16_13TeV:mc16_13TeV.364203.Sherpa_221_NN30NNLO_Zmm_Mll10_40_MAXHTPTV280_E_CMS_BFilter.deriv.DAOD_TRUTH1.e5421_p3401
mc16_13TeV:mc16_13TeV.364203.Sherpa_221_NN30NNLO_Zmm_Mll10_40_MAXHTPTV280_E_CMS_BFilter.deriv.DAOD_TRUTH1.e5421_p3401
mc16_13TeV:mc16_13TeV.364205.Sherpa_221_NN30NNLO_Zee_Mll10_40_MAXHTPTV0_70_BFilter.deriv.DAOD_TRUTH1.e5421_e5984_p3401
mc16_13TeV:mc16_13TeV.364205.Sherpa_221_NN30NNLO_Zee_Mll10_40_MAXHTPTV0_70_BFilter.deriv.DAOD_TRUTH1.e5421_e5984_p3401
mc16_13TeV:mc16_13TeV.364205.Sherpa_221_NN30NNLO_Zee_Mll10_40_MAXHTPTV0_70_BFilter.deriv.DAOD_TRUTH1.e5421_p3401
mc16_13TeV:mc16_13TeV.364205.Sherpa_221_NN30NNLO_Zee_Mll10_40_MAXHTPTV0_70_BFilter.deriv.DAOD_TRUTH1.e5421_p3401
mc16_13TeV:mc16_13TeV.364206.Sherpa_221_NN30NNLO_Zee_Mll10_40_MAXHTPTV70_280_BVeto.deriv.DAOD_TRUTH1.e5421_e5984_p3401
mc16_13TeV:mc16_13TeV.364206.Sherpa_221_NN30NNLO_Zee_Mll10_40_MAXHTPTV70_280_BVeto.deriv.DAOD_TRUTH1.e5421_e5984_p3401
mc16_13TeV:mc16_13TeV.364206.Sherpa_221_NN30NNLO_Zee_Mll10_40_MAXHTPTV70_280_BVeto.deriv.DAOD_TRUTH1.e5421_p3401
mc16_13TeV:mc16_13TeV.364206.Sherpa_221_NN30NNLO_Zee_Mll10_40_MAXHTPTV70_280_BVeto.deriv.DAOD_TRUTH1.e5421_p3401
mc16_13TeV:mc16_13TeV.364207.Sherpa_221_NN30NNLO_Zee_Mll10_40_MAXHTPTV70_280_BFilter.deriv.DAOD_TRUTH1.e5421_e5984_p3401
mc16_13TeV:mc16_13TeV.364207.Sherpa_221_NN30NNLO_Zee_Mll10_40_MAXHTPTV70_280_BFilter.deriv.DAOD_TRUTH1.e5421_e5984_p3401
mc16_13TeV:mc16_13TeV.364207.Sherpa_221_NN30NNLO_Zee_Mll10_40_MAXHTPTV70_280_BFilter.deriv.DAOD_TRUTH1.e5421_p3401
mc16_13TeV:mc16_13TeV.364207.Sherpa_221_NN30NNLO_Zee_Mll10_40_MAXHTPTV70_280_BFilter.deriv.DAOD_TRUTH1.e5421_p3401
mc16_13TeV:mc16_13TeV.364208.Sherpa_221_NN30NNLO_Zee_Mll10_40_MAXHTPTV280_E_CMS_BVeto.deriv.DAOD_TRUTH1.e5421_e5984_p3401
mc16_13TeV:mc16_13TeV.364208.Sherpa_221_NN30NNLO_Zee_Mll10_40_MAXHTPTV280_E_CMS_BVeto.deriv.DAOD_TRUTH1.e5421_e5984_p3401
mc16_13TeV:mc16_13TeV.364208.Sherpa_221_NN30NNLO_Zee_Mll10_40_MAXHTPTV280_E_CMS_BVeto.deriv.DAOD_TRUTH1.e5421_p3401
mc16_13TeV:mc16_13TeV.364208.Sherpa_221_NN30NNLO_Zee_Mll10_40_MAXHTPTV280_E_CMS_BVeto.deriv.DAOD_TRUTH1.e5421_p3401
mc16_13TeV:mc16_13TeV.364209.Sherpa_221_NN30NNLO_Zee_Mll10_40_MAXHTPTV280_E_CMS_BFilter.deriv.DAOD_TRUTH1.e5421_e5984_p3401
mc16_13TeV:mc16_13TeV.364209.Sherpa_221_NN30NNLO_Zee_Mll10_40_MAXHTPTV280_E_CMS_BFilter.deriv.DAOD_TRUTH1.e5421_e5984_p3401
mc16_13TeV:mc16_13TeV.364209.Sherpa_221_NN30NNLO_Zee_Mll10_40_MAXHTPTV280_E_CMS_BFilter.deriv.DAOD_TRUTH1.e5421_p3401
mc16_13TeV:mc16_13TeV.364209.Sherpa_221_NN30NNLO_Zee_Mll10_40_MAXHTPTV280_E_CMS_BFilter.deriv.DAOD_TRUTH1.e5421_p3401
mc16_13TeV:mc16_13TeV.364210.Sherpa_221_NN30NNLO_Ztt_Mll10_40_MAXHTPTV0_70_BVeto.deriv.DAOD_TRUTH1.e5421_e5984_p3401
mc16_13TeV:mc16_13TeV.364210.Sherpa_221_NN30NNLO_Ztt_Mll10_40_MAXHTPTV0_70_BVeto.deriv.DAOD_TRUTH1.e5421_e5984_p3401
mc16_13TeV:mc16_13TeV.364210.Sherpa_221_NN30NNLO_Ztt_Mll10_40_MAXHTPTV0_70_BVeto.deriv.DAOD_TRUTH1.e5421_p3401
mc16_13TeV:mc16_13TeV.364210.Sherpa_221_NN30NNLO_Ztt_Mll10_40_MAXHTPTV0_70_BVeto.deriv.DAOD_TRUTH1.e5421_p3401
mc16_13TeV:mc16_13TeV.364211.Sherpa_221_NN30NNLO_Ztt_Mll10_40_MAXHTPTV0_70_BFilter.deriv.DAOD_TRUTH1.e5421_e5984_p3401
mc16_13TeV:mc16_13TeV.364211.Sherpa_221_NN30NNLO_Ztt_Mll10_40_MAXHTPTV0_70_BFilter.deriv.DAOD_TRUTH1.e5421_e5984_p3401
mc16_13TeV:mc16_13TeV.364211.Sherpa_221_NN30NNLO_Ztt_Mll10_40_MAXHTPTV0_70_BFilter.deriv.DAOD_TRUTH1.e5421_p3401
mc16_13TeV:mc16_13TeV.364211.Sherpa_221_NN30NNLO_Ztt_Mll10_40_MAXHTPTV0_70_BFilter.deriv.DAOD_TRUTH1.e5421_p3401
mc16_13TeV:mc16_13TeV.364212.Sherpa_221_NN30NNLO_Ztt_Mll10_40_MAXHTPTV70_280_BVeto.deriv.DAOD_TRUTH1.e5421_e5984_p3401
mc16_13TeV:mc16_13TeV.364212.Sherpa_221_NN30NNLO_Ztt_Mll10_40_MAXHTPTV70_280_BVeto.deriv.DAOD_TRUTH1.e5421_e5984_p3401
mc16_13TeV:mc16_13TeV.364212.Sherpa_221_NN30NNLO_Ztt_Mll10_40_MAXHTPTV70_280_BVeto.deriv.DAOD_TRUTH1.e5421_p3401
mc16_13TeV:mc16_13TeV.364212.Sherpa_221_NN30NNLO_Ztt_Mll10_40_MAXHTPTV70_280_BVeto.deriv.DAOD_TRUTH1.e5421_p3401
mc16_13TeV:mc16_13TeV.364213.Sherpa_221_NN30NNLO_Ztt_Mll10_40_MAXHTPTV70_280_BFilter.deriv.DAOD_TRUTH1.e5421_e5984_p3401
mc16_13TeV:mc16_13TeV.364213.Sherpa_221_NN30NNLO_Ztt_Mll10_40_MAXHTPTV70_280_BFilter.deriv.DAOD_TRUTH1.e5421_e5984_p3401
mc16_13TeV:mc16_13TeV.364213.Sherpa_221_NN30NNLO_Ztt_Mll10_40_MAXHTPTV70_280_BFilter.deriv.DAOD_TRUTH1.e5421_p3401
mc16_13TeV:mc16_13TeV.364213.Sherpa_221_NN30NNLO_Ztt_Mll10_40_MAXHTPTV70_280_BFilter.deriv.DAOD_TRUTH1.e5421_p3401
mc16_13TeV:mc16_13TeV.364215.Sherpa_221_NN30NNLO_Ztt_Mll10_40_MAXHTPTV280_E_CMS_BFilter.deriv.DAOD_TRUTH1.e5421_e5984_p3401
mc16_13TeV:mc16_13TeV.364215.Sherpa_221_NN30NNLO_Ztt_Mll10_40_MAXHTPTV280_E_CMS_BFilter.deriv.DAOD_TRUTH1.e5421_e5984_p3401
mc16_13TeV:mc16_13TeV.364215.Sherpa_221_NN30NNLO_Ztt_Mll10_40_MAXHTPTV280_E_CMS_BFilter.deriv.DAOD_TRUTH1.e5421_p3401
mc16_13TeV:mc16_13TeV.364215.Sherpa_221_NN30NNLO_Ztt_Mll10_40_MAXHTPTV280_E_CMS_BFilter.deriv.DAOD_TRUTH1.e5421_p3401
mc16_13TeV:mc16_13TeV.364242.Sherpa_222_NNPDF30NNLO_WWW_3l3v_EW6.deriv.DAOD_TRUTH1.e5887_e5984_p3401
mc16_13TeV:mc16_13TeV.364242.Sherpa_222_NNPDF30NNLO_WWW_3l3v_EW6.deriv.DAOD_TRUTH1.e5887_e5984_p3401
mc16_13TeV:mc16_13TeV.364242.Sherpa_222_NNPDF30NNLO_WWW_3l3v_EW6.deriv.DAOD_TRUTH1.e5887_p3401
mc16_13TeV:mc16_13TeV.364242.Sherpa_222_NNPDF30NNLO_WWW_3l3v_EW6.deriv.DAOD_TRUTH1.e5887_p3401
mc16_13TeV:mc16_13TeV.364243.Sherpa_222_NNPDF30NNLO_WWZ_4l2v_EW6.deriv.DAOD_TRUTH1.e5887_e5984_p3401
mc16_13TeV:mc16_13TeV.364243.Sherpa_222_NNPDF30NNLO_WWZ_4l2v_EW6.deriv.DAOD_TRUTH1.e5887_e5984_p3401
mc16_13TeV:mc16_13TeV.364243.Sherpa_222_NNPDF30NNLO_WWZ_4l2v_EW6.deriv.DAOD_TRUTH1.e5887_p3401
mc16_13TeV:mc16_13TeV.364243.Sherpa_222_NNPDF30NNLO_WWZ_4l2v_EW6.deriv.DAOD_TRUTH1.e5887_p3401
mc16_13TeV:mc16_13TeV.364244.Sherpa_222_NNPDF30NNLO_WWZ_2l4v_EW6.deriv.DAOD_TRUTH1.e5887_e5984_p3401
mc16_13TeV:mc16_13TeV.364244.Sherpa_222_NNPDF30NNLO_WWZ_2l4v_EW6.deriv.DAOD_TRUTH1.e5887_e5984_p3401
mc16_13TeV:mc16_13TeV.364244.Sherpa_222_NNPDF30NNLO_WWZ_2l4v_EW6.deriv.DAOD_TRUTH1.e5887_p3401
mc16_13TeV:mc16_13TeV.364244.Sherpa_222_NNPDF30NNLO_WWZ_2l4v_EW6.deriv.DAOD_TRUTH1.e5887_p3401
mc16_13TeV:mc16_13TeV.364245.Sherpa_222_NNPDF30NNLO_WZZ_5l1v_EW6.deriv.DAOD_TRUTH1.e5887_e5984_p3401
mc16_13TeV:mc16_13TeV.364245.Sherpa_222_NNPDF30NNLO_WZZ_5l1v_EW6.deriv.DAOD_TRUTH1.e5887_e5984_p3401
mc16_13TeV:mc16_13TeV.364245.Sherpa_222_NNPDF30NNLO_WZZ_5l1v_EW6.deriv.DAOD_TRUTH1.e5887_p3401
mc16_13TeV:mc16_13TeV.364245.Sherpa_222_NNPDF30NNLO_WZZ_5l1v_EW6.deriv.DAOD_TRUTH1.e5887_p3401
mc16_13TeV:mc16_13TeV.364246.Sherpa_222_NNPDF30NNLO_WZZ_3l3v_EW6.deriv.DAOD_TRUTH1.e5887_e5984_p3401
mc16_13TeV:mc16_13TeV.364246.Sherpa_222_NNPDF30NNLO_WZZ_3l3v_EW6.deriv.DAOD_TRUTH1.e5887_e5984_p3401
mc16_13TeV:mc16_13TeV.364246.Sherpa_222_NNPDF30NNLO_WZZ_3l3v_EW6.deriv.DAOD_TRUTH1.e5887_p3401
mc16_13TeV:mc16_13TeV.364246.Sherpa_222_NNPDF30NNLO_WZZ_3l3v_EW6.deriv.DAOD_TRUTH1.e5887_p3401
mc16_13TeV:mc16_13TeV.364247.Sherpa_222_NNPDF30NNLO_ZZZ_6l0v_EW6.deriv.DAOD_TRUTH1.e5887_e5984_p3401
mc16_13TeV:mc16_13TeV.364247.Sherpa_222_NNPDF30NNLO_ZZZ_6l0v_EW6.deriv.DAOD_TRUTH1.e5887_e5984_p3401
mc16_13TeV:mc16_13TeV.364247.Sherpa_222_NNPDF30NNLO_ZZZ_6l0v_EW6.deriv.DAOD_TRUTH1.e5887_p3401
mc16_13TeV:mc16_13TeV.364247.Sherpa_222_NNPDF30NNLO_ZZZ_6l0v_EW6.deriv.DAOD_TRUTH1.e5887_p3401
mc16_13TeV:mc16_13TeV.364248.Sherpa_222_NNPDF30NNLO_ZZZ_4l2v_EW6.deriv.DAOD_TRUTH1.e5887_e5984_p3401
mc16_13TeV:mc16_13TeV.364248.Sherpa_222_NNPDF30NNLO_ZZZ_4l2v_EW6.deriv.DAOD_TRUTH1.e5887_e5984_p3401
mc16_13TeV:mc16_13TeV.364248.Sherpa_222_NNPDF30NNLO_ZZZ_4l2v_EW6.deriv.DAOD_TRUTH1.e5887_p3401
mc16_13TeV:mc16_13TeV.364248.Sherpa_222_NNPDF30NNLO_ZZZ_4l2v_EW6.deriv.DAOD_TRUTH1.e5887_p3401
mc16_13TeV:mc16_13TeV.364249.Sherpa_222_NNPDF30NNLO_ZZZ_2l4v_EW6.deriv.DAOD_TRUTH1.e5887_e5984_p3401
mc16_13TeV:mc16_13TeV.364249.Sherpa_222_NNPDF30NNLO_ZZZ_2l4v_EW6.deriv.DAOD_TRUTH1.e5887_e5984_p3401
mc16_13TeV:mc16_13TeV.364249.Sherpa_222_NNPDF30NNLO_ZZZ_2l4v_EW6.deriv.DAOD_TRUTH1.e5887_p3401
mc16_13TeV:mc16_13TeV.364249.Sherpa_222_NNPDF30NNLO_ZZZ_2l4v_EW6.deriv.DAOD_TRUTH1.e5887_p3401
mc16_13TeV:mc16_13TeV.364250.Sherpa_222_NNPDF30NNLO_llll.deriv.DAOD_TRUTH1.e5894_e5984_p3401
mc16_13TeV:mc16_13TeV.364250.Sherpa_222_NNPDF30NNLO_llll.deriv.DAOD_TRUTH1.e5894_e5984_p3401
mc16_13TeV:mc16_13TeV.364250.Sherpa_222_NNPDF30NNLO_llll.deriv.DAOD_TRUTH1.e5894_p3401
mc16_13TeV:mc16_13TeV.364250.Sherpa_222_NNPDF30NNLO_llll.deriv.DAOD_TRUTH1.e5894_p3401
mc16_13TeV:mc16_13TeV.364253.Sherpa_222_NNPDF30NNLO_lllv.deriv.DAOD_TRUTH1.e5916_e5984_p3401
mc16_13TeV:mc16_13TeV.364253.Sherpa_222_NNPDF30NNLO_lllv.deriv.DAOD_TRUTH1.e5916_e5984_p3401
mc16_13TeV:mc16_13TeV.364253.Sherpa_222_NNPDF30NNLO_lllv.deriv.DAOD_TRUTH1.e5916_p3401
mc16_13TeV:mc16_13TeV.364253.Sherpa_222_NNPDF30NNLO_lllv.deriv.DAOD_TRUTH1.e5916_p3401
mc16_13TeV:mc16_13TeV.364254.Sherpa_222_NNPDF30NNLO_llvv.deriv.DAOD_TRUTH1.e5916_e5984_p3401
mc16_13TeV:mc16_13TeV.364254.Sherpa_222_NNPDF30NNLO_llvv.deriv.DAOD_TRUTH1.e5916_e5984_p3401
mc16_13TeV:mc16_13TeV.364254.Sherpa_222_NNPDF30NNLO_llvv.deriv.DAOD_TRUTH1.e5916_p3401
mc16_13TeV:mc16_13TeV.364254.Sherpa_222_NNPDF30NNLO_llvv.deriv.DAOD_TRUTH1.e5916_p3401
mc16_13TeV:mc16_13TeV.364255.Sherpa_222_NNPDF30NNLO_lvvv.deriv.DAOD_TRUTH1.e5916_e5984_p3401
mc16_13TeV:mc16_13TeV.364255.Sherpa_222_NNPDF30NNLO_lvvv.deriv.DAOD_TRUTH1.e5916_e5984_p3401
mc16_13TeV:mc16_13TeV.364255.Sherpa_222_NNPDF30NNLO_lvvv.deriv.DAOD_TRUTH1.e5916_p3401
mc16_13TeV:mc16_13TeV.364255.Sherpa_222_NNPDF30NNLO_lvvv.deriv.DAOD_TRUTH1.e5916_p3401
mc16_13TeV:mc16_13TeV.410470.PhPy8EG_A14_ttbar_hdamp258p75_nonallhad.deriv.DAOD_TRUTH1.e6337_e5984_p3401
mc16_13TeV:mc16_13TeV.410470.PhPy8EG_A14_ttbar_hdamp258p75_nonallhad.deriv.DAOD_TRUTH1.e6337_e5984_p3401
mc16_13TeV:mc16_13TeV.410470.PhPy8EG_A14_ttbar_hdamp258p75_nonallhad.deriv.DAOD_TRUTH1.e6337_p3401
mc16_13TeV:mc16_13TeV.410470.PhPy8EG_A14_ttbar_hdamp258p75_nonallhad.deriv.DAOD_TRUTH1.e6337_p3401
