#VBF Stau
mc16_13TeV:mc16_13TeV.398358.MGPy8EG_A14N23LO_StauStauVBF_90p0_40p0_2L2.deriv.DAOD_SUSY3.e7742_a875_r9364_p4029
mc16_13TeV:mc16_13TeV.398359.MGPy8EG_A14N23LO_StauStauVBF_90p0_60p0_2L2.deriv.DAOD_SUSY3.e7742_a875_r9364_p4029
mc16_13TeV:mc16_13TeV.398360.MGPy8EG_A14N23LO_StauStauVBF_90p0_80p0_2L2.deriv.DAOD_SUSY3.e7742_a875_r9364_p4029
mc16_13TeV:mc16_13TeV.398361.MGPy8EG_A14N23LO_StauStauVBF_90p0_85p0_2L2.deriv.DAOD_SUSY3.e7742_a875_r9364_p4029
mc16_13TeV:mc16_13TeV.398362.MGPy8EG_A14N23LO_StauStauVBF_100p0_50p0_2L2.deriv.DAOD_SUSY3.e7742_a875_r9364_p4029
mc16_13TeV:mc16_13TeV.398363.MGPy8EG_A14N23LO_StauStauVBF_100p0_60p0_2L2.deriv.DAOD_SUSY3.e7742_a875_r9364_p4029
mc16_13TeV:mc16_13TeV.398364.MGPy8EG_A14N23LO_StauStauVBF_100p0_70p0_2L2.deriv.DAOD_SUSY3.e7742_a875_r9364_p4029
mc16_13TeV:mc16_13TeV.398365.MGPy8EG_A14N23LO_StauStauVBF_100p0_90p0_2L2.deriv.DAOD_SUSY3.e7742_a875_r9364_p4029
mc16_13TeV:mc16_13TeV.398366.MGPy8EG_A14N23LO_StauStauVBF_100p0_95p0_2L2.deriv.DAOD_SUSY3.e7742_a875_r9364_p4029
mc16_13TeV:mc16_13TeV.398367.MGPy8EG_A14N23LO_StauStauVBFQED_90p0_40p0_2L2.deriv.DAOD_SUSY3.e7742_a875_r9364_p4029
mc16_13TeV:mc16_13TeV.398368.MGPy8EG_A14N23LO_StauStauVBFQED_90p0_60p0_2L2.deriv.DAOD_SUSY3.e7742_a875_r9364_p4029
mc16_13TeV:mc16_13TeV.398369.MGPy8EG_A14N23LO_StauStauVBFQED_90p0_80p0_2L2.deriv.DAOD_SUSY3.e7742_a875_r9364_p4029
mc16_13TeV:mc16_13TeV.398370.MGPy8EG_A14N23LO_StauStauVBFQED_90p0_85p0_2L2.deriv.DAOD_SUSY3.e7742_a875_r9364_p4029
mc16_13TeV:mc16_13TeV.398371.MGPy8EG_A14N23LO_StauStauVBFQED_100p0_50p0_2L2.deriv.DAOD_SUSY3.e7742_a875_r9364_p4029
mc16_13TeV:mc16_13TeV.398372.MGPy8EG_A14N23LO_StauStauVBFQED_100p0_60p0_2L2.deriv.DAOD_SUSY3.e7742_a875_r9364_p4029
mc16_13TeV:mc16_13TeV.398373.MGPy8EG_A14N23LO_StauStauVBFQED_100p0_70p0_2L2.deriv.DAOD_SUSY3.e7742_a875_r9364_p4029
mc16_13TeV:mc16_13TeV.398374.MGPy8EG_A14N23LO_StauStauVBFQED_100p0_90p0_2L2.deriv.DAOD_SUSY3.e7742_a875_r9364_p4029
mc16_13TeV:mc16_13TeV.398375.MGPy8EG_A14N23LO_StauStauVBFQED_100p0_95p0_2L2.deriv.DAOD_SUSY3.e7742_a875_r9364_p4029

# Stau
mc16_13TeV:mc16_13TeV.501056.MGPy8EG_StauStauDirect_120p0_1p0_TFilt.deriv.DAOD_SUSY3.e8102_a875_r9364_p4029
mc16_13TeV:mc16_13TeV.501057.MGPy8EG_StauStauDirect_160p0_1p0_TFilt.deriv.DAOD_SUSY3.e8102_a875_r9364_p4029
mc16_13TeV:mc16_13TeV.501058.MGPy8EG_StauStauDirect_200p0_1p0_TFilt.deriv.DAOD_SUSY3.e8102_a875_r9364_p4029
mc16_13TeV:mc16_13TeV.501059.MGPy8EG_StauStauDirect_240p0_1p0_TFilt.deriv.DAOD_SUSY3.e8102_a875_r9364_p4029
mc16_13TeV:mc16_13TeV.501060.MGPy8EG_StauStauDirect_280p0_1p0_TFilt.deriv.DAOD_SUSY3.e8102_a875_r9364_p4029
mc16_13TeV:mc16_13TeV.501061.MGPy8EG_StauStauDirect_120p0_40p0_TFilt.deriv.DAOD_SUSY3.e8102_a875_r9364_p4029
mc16_13TeV:mc16_13TeV.501062.MGPy8EG_StauStauDirect_160p0_40p0_TFilt.deriv.DAOD_SUSY3.e8102_a875_r9364_p4029
mc16_13TeV:mc16_13TeV.501063.MGPy8EG_StauStauDirect_200p0_40p0_TFilt.deriv.DAOD_SUSY3.e8102_a875_r9364_p4029
mc16_13TeV:mc16_13TeV.501064.MGPy8EG_StauStauDirect_240p0_40p0_TFilt.deriv.DAOD_SUSY3.e8102_a875_r9364_p4029
mc16_13TeV:mc16_13TeV.501065.MGPy8EG_StauStauDirect_280p0_40p0_TFilt.deriv.DAOD_SUSY3.e8102_a875_r9364_p4029
mc16_13TeV:mc16_13TeV.501066.MGPy8EG_StauStauDirect_160p0_80p0_TFilt.deriv.DAOD_SUSY3.e8102_a875_r9364_p4029
mc16_13TeV:mc16_13TeV.501067.MGPy8EG_StauStauDirect_240p0_80p0_TFilt.deriv.DAOD_SUSY3.e8102_a875_r9364_p4029
mc16_13TeV:mc16_13TeV.501068.MGPy8EG_StauStauDirect_80p0_1p0_TFilt.deriv.DAOD_SUSY3.e8102_a875_r9364_p4029
mc16_13TeV:mc16_13TeV.501069.MGPy8EG_StauStauDirect_200p0_80p0_TFilt.deriv.DAOD_SUSY3.e8102_a875_r9364_p4029
mc16_13TeV:mc16_13TeV.501070.MGPy8EG_StauStauDirect_200p0_120p0_TFilt.deriv.DAOD_SUSY3.e8102_a875_r9364_p4029
mc16_13TeV:mc16_13TeV.501071.MGPy8EG_StauStauDirect_240p0_120p0_TFilt.deriv.DAOD_SUSY3.e8102_a875_r9364_p4029
mc16_13TeV:mc16_13TeV.501072.MGPy8EG_StauStauDirect_240p0_160p0_TFilt.deriv.DAOD_SUSY3.e8102_a875_r9364_p4029
mc16_13TeV:mc16_13TeV.501073.MGPy8EG_StauStauDirect_280p0_80p0_TFilt.deriv.DAOD_SUSY3.e8102_a875_r9364_p4029
mc16_13TeV:mc16_13TeV.501074.MGPy8EG_StauStauDirect_280p0_120p0_TFilt.deriv.DAOD_SUSY3.e8102_a875_r9364_p4029
mc16_13TeV:mc16_13TeV.501075.MGPy8EG_StauStauDirect_280p0_160p0_TFilt.deriv.DAOD_SUSY3.e8102_a875_r9364_p4029
mc16_13TeV:mc16_13TeV.501076.MGPy8EG_StauStauDirect_320p0_1p0_TFilt.deriv.DAOD_SUSY3.e8102_a875_r9364_p4029
mc16_13TeV:mc16_13TeV.501077.MGPy8EG_StauStauDirect_320p0_40p0_TFilt.deriv.DAOD_SUSY3.e8102_a875_r9364_p4029
mc16_13TeV:mc16_13TeV.501078.MGPy8EG_StauStauDirect_320p0_80p0_TFilt.deriv.DAOD_SUSY3.e8102_a875_r9364_p4029
mc16_13TeV:mc16_13TeV.501079.MGPy8EG_StauStauDirect_320p0_120p0_TFilt.deriv.DAOD_SUSY3.e8102_a875_r9364_p4029
mc16_13TeV:mc16_13TeV.501080.MGPy8EG_StauStauDirect_320p0_160p0_TFilt.deriv.DAOD_SUSY3.e8102_a875_r9364_p4029
mc16_13TeV:mc16_13TeV.501081.MGPy8EG_StauStauDirect_360p0_1p0_TFilt.deriv.DAOD_SUSY3.e8102_a875_r9364_p4029
mc16_13TeV:mc16_13TeV.501082.MGPy8EG_StauStauDirect_360p0_40p0_TFilt.deriv.DAOD_SUSY3.e8102_a875_r9364_p4029
mc16_13TeV:mc16_13TeV.501083.MGPy8EG_StauStauDirect_360p0_80p0_TFilt.deriv.DAOD_SUSY3.e8102_a875_r9364_p4029
mc16_13TeV:mc16_13TeV.501084.MGPy8EG_StauStauDirect_360p0_120p0_TFilt.deriv.DAOD_SUSY3.e8102_a875_r9364_p4029
mc16_13TeV:mc16_13TeV.501085.MGPy8EG_StauStauDirect_400p0_1p0_TFilt.deriv.DAOD_SUSY3.e8102_a875_r9364_p4029
mc16_13TeV:mc16_13TeV.501086.MGPy8EG_StauStauDirect_400p0_80p0_TFilt.deriv.DAOD_SUSY3.e8102_a875_r9364_p4029
mc16_13TeV:mc16_13TeV.501087.MGPy8EG_StauStauDirect_400p0_160p0_TFilt.deriv.DAOD_SUSY3.e8102_a875_r9364_p4029
mc16_13TeV:mc16_13TeV.501088.MGPy8EG_StauStauDirect_440p0_40p0_TFilt.deriv.DAOD_SUSY3.e8102_a875_r9364_p4029
mc16_13TeV:mc16_13TeV.501089.MGPy8EG_StauStauDirect_440p0_1p0_TFilt.deriv.DAOD_SUSY3.e8102_a875_r9364_p4029
mc16_13TeV:mc16_13TeV.501090.MGPy8EG_StauStauDirect_400p0_120p0_TFilt.deriv.DAOD_SUSY3.e8102_a875_r9364_p4029
mc16_13TeV:mc16_13TeV.501091.MGPy8EG_StauStauDirect_400p0_40p0_TFilt.deriv.DAOD_SUSY3.e8102_a875_r9364_p4029
mc16_13TeV:mc16_13TeV.501092.MGPy8EG_StauStauDirect_360p0_200p0_TFilt.deriv.DAOD_SUSY3.e8102_a875_r9364_p4029
mc16_13TeV:mc16_13TeV.501093.MGPy8EG_StauStauDirect_360p0_160p0_TFilt.deriv.DAOD_SUSY3.e8102_a875_r9364_p4029
mc16_13TeV:mc16_13TeV.501094.MGPy8EG_StauStauDirect_380p0_1p0_TFilt.deriv.DAOD_SUSY3.e8102_a875_r9364_p4029
mc16_13TeV:mc16_13TeV.501095.MGPy8EG_StauStauDirect_340p0_40p0_TFilt.deriv.DAOD_SUSY3.e8102_a875_r9364_p4029
mc16_13TeV:mc16_13TeV.501096.MGPy8EG_StauStauDirect_340p0_1p0_TFilt.deriv.DAOD_SUSY3.e8102_a875_r9364_p4029
mc16_13TeV:mc16_13TeV.501097.MGPy8EG_StauStauDirect_320p0_200p0_TFilt.deriv.DAOD_SUSY3.e8102_a875_r9364_p4029
mc16_13TeV:mc16_13TeV.501098.MGPy8EG_StauStauDirect_300p0_40p0_TFilt.deriv.DAOD_SUSY3.e8102_a875_r9364_p4029
mc16_13TeV:mc16_13TeV.501099.MGPy8EG_StauStauDirect_300p0_1p0_TFilt.deriv.DAOD_SUSY3.e8102_a875_r9364_p4029
mc16_13TeV:mc16_13TeV.501100.MGPy8EG_StauStauDirect_260p0_40p0_TFilt.deriv.DAOD_SUSY3.e8102_a875_r9364_p4029
mc16_13TeV:mc16_13TeV.501101.MGPy8EG_StauStauDirect_260p0_1p0_TFilt.deriv.DAOD_SUSY3.e8102_a875_r9364_p4029
mc16_13TeV:mc16_13TeV.501102.MGPy8EG_StauStauDirect_220p0_40p0_TFilt.deriv.DAOD_SUSY3.e8102_a875_r9364_p4029
mc16_13TeV:mc16_13TeV.501103.MGPy8EG_StauStauDirect_220p0_1p0_TFilt.deriv.DAOD_SUSY3.e8102_a875_r9364_p4029
mc16_13TeV:mc16_13TeV.501104.MGPy8EG_StauStauDirect_180p0_40p0_TFilt.deriv.DAOD_SUSY3.e8102_a875_r9364_p4029
mc16_13TeV:mc16_13TeV.501105.MGPy8EG_StauStauDirect_180p0_1p0_TFilt.deriv.DAOD_SUSY3.e8102_a875_r9364_p4029
mc16_13TeV:mc16_13TeV.501106.MGPy8EG_StauStauDirect_140p0_40p0_TFilt.deriv.DAOD_SUSY3.e8102_a875_r9364_p4029
mc16_13TeV:mc16_13TeV.501107.MGPy8EG_StauStauDirect_140p0_1p0_TFilt.deriv.DAOD_SUSY3.e8102_a875_r9364_p4029
mc16_13TeV:mc16_13TeV.501108.MGPy8EG_StauStauDirect_100p0_1p0_TFilt.deriv.DAOD_SUSY3.e8102_a875_r9364_p4029
mc16_13TeV:mc16_13TeV.501109.MGPy8EG_StauStauDirect_100p0_60p0_TFilt.deriv.DAOD_SUSY3.e8102_a875_r9364_p4029
mc16_13TeV:mc16_13TeV.501110.MGPy8EG_StauStauDirect_120p0_80p0_TFilt.deriv.DAOD_SUSY3.e8102_a875_r9364_p4029
mc16_13TeV:mc16_13TeV.501111.MGPy8EG_StauStauDirect_160p0_100p0_TFilt.deriv.DAOD_SUSY3.e8102_a875_r9364_p4029
mc16_13TeV:mc16_13TeV.501112.MGPy8EG_StauStauDirect_280p0_200p0_TFilt.deriv.DAOD_SUSY3.e8102_a875_r9364_p4029
mc16_13TeV:mc16_13TeV.501113.MGPy8EG_StauStauDirect_440p0_80p0_TFilt.deriv.DAOD_SUSY3.e8102_a875_r9364_p4029
mc16_13TeV:mc16_13TeV.501114.MGPy8EG_StauStauDirect_440p0_120p0_TFilt.deriv.DAOD_SUSY3.e8102_a875_r9364_p4029
mc16_13TeV:mc16_13TeV.501115.MGPy8EG_StauStauDirect_80p0_20p0_TFilt.deriv.DAOD_SUSY3.e8102_a875_r9364_p4029
mc16_13TeV:mc16_13TeV.501116.MGPy8EG_StauStauDirect_100p0_20p0_TFilt.deriv.DAOD_SUSY3.e8102_a875_r9364_p4029
mc16_13TeV:mc16_13TeV.501117.MGPy8EG_StauStauDirect_100p0_40p0_TFilt.deriv.DAOD_SUSY3.e8102_a875_r9364_p4029
mc16_13TeV:mc16_13TeV.501118.MGPy8EG_StauStauDirect_120p0_20p0_TFilt.deriv.DAOD_SUSY3.e8102_a875_r9364_p4029
mc16_13TeV:mc16_13TeV.501119.MGPy8EG_StauStauDirect_120p0_60p0_TFilt.deriv.DAOD_SUSY3.e8102_a875_r9364_p4029
mc16_13TeV:mc16_13TeV.501120.MGPy8EG_StauStauDirect_140p0_60p0_TFilt.deriv.DAOD_SUSY3.e8102_a875_r9364_p4029
mc16_13TeV:mc16_13TeV.501121.MGPy8EG_StauStauDirect_140p0_80p0_TFilt.deriv.DAOD_SUSY3.e8102_a875_r9364_p4029
mc16_13TeV:mc16_13TeV.501122.MGPy8EG_StauStauDirect_160p0_60p0_TFilt.deriv.DAOD_SUSY3.e8102_a875_r9364_p4029
mc16_13TeV:mc16_13TeV.501123.MGPy8EG_StauStauDirect_180p0_80p0_TFilt.deriv.DAOD_SUSY3.e8102_a875_r9364_p4029
mc16_13TeV:mc16_13TeV.501124.MGPy8EG_StauStauDirect_180p0_100p0_TFilt.deriv.DAOD_SUSY3.e8102_a875_r9364_p4029
mc16_13TeV:mc16_13TeV.501125.MGPy8EG_StauStauDirect_180p0_120p0_TFilt.deriv.DAOD_SUSY3.e8102_a875_r9364_p4029
mc16_13TeV:mc16_13TeV.501126.MGPy8EG_StauStauDirect_200p0_100p0_TFilt.deriv.DAOD_SUSY3.e8102_a875_r9364_p4029
mc16_13TeV:mc16_13TeV.501127.MGPy8EG_StauStauDirect_220p0_120p0_TFilt.deriv.DAOD_SUSY3.e8102_a875_r9364_p4029
mc16_13TeV:mc16_13TeV.501128.MGPy8EG_StauStauDirect_220p0_140p0_TFilt.deriv.DAOD_SUSY3.e8102_a875_r9364_p4029
mc16_13TeV:mc16_13TeV.501129.MGPy8EG_StauStauDirect_220p0_100p0_TFilt.deriv.DAOD_SUSY3.e8102_a875_r9364_p4029
mc16_13TeV:mc16_13TeV.501130.MGPy8EG_StauStauDirect_220p0_80p0_TFilt.deriv.DAOD_SUSY3.e8102_a875_r9364_p4029
mc16_13TeV:mc16_13TeV.501131.MGPy8EG_StauStauDirect_240p0_140p0_TFilt.deriv.DAOD_SUSY3.e8102_a875_r9364_p4029
mc16_13TeV:mc16_13TeV.501132.MGPy8EG_StauStauDirect_240p0_100p0_TFilt.deriv.DAOD_SUSY3.e8102_a875_r9364_p4029
mc16_13TeV:mc16_13TeV.501133.MGPy8EG_StauStauDirect_260p0_140p0_TFilt.deriv.DAOD_SUSY3.e8102_a875_r9364_p4029
mc16_13TeV:mc16_13TeV.501134.MGPy8EG_StauStauDirect_260p0_160p0_TFilt.deriv.DAOD_SUSY3.e8102_a875_r9364_p4029
mc16_13TeV:mc16_13TeV.501135.MGPy8EG_StauStauDirect_260p0_120p0_TFilt.deriv.DAOD_SUSY3.e8102_a875_r9364_p4029
mc16_13TeV:mc16_13TeV.501136.MGPy8EG_StauStauDirect_260p0_100p0_TFilt.deriv.DAOD_SUSY3.e8102_a875_r9364_p4029
mc16_13TeV:mc16_13TeV.501137.MGPy8EG_StauStauDirect_280p0_100p0_TFilt.deriv.DAOD_SUSY3.e8102_a875_r9364_p4029

# C1N2 -> Wh
mc16_13TeV:mc16_13TeV.396587.MadGraphPythia8EvtGen_A14N23LO_C1N2_Wh_hall_150p0_0p0_1T.deriv.DAOD_SUSY3.e7351_a875_r9364_p4029                         
mc16_13TeV:mc16_13TeV.396588.MadGraphPythia8EvtGen_A14N23LO_C1N2_Wh_hall_152p5_22p5_1T.deriv.DAOD_SUSY3.e7351_a875_r9364_p4029                        
mc16_13TeV:mc16_13TeV.396589.MadGraphPythia8EvtGen_A14N23LO_C1N2_Wh_hall_162p5_12p5_1T.deriv.DAOD_SUSY3.e7351_a875_r9364_p4029                        
mc16_13TeV:mc16_13TeV.396590.MadGraphPythia8EvtGen_A14N23LO_C1N2_Wh_hall_165p0_35p0_1T.deriv.DAOD_SUSY3.e7351_a875_r9364_p4029                        
mc16_13TeV:mc16_13TeV.396591.MadGraphPythia8EvtGen_A14N23LO_C1N2_Wh_hall_175p0_0p0_1T.deriv.DAOD_SUSY3.e7351_a875_r9364_p4029                         
mc16_13TeV:mc16_13TeV.396592.MadGraphPythia8EvtGen_A14N23LO_C1N2_Wh_hall_175p0_25p0_1T.deriv.DAOD_SUSY3.e7351_a875_r9364_p4029                        
mc16_13TeV:mc16_13TeV.396593.MadGraphPythia8EvtGen_A14N23LO_C1N2_Wh_hall_177p5_47p5_1T.deriv.DAOD_SUSY3.e7351_a875_r9364_p4029                        
mc16_13TeV:mc16_13TeV.396594.MadGraphPythia8EvtGen_A14N23LO_C1N2_Wh_hall_187p5_12p5_1T.deriv.DAOD_SUSY3.e7351_a875_r9364_p4029                        
mc16_13TeV:mc16_13TeV.396595.MadGraphPythia8EvtGen_A14N23LO_C1N2_Wh_hall_187p5_37p5_1T.deriv.DAOD_SUSY3.e7351_a875_r9364_p4029                        
mc16_13TeV:mc16_13TeV.396596.MadGraphPythia8EvtGen_A14N23LO_C1N2_Wh_hall_190p0_60p0_1T.deriv.DAOD_SUSY3.e7351_a875_r9364_p4029                        
mc16_13TeV:mc16_13TeV.396597.MadGraphPythia8EvtGen_A14N23LO_C1N2_Wh_hall_200p0_0p0_1T.deriv.DAOD_SUSY3.e7351_a875_r9364_p4029                         
mc16_13TeV:mc16_13TeV.396598.MadGraphPythia8EvtGen_A14N23LO_C1N2_Wh_hall_200p0_25p0_1T.deriv.DAOD_SUSY3.e7351_a875_r9364_p4029                        
mc16_13TeV:mc16_13TeV.396599.MadGraphPythia8EvtGen_A14N23LO_C1N2_Wh_hall_200p0_50p0_1T.deriv.DAOD_SUSY3.e7351_a875_r9364_p4029                        
mc16_13TeV:mc16_13TeV.396600.MadGraphPythia8EvtGen_A14N23LO_C1N2_Wh_hall_202p5_72p5_1T.deriv.DAOD_SUSY3.e7351_a875_r9364_p4029                        
mc16_13TeV:mc16_13TeV.396601.MadGraphPythia8EvtGen_A14N23LO_C1N2_Wh_hall_212p5_37p5_1T.deriv.DAOD_SUSY3.e7351_a875_r9364_p4029                        
mc16_13TeV:mc16_13TeV.396602.MadGraphPythia8EvtGen_A14N23LO_C1N2_Wh_hall_212p5_62p5_1T.deriv.DAOD_SUSY3.e7351_a875_r9364_p4029                        
mc16_13TeV:mc16_13TeV.396603.MadGraphPythia8EvtGen_A14N23LO_C1N2_Wh_hall_225p0_0p0_1T.deriv.DAOD_SUSY3.e7351_a875_r9364_p4029                         
mc16_13TeV:mc16_13TeV.396604.MadGraphPythia8EvtGen_A14N23LO_C1N2_Wh_hall_225p0_25p0_1T.deriv.DAOD_SUSY3.e7351_a875_r9364_p4029                        
mc16_13TeV:mc16_13TeV.396605.MadGraphPythia8EvtGen_A14N23LO_C1N2_Wh_hall_225p0_50p0_1T.deriv.DAOD_SUSY3.e7351_a875_r9364_p4029                        
mc16_13TeV:mc16_13TeV.396606.MadGraphPythia8EvtGen_A14N23LO_C1N2_Wh_hall_225p0_75p0_1T.deriv.DAOD_SUSY3.e7351_a875_r9364_p4029                        
mc16_13TeV:mc16_13TeV.396607.MadGraphPythia8EvtGen_A14N23LO_C1N2_Wh_hall_237p5_62p5_1T.deriv.DAOD_SUSY3.e7351_a875_r9364_p4029                        
mc16_13TeV:mc16_13TeV.396608.MadGraphPythia8EvtGen_A14N23LO_C1N2_Wh_hall_250p0_0p0_1T.deriv.DAOD_SUSY3.e7351_a875_r9364_p4029                         
mc16_13TeV:mc16_13TeV.396609.MadGraphPythia8EvtGen_A14N23LO_C1N2_Wh_hall_250p0_100p0_1T.deriv.DAOD_SUSY3.e7351_a875_r9364_p4029                       
mc16_13TeV:mc16_13TeV.396610.MadGraphPythia8EvtGen_A14N23LO_C1N2_Wh_hall_250p0_25p0_1T.deriv.DAOD_SUSY3.e7351_a875_r9364_p4029                        
mc16_13TeV:mc16_13TeV.396611.MadGraphPythia8EvtGen_A14N23LO_C1N2_Wh_hall_250p0_50p0_1T.deriv.DAOD_SUSY3.e7351_a875_r9364_p4029                        
mc16_13TeV:mc16_13TeV.396612.MadGraphPythia8EvtGen_A14N23LO_C1N2_Wh_hall_250p0_75p0_1T.deriv.DAOD_SUSY3.e7351_a875_r9364_p4029                        
mc16_13TeV:mc16_13TeV.396613.MadGraphPythia8EvtGen_A14N23LO_C1N2_Wh_hall_275p0_0p0_1T.deriv.DAOD_SUSY3.e7351_a875_r9364_p4029                         
mc16_13TeV:mc16_13TeV.396614.MadGraphPythia8EvtGen_A14N23LO_C1N2_Wh_hall_275p0_25p0_1T.deriv.DAOD_SUSY3.e7351_a875_r9364_p4029                        
mc16_13TeV:mc16_13TeV.396615.MadGraphPythia8EvtGen_A14N23LO_C1N2_Wh_hall_275p0_50p0_1T.deriv.DAOD_SUSY3.e7351_a875_r9364_p4029                        
mc16_13TeV:mc16_13TeV.396616.MadGraphPythia8EvtGen_A14N23LO_C1N2_Wh_hall_275p0_75p0_1T.deriv.DAOD_SUSY3.e7351_a875_r9364_p4029                        
mc16_13TeV:mc16_13TeV.396617.MadGraphPythia8EvtGen_A14N23LO_C1N2_Wh_hall_300p0_0p0_1T.deriv.DAOD_SUSY3.e7351_a875_r9364_p4029                         
mc16_13TeV:mc16_13TeV.396618.MadGraphPythia8EvtGen_A14N23LO_C1N2_Wh_hall_300p0_100p0_1T.deriv.DAOD_SUSY3.e7351_a875_r9364_p4029                       
mc16_13TeV:mc16_13TeV.396619.MadGraphPythia8EvtGen_A14N23LO_C1N2_Wh_hall_300p0_25p0_1T.deriv.DAOD_SUSY3.e7351_a875_r9364_p4029                        
mc16_13TeV:mc16_13TeV.396620.MadGraphPythia8EvtGen_A14N23LO_C1N2_Wh_hall_300p0_50p0_1T.deriv.DAOD_SUSY3.e7351_a875_r9364_p4029                        
mc16_13TeV:mc16_13TeV.396621.MadGraphPythia8EvtGen_A14N23LO_C1N2_Wh_hall_300p0_75p0_1T.deriv.DAOD_SUSY3.e7351_a875_r9364_p4029                        
mc16_13TeV:mc16_13TeV.396622.MadGraphPythia8EvtGen_A14N23LO_C1N2_Wh_hall_325p0_0p0_1T.deriv.DAOD_SUSY3.e7351_a875_r9364_p4029                         
mc16_13TeV:mc16_13TeV.396623.MadGraphPythia8EvtGen_A14N23LO_C1N2_Wh_hall_325p0_50p0_1T.deriv.DAOD_SUSY3.e7351_a875_r9364_p4029                        
mc16_13TeV:mc16_13TeV.396624.MadGraphPythia8EvtGen_A14N23LO_C1N2_Wh_hall_350p0_0p0_1T.deriv.DAOD_SUSY3.e7351_a875_r9364_p4029                         
mc16_13TeV:mc16_13TeV.396625.MadGraphPythia8EvtGen_A14N23LO_C1N2_Wh_hall_350p0_100p0_1T.deriv.DAOD_SUSY3.e7351_a875_r9364_p4029                       
mc16_13TeV:mc16_13TeV.396626.MadGraphPythia8EvtGen_A14N23LO_C1N2_Wh_hall_350p0_25p0_1T.deriv.DAOD_SUSY3.e7351_a875_r9364_p4029                        
mc16_13TeV:mc16_13TeV.396627.MadGraphPythia8EvtGen_A14N23LO_C1N2_Wh_hall_350p0_50p0_1T.deriv.DAOD_SUSY3.e7351_a875_r9364_p4029                        
mc16_13TeV:mc16_13TeV.396628.MadGraphPythia8EvtGen_A14N23LO_C1N2_Wh_hall_350p0_75p0_1T.deriv.DAOD_SUSY3.e7351_a875_r9364_p4029                        
mc16_13TeV:mc16_13TeV.396629.MadGraphPythia8EvtGen_A14N23LO_C1N2_Wh_hall_375p0_0p0_1T.deriv.DAOD_SUSY3.e7351_a875_r9364_p4029                         
mc16_13TeV:mc16_13TeV.396630.MadGraphPythia8EvtGen_A14N23LO_C1N2_Wh_hall_375p0_50p0_1T.deriv.DAOD_SUSY3.e7351_a875_r9364_p4029                        
mc16_13TeV:mc16_13TeV.396631.MadGraphPythia8EvtGen_A14N23LO_C1N2_Wh_hall_400p0_0p0_1T.deriv.DAOD_SUSY3.e7351_a875_r9364_p4029                         
mc16_13TeV:mc16_13TeV.396632.MadGraphPythia8EvtGen_A14N23LO_C1N2_Wh_hall_400p0_25p0_1T.deriv.DAOD_SUSY3.e7351_a875_r9364_p4029                        
mc16_13TeV:mc16_13TeV.396633.MadGraphPythia8EvtGen_A14N23LO_C1N2_Wh_hall_425p0_0p0_1T.deriv.DAOD_SUSY3.e7351_a875_r9364_p4029
mc16_13TeV:mc16_13TeV.398746.MGPy8EG_A14N23LO_C1N2_Wh_hall_500p0_120p0_1T.deriv.DAOD_SUSY3.e7997_a875_r9364_p4029
mc16_13TeV:mc16_13TeV.398747.MGPy8EG_A14N23LO_C1N2_Wh_hall_500p0_75p0_1T.deriv.DAOD_SUSY3.e7997_a875_r9364_p4029
mc16_13TeV:mc16_13TeV.398748.MGPy8EG_A14N23LO_C1N2_Wh_hall_500p0_35p0_1T.deriv.DAOD_SUSY3.e7997_a875_r9364_p4029
mc16_13TeV:mc16_13TeV.398749.MGPy8EG_A14N23LO_C1N2_Wh_hall_500p0_0p0_1T.deriv.DAOD_SUSY3.e7997_a875_r9364_p4029
mc16_13TeV:mc16_13TeV.398750.MGPy8EG_A14N23LO_C1N2_Wh_hall_450p0_120p0_1T.deriv.DAOD_SUSY3.e7997_a875_r9364_p4029
mc16_13TeV:mc16_13TeV.398751.MGPy8EG_A14N23LO_C1N2_Wh_hall_450p0_75p0_1T.deriv.DAOD_SUSY3.e7997_a875_r9364_p4029
mc16_13TeV:mc16_13TeV.398752.MGPy8EG_A14N23LO_C1N2_Wh_hall_450p0_35p0_1T.deriv.DAOD_SUSY3.e7997_a875_r9364_p4029
mc16_13TeV:mc16_13TeV.398753.MGPy8EG_A14N23LO_C1N2_Wh_hall_450p0_0p0_1T.deriv.DAOD_SUSY3.e7997_a875_r9364_p4029
mc16_13TeV:mc16_13TeV.398754.MGPy8EG_A14N23LO_C1N2_Wh_hall_400p0_140p0_1T.deriv.DAOD_SUSY3.e7997_a875_r9364_p4029
mc16_13TeV:mc16_13TeV.398755.MGPy8EG_A14N23LO_C1N2_Wh_hall_400p0_120p0_1T.deriv.DAOD_SUSY3.e7997_a875_r9364_p4029
mc16_13TeV:mc16_13TeV.398756.MGPy8EG_A14N23LO_C1N2_Wh_hall_400p0_100p0_1T.deriv.DAOD_SUSY3.e7997_a875_r9364_p4029
mc16_13TeV:mc16_13TeV.398757.MGPy8EG_A14N23LO_C1N2_Wh_hall_400p0_75p0_1T.deriv.DAOD_SUSY3.e7997_a875_r9364_p4029
mc16_13TeV:mc16_13TeV.398758.MGPy8EG_A14N23LO_C1N2_Wh_hall_400p0_55p0_1T.deriv.DAOD_SUSY3.e7997_a875_r9364_p4029
mc16_13TeV:mc16_13TeV.398759.MGPy8EG_A14N23LO_C1N2_Wh_hall_350p0_160p0_1T.deriv.DAOD_SUSY3.e7997_a875_r9364_p4029
mc16_13TeV:mc16_13TeV.398760.MGPy8EG_A14N23LO_C1N2_Wh_hall_350p0_140p0_1T.deriv.DAOD_SUSY3.e7997_a875_r9364_p4029
mc16_13TeV:mc16_13TeV.398761.MGPy8EG_A14N23LO_C1N2_Wh_hall_350p0_120p0_1T.deriv.DAOD_SUSY3.e7997_a875_r9364_p4029
mc16_13TeV:mc16_13TeV.398762.MGPy8EG_A14N23LO_C1N2_Wh_hall_300p0_140p0_1T.deriv.DAOD_SUSY3.e7997_a875_r9364_p4029
mc16_13TeV:mc16_13TeV.398763.MGPy8EG_A14N23LO_C1N2_Wh_hall_300p0_120p0_1T.deriv.DAOD_SUSY3.e7997_a875_r9364_p4029
mc16_13TeV:mc16_13TeV.398764.MGPy8EG_A14N23LO_C1N2_Wh_hall_246p0_120p0_1T.deriv.DAOD_SUSY3.e7997_a875_r9364_p4029
mc16_13TeV:mc16_13TeV.398765.MGPy8EG_A14N23LO_C1N2_Wh_hall_226p0_100p0_1T.deriv.DAOD_SUSY3.e7997_a875_r9364_p4029
mc16_13TeV:mc16_13TeV.398766.MGPy8EG_A14N23LO_C1N2_Wh_hall_211p0_85p0_1T.deriv.DAOD_SUSY3.e7997_a875_r9364_p4029
mc16_13TeV:mc16_13TeV.398767.MGPy8EG_A14N23LO_C1N2_Wh_hall_181p0_55p0_1T.deriv.DAOD_SUSY3.e7997_a875_r9364_p4029
mc16_13TeV:mc16_13TeV.398768.MGPy8EG_A14N23LO_C1N2_Wh_hall_156p0_30p0_1T.deriv.DAOD_SUSY3.e7997_a875_r9364_p4029
mc16_13TeV:mc16_13TeV.398769.MGPy8EG_A14N23LO_C1N2_Wh_hall_126p0_0p0_1T.deriv.DAOD_SUSY3.e7997_a875_r9364_p4029

# C1C1, C1N2 via stau decay
mc16_13TeV:mc16_13TeV.396293.MGPy8EG_A14N23LO_C1C1_Stau_100p0_0p0_2L1T.deriv.DAOD_SUSY3.e7231_a875_r9364_p4029    
mc16_13TeV:mc16_13TeV.396294.MGPy8EG_A14N23LO_C1C1_Stau_100p0_35p0_2L1T.deriv.DAOD_SUSY3.e7231_a875_r9364_p4029   
mc16_13TeV:mc16_13TeV.396295.MGPy8EG_A14N23LO_C1C1_Stau_100p0_65p0_2L1T.deriv.DAOD_SUSY3.e7231_a875_r9364_p4029   
mc16_13TeV:mc16_13TeV.396296.MGPy8EG_A14N23LO_C1C1_Stau_112p5_12p5_2L1T.deriv.DAOD_SUSY3.e7231_a875_r9364_p4029   
mc16_13TeV:mc16_13TeV.396297.MGPy8EG_A14N23LO_C1C1_Stau_112p5_47p5_2L1T.deriv.DAOD_SUSY3.e7231_a875_r9364_p4029   
mc16_13TeV:mc16_13TeV.396298.MGPy8EG_A14N23LO_C1C1_Stau_117p5_82p5_2L1T.deriv.DAOD_SUSY3.e7231_a875_r9364_p4029   
mc16_13TeV:mc16_13TeV.396299.MGPy8EG_A14N23LO_C1C1_Stau_130p0_30p0_2L1T.deriv.DAOD_SUSY3.e7231_a875_r9364_p4029   
mc16_13TeV:mc16_13TeV.396300.MGPy8EG_A14N23LO_C1C1_Stau_132p5_67p5_2L1T.deriv.DAOD_SUSY3.e7231_a875_r9364_p4029   
mc16_13TeV:mc16_13TeV.396301.MGPy8EG_A14N23LO_C1C1_Stau_142p5_107p5_2L1T.deriv.DAOD_SUSY3.e7231_a875_r9364_p4029  
mc16_13TeV:mc16_13TeV.396302.MGPy8EG_A14N23LO_C1C1_Stau_150p0_50p0_2L1T.deriv.DAOD_SUSY3.e7231_a875_r9364_p4029   
mc16_13TeV:mc16_13TeV.396303.MGPy8EG_A14N23LO_C1C1_Stau_157p5_92p5_2L1T.deriv.DAOD_SUSY3.e7231_a875_r9364_p4029   
mc16_13TeV:mc16_13TeV.396304.MGPy8EG_A14N23LO_C1C1_Stau_167p5_132p5_2L1T.deriv.DAOD_SUSY3.e7231_a875_r9364_p4029  
mc16_13TeV:mc16_13TeV.396305.MGPy8EG_A14N23LO_C1C1_Stau_175p0_25p0_2L1T.deriv.DAOD_SUSY3.e7231_a875_r9364_p4029   
mc16_13TeV:mc16_13TeV.396306.MGPy8EG_A14N23LO_C1C1_Stau_175p0_75p0_2L1T.deriv.DAOD_SUSY3.e7231_a875_r9364_p4029   
mc16_13TeV:mc16_13TeV.396307.MGPy8EG_A14N23LO_C1C1_Stau_182p5_117p5_2L1T.deriv.DAOD_SUSY3.e7231_a875_r9364_p4029  
mc16_13TeV:mc16_13TeV.396308.MGPy8EG_A14N23LO_C1C1_Stau_192p5_157p5_2L1T.deriv.DAOD_SUSY3.e7231_a875_r9364_p4029  
mc16_13TeV:mc16_13TeV.396309.MGPy8EG_A14N23LO_C1C1_Stau_200p0_0p0_2L1T.deriv.DAOD_SUSY3.e7231_a875_r9364_p4029    
mc16_13TeV:mc16_13TeV.396310.MGPy8EG_A14N23LO_C1C1_Stau_200p0_100p0_2L1T.deriv.DAOD_SUSY3.e7231_a875_r9364_p4029  
mc16_13TeV:mc16_13TeV.396311.MGPy8EG_A14N23LO_C1C1_Stau_200p0_50p0_2L1T.deriv.DAOD_SUSY3.e7231_a875_r9364_p4029   
mc16_13TeV:mc16_13TeV.396312.MGPy8EG_A14N23LO_C1C1_Stau_207p5_142p5_2L1T.deriv.DAOD_SUSY3.e7231_a875_r9364_p4029  
mc16_13TeV:mc16_13TeV.396313.MGPy8EG_A14N23LO_C1C1_Stau_217p5_182p5_2L1T.deriv.DAOD_SUSY3.e7231_a875_r9364_p4029  
mc16_13TeV:mc16_13TeV.396314.MGPy8EG_A14N23LO_C1C1_Stau_225p0_125p0_2L1T.deriv.DAOD_SUSY3.e7231_a875_r9364_p4029  
mc16_13TeV:mc16_13TeV.396315.MGPy8EG_A14N23LO_C1C1_Stau_225p0_75p0_2L1T.deriv.DAOD_SUSY3.e7231_a875_r9364_p4029   
mc16_13TeV:mc16_13TeV.396316.MGPy8EG_A14N23LO_C1C1_Stau_232p5_167p5_2L1T.deriv.DAOD_SUSY3.e7231_a875_r9364_p4029  
mc16_13TeV:mc16_13TeV.396317.MGPy8EG_A14N23LO_C1C1_Stau_242p5_207p5_2L1T.deriv.DAOD_SUSY3.e7231_a875_r9364_p4029  
mc16_13TeV:mc16_13TeV.396318.MGPy8EG_A14N23LO_C1C1_Stau_250p0_100p0_2L1T.deriv.DAOD_SUSY3.e7231_a875_r9364_p4029  
mc16_13TeV:mc16_13TeV.396319.MGPy8EG_A14N23LO_C1C1_Stau_250p0_150p0_2L1T.deriv.DAOD_SUSY3.e7231_a875_r9364_p4029  
mc16_13TeV:mc16_13TeV.396320.MGPy8EG_A14N23LO_C1C1_Stau_257p5_192p5_2L1T.deriv.DAOD_SUSY3.e7231_a875_r9364_p4029  
mc16_13TeV:mc16_13TeV.396321.MGPy8EG_A14N23LO_C1C1_Stau_267p5_232p5_2L1T.deriv.DAOD_SUSY3.e7231_a875_r9364_p4029  
mc16_13TeV:mc16_13TeV.396322.MGPy8EG_A14N23LO_C1C1_Stau_275p0_125p0_2L1T.deriv.DAOD_SUSY3.e7231_a875_r9364_p4029  
mc16_13TeV:mc16_13TeV.396323.MGPy8EG_A14N23LO_C1C1_Stau_275p0_175p0_2L1T.deriv.DAOD_SUSY3.e7231_a875_r9364_p4029  
mc16_13TeV:mc16_13TeV.396324.MGPy8EG_A14N23LO_C1C1_Stau_282p5_217p5_2L1T.deriv.DAOD_SUSY3.e7231_a875_r9364_p4029  
mc16_13TeV:mc16_13TeV.396325.MGPy8EG_A14N23LO_C1C1_Stau_300p0_0p0_2L1T.deriv.DAOD_SUSY3.e7231_a875_r9364_p4029    
mc16_13TeV:mc16_13TeV.396326.MGPy8EG_A14N23LO_C1C1_Stau_300p0_100p0_2L1T.deriv.DAOD_SUSY3.e7231_a875_r9364_p4029  
mc16_13TeV:mc16_13TeV.396327.MGPy8EG_A14N23LO_C1C1_Stau_300p0_150p0_2L1T.deriv.DAOD_SUSY3.e7231_a875_r9364_p4029  
mc16_13TeV:mc16_13TeV.396328.MGPy8EG_A14N23LO_C1C1_Stau_300p0_200p0_2L1T.deriv.DAOD_SUSY3.e7231_a875_r9364_p4029  
mc16_13TeV:mc16_13TeV.396329.MGPy8EG_A14N23LO_C1C1_Stau_325p0_125p0_2L1T.deriv.DAOD_SUSY3.e7231_a875_r9364_p4029  
mc16_13TeV:mc16_13TeV.396330.MGPy8EG_A14N23LO_C1C1_Stau_325p0_175p0_2L1T.deriv.DAOD_SUSY3.e7231_a875_r9364_p4029  
mc16_13TeV:mc16_13TeV.396331.MGPy8EG_A14N23LO_C1C1_Stau_325p0_225p0_2L1T.deriv.DAOD_SUSY3.e7231_a875_r9364_p4029  
mc16_13TeV:mc16_13TeV.396332.MGPy8EG_A14N23LO_C1C1_Stau_330p0_295p0_2L1T.deriv.DAOD_SUSY3.e7231_a875_r9364_p4029  
mc16_13TeV:mc16_13TeV.396333.MGPy8EG_A14N23LO_C1C1_Stau_345p0_280p0_2L1T.deriv.DAOD_SUSY3.e7231_a875_r9364_p4029  
mc16_13TeV:mc16_13TeV.396334.MGPy8EG_A14N23LO_C1C1_Stau_350p0_150p0_2L1T.deriv.DAOD_SUSY3.e7231_a875_r9364_p4029  
mc16_13TeV:mc16_13TeV.396335.MGPy8EG_A14N23LO_C1C1_Stau_350p0_200p0_2L1T.deriv.DAOD_SUSY3.e7231_a875_r9364_p4029  
mc16_13TeV:mc16_13TeV.396336.MGPy8EG_A14N23LO_C1C1_Stau_362p5_262p5_2L1T.deriv.DAOD_SUSY3.e7231_a875_r9364_p4029  
mc16_13TeV:mc16_13TeV.396337.MGPy8EG_A14N23LO_C1C1_Stau_375p0_175p0_2L1T.deriv.DAOD_SUSY3.e7231_a875_r9364_p4029  
mc16_13TeV:mc16_13TeV.396338.MGPy8EG_A14N23LO_C1C1_Stau_387p5_237p5_2L1T.deriv.DAOD_SUSY3.e7231_a875_r9364_p4029  
mc16_13TeV:mc16_13TeV.396339.MGPy8EG_A14N23LO_C1C1_Stau_400p0_0p0_2L1T.deriv.DAOD_SUSY3.e7231_a875_r9364_p4029    
mc16_13TeV:mc16_13TeV.396340.MGPy8EG_A14N23LO_C1C1_Stau_400p0_100p0_2L1T.deriv.DAOD_SUSY3.e7231_a875_r9364_p4029  
mc16_13TeV:mc16_13TeV.396341.MGPy8EG_A14N23LO_C1C1_Stau_400p0_300p0_2L1T.deriv.DAOD_SUSY3.e7231_a875_r9364_p4029  
mc16_13TeV:mc16_13TeV.396342.MGPy8EG_A14N23LO_C1C1_Stau_412p5_212p5_2L1T.deriv.DAOD_SUSY3.e7231_a875_r9364_p4029  
mc16_13TeV:mc16_13TeV.396343.MGPy8EG_A14N23LO_C1C1_Stau_425p0_275p0_2L1T.deriv.DAOD_SUSY3.e7231_a875_r9364_p4029  
mc16_13TeV:mc16_13TeV.396344.MGPy8EG_A14N23LO_C1C1_Stau_450p0_250p0_2L1T.deriv.DAOD_SUSY3.e7231_a875_r9364_p4029  
mc16_13TeV:mc16_13TeV.396345.MGPy8EG_A14N23LO_C1C1_Stau_450p0_350p0_2L1T.deriv.DAOD_SUSY3.e7231_a875_r9364_p4029  
mc16_13TeV:mc16_13TeV.396346.MGPy8EG_A14N23LO_C1C1_Stau_475p0_325p0_2L1T.deriv.DAOD_SUSY3.e7231_a875_r9364_p4029  
mc16_13TeV:mc16_13TeV.396347.MGPy8EG_A14N23LO_C1C1_Stau_500p0_0p0_2L1T.deriv.DAOD_SUSY3.e7231_a875_r9364_p4029    
mc16_13TeV:mc16_13TeV.396348.MGPy8EG_A14N23LO_C1C1_Stau_500p0_100p0_2L1T.deriv.DAOD_SUSY3.e7231_a875_r9364_p4029  
mc16_13TeV:mc16_13TeV.396349.MGPy8EG_A14N23LO_C1C1_Stau_500p0_200p0_2L1T.deriv.DAOD_SUSY3.e7231_a875_r9364_p4029  
mc16_13TeV:mc16_13TeV.396350.MGPy8EG_A14N23LO_C1C1_Stau_500p0_300p0_2L1T.deriv.DAOD_SUSY3.e7231_a875_r9364_p4029  
mc16_13TeV:mc16_13TeV.396351.MGPy8EG_A14N23LO_C1C1_Stau_500p0_400p0_2L1T.deriv.DAOD_SUSY3.e7231_a875_r9364_p4029  
mc16_13TeV:mc16_13TeV.396352.MGPy8EG_A14N23LO_C1C1_Stau_525p0_375p0_2L1T.deriv.DAOD_SUSY3.e7231_a875_r9364_p4029  
mc16_13TeV:mc16_13TeV.396353.MGPy8EG_A14N23LO_C1C1_Stau_550p0_350p0_2L1T.deriv.DAOD_SUSY3.e7231_a875_r9364_p4029  
mc16_13TeV:mc16_13TeV.396354.MGPy8EG_A14N23LO_C1C1_Stau_550p0_450p0_2L1T.deriv.DAOD_SUSY3.e7231_a875_r9364_p4029  
mc16_13TeV:mc16_13TeV.396355.MGPy8EG_A14N23LO_C1C1_Stau_575p0_425p0_2L1T.deriv.DAOD_SUSY3.e7231_a875_r9364_p4029  
mc16_13TeV:mc16_13TeV.396356.MGPy8EG_A14N23LO_C1C1_Stau_600p0_0p0_2L1T.deriv.DAOD_SUSY3.e7231_a875_r9364_p4029    
mc16_13TeV:mc16_13TeV.396357.MGPy8EG_A14N23LO_C1C1_Stau_600p0_100p0_2L1T.deriv.DAOD_SUSY3.e7231_a875_r9364_p4029  
mc16_13TeV:mc16_13TeV.396358.MGPy8EG_A14N23LO_C1C1_Stau_600p0_200p0_2L1T.deriv.DAOD_SUSY3.e7231_a875_r9364_p4029  
mc16_13TeV:mc16_13TeV.396359.MGPy8EG_A14N23LO_C1C1_Stau_600p0_300p0_2L1T.deriv.DAOD_SUSY3.e7231_a875_r9364_p4029  
mc16_13TeV:mc16_13TeV.396360.MGPy8EG_A14N23LO_C1C1_Stau_600p0_400p0_2L1T.deriv.DAOD_SUSY3.e7231_a875_r9364_p4029  
mc16_13TeV:mc16_13TeV.396361.MGPy8EG_A14N23LO_C1C1_Stau_600p0_500p0_2L1T.deriv.DAOD_SUSY3.e7231_a875_r9364_p4029  
mc16_13TeV:mc16_13TeV.396362.MGPy8EG_A14N23LO_C1C1_Stau_625p0_475p0_2L1T.deriv.DAOD_SUSY3.e7231_a875_r9364_p4029  
mc16_13TeV:mc16_13TeV.396363.MGPy8EG_A14N23LO_C1C1_Stau_650p0_350p0_2L1T.deriv.DAOD_SUSY3.e7231_a875_r9364_p4029  
mc16_13TeV:mc16_13TeV.396364.MGPy8EG_A14N23LO_C1C1_Stau_650p0_450p0_2L1T.deriv.DAOD_SUSY3.e7231_a875_r9364_p4029  
mc16_13TeV:mc16_13TeV.396365.MGPy8EG_A14N23LO_C1C1_Stau_650p0_550p0_2L1T.deriv.DAOD_SUSY3.e7231_a875_r9364_p4029  
mc16_13TeV:mc16_13TeV.396366.MGPy8EG_A14N23LO_C1C1_Stau_675p0_525p0_2L1T.deriv.DAOD_SUSY3.e7231_a875_r9364_p4029  
mc16_13TeV:mc16_13TeV.396367.MGPy8EG_A14N23LO_C1C1_Stau_700p0_0p0_2L1T.deriv.DAOD_SUSY3.e7231_a875_r9364_p4029    
mc16_13TeV:mc16_13TeV.396368.MGPy8EG_A14N23LO_C1C1_Stau_700p0_100p0_2L1T.deriv.DAOD_SUSY3.e7231_a875_r9364_p4029  
mc16_13TeV:mc16_13TeV.396369.MGPy8EG_A14N23LO_C1C1_Stau_700p0_200p0_2L1T.deriv.DAOD_SUSY3.e7231_a875_r9364_p4029  
mc16_13TeV:mc16_13TeV.396370.MGPy8EG_A14N23LO_C1C1_Stau_700p0_300p0_2L1T.deriv.DAOD_SUSY3.e7231_a875_r9364_p4029  
mc16_13TeV:mc16_13TeV.396371.MGPy8EG_A14N23LO_C1C1_Stau_700p0_400p0_2L1T.deriv.DAOD_SUSY3.e7231_a875_r9364_p4029  
mc16_13TeV:mc16_13TeV.396372.MGPy8EG_A14N23LO_C1C1_Stau_700p0_500p0_2L1T.deriv.DAOD_SUSY3.e7231_a875_r9364_p4029  
mc16_13TeV:mc16_13TeV.396373.MGPy8EG_A14N23LO_C1C1_Stau_700p0_600p0_2L1T.deriv.DAOD_SUSY3.e7231_a875_r9364_p4029  
mc16_13TeV:mc16_13TeV.396374.MGPy8EG_A14N23LO_C1C1_Stau_725p0_575p0_2L1T.deriv.DAOD_SUSY3.e7231_a875_r9364_p4029  
mc16_13TeV:mc16_13TeV.396375.MGPy8EG_A14N23LO_C1C1_Stau_750p0_450p0_2L1T.deriv.DAOD_SUSY3.e7231_a875_r9364_p4029  
mc16_13TeV:mc16_13TeV.396376.MGPy8EG_A14N23LO_C1C1_Stau_750p0_550p0_2L1T.deriv.DAOD_SUSY3.e7231_a875_r9364_p4029  
mc16_13TeV:mc16_13TeV.396377.MGPy8EG_A14N23LO_C1C1_Stau_800p0_0p0_2L1T.deriv.DAOD_SUSY3.e7231_a875_r9364_p4029    
mc16_13TeV:mc16_13TeV.396378.MGPy8EG_A14N23LO_C1C1_Stau_800p0_100p0_2L1T.deriv.DAOD_SUSY3.e7231_a875_r9364_p4029  
mc16_13TeV:mc16_13TeV.396379.MGPy8EG_A14N23LO_C1C1_Stau_800p0_200p0_2L1T.deriv.DAOD_SUSY3.e7231_a875_r9364_p4029  
mc16_13TeV:mc16_13TeV.396380.MGPy8EG_A14N23LO_C1C1_Stau_800p0_300p0_2L1T.deriv.DAOD_SUSY3.e7231_a875_r9364_p4029  
mc16_13TeV:mc16_13TeV.396381.MGPy8EG_A14N23LO_C1C1_Stau_800p0_400p0_2L1T.deriv.DAOD_SUSY3.e7231_a875_r9364_p4029  
mc16_13TeV:mc16_13TeV.396382.MGPy8EG_A14N23LO_C1C1_Stau_800p0_500p0_2L1T.deriv.DAOD_SUSY3.e7231_a875_r9364_p4029  
mc16_13TeV:mc16_13TeV.396383.MGPy8EG_A14N23LO_C1C1_Stau_800p0_600p0_2L1T.deriv.DAOD_SUSY3.e7231_a875_r9364_p4029  
mc16_13TeV:mc16_13TeV.396384.MGPy8EG_A14N23LO_C1C1_Stau_900p0_0p0_2L1T.deriv.DAOD_SUSY3.e7231_a875_r9364_p4029    
mc16_13TeV:mc16_13TeV.396385.MGPy8EG_A14N23LO_C1C1_Stau_900p0_100p0_2L1T.deriv.DAOD_SUSY3.e7231_a875_r9364_p4029  
mc16_13TeV:mc16_13TeV.396386.MGPy8EG_A14N23LO_C1C1_Stau_900p0_200p0_2L1T.deriv.DAOD_SUSY3.e7231_a875_r9364_p4029  
mc16_13TeV:mc16_13TeV.396387.MGPy8EG_A14N23LO_C1C1_Stau_900p0_300p0_2L1T.deriv.DAOD_SUSY3.e7231_a875_r9364_p4029  
mc16_13TeV:mc16_13TeV.396388.MGPy8EG_A14N23LO_C1C1_Stau_900p0_400p0_2L1T.deriv.DAOD_SUSY3.e7231_a875_r9364_p4029  
mc16_13TeV:mc16_13TeV.396389.MGPy8EG_A14N23LO_C1C1_Stau_900p0_500p0_2L1T.deriv.DAOD_SUSY3.e7231_a875_r9364_p4029  
mc16_13TeV:mc16_13TeV.396390.MGPy8EG_A14N23LO_C1C1_Stau_900p0_600p0_2L1T.deriv.DAOD_SUSY3.e7231_a875_r9364_p4029  
mc16_13TeV:mc16_13TeV.396391.MGPy8EG_A14N23LO_C1C1_Stau_1000p0_0p0_2L1T.deriv.DAOD_SUSY3.e7231_a875_r9364_p4029   
mc16_13TeV:mc16_13TeV.396392.MGPy8EG_A14N23LO_C1C1_Stau_1000p0_100p0_2L1T.deriv.DAOD_SUSY3.e7231_a875_r9364_p4029 
mc16_13TeV:mc16_13TeV.396393.MGPy8EG_A14N23LO_C1C1_Stau_1000p0_200p0_2L1T.deriv.DAOD_SUSY3.e7231_a875_r9364_p4029 
mc16_13TeV:mc16_13TeV.396394.MGPy8EG_A14N23LO_C1C1_Stau_1000p0_300p0_2L1T.deriv.DAOD_SUSY3.e7231_a875_r9364_p4029 
mc16_13TeV:mc16_13TeV.396395.MGPy8EG_A14N23LO_C1C1_Stau_1000p0_400p0_2L1T.deriv.DAOD_SUSY3.e7231_a875_r9364_p4029 
mc16_13TeV:mc16_13TeV.396396.MGPy8EG_A14N23LO_C1C1_Stau_1000p0_500p0_2L1T.deriv.DAOD_SUSY3.e7231_a875_r9364_p4029 
mc16_13TeV:mc16_13TeV.396397.MGPy8EG_A14N23LO_C1C1_Stau_1000p0_600p0_2L1T.deriv.DAOD_SUSY3.e7231_a875_r9364_p4029 
mc16_13TeV:mc16_13TeV.396398.MGPy8EG_A14N23LO_C1C1_Stau_1100p0_0p0_2L1T.deriv.DAOD_SUSY3.e7231_a875_r9364_p4029   
mc16_13TeV:mc16_13TeV.396399.MGPy8EG_A14N23LO_C1C1_Stau_1100p0_100p0_2L1T.deriv.DAOD_SUSY3.e7231_a875_r9364_p4029 
mc16_13TeV:mc16_13TeV.396400.MGPy8EG_A14N23LO_C1C1_Stau_1100p0_200p0_2L1T.deriv.DAOD_SUSY3.e7231_a875_r9364_p4029 
mc16_13TeV:mc16_13TeV.396401.MGPy8EG_A14N23LO_C1C1_Stau_1100p0_300p0_2L1T.deriv.DAOD_SUSY3.e7236_a875_r9364_p4029 
mc16_13TeV:mc16_13TeV.396402.MGPy8EG_A14N23LO_C1C1_Stau_1100p0_400p0_2L1T.deriv.DAOD_SUSY3.e7231_a875_r9364_p4029 
mc16_13TeV:mc16_13TeV.396403.MGPy8EG_A14N23LO_C1C1_Stau_1100p0_500p0_2L1T.deriv.DAOD_SUSY3.e7231_a875_r9364_p4029 
mc16_13TeV:mc16_13TeV.396404.MGPy8EG_A14N23LO_C1C1_Stau_1100p0_600p0_2L1T.deriv.DAOD_SUSY3.e7231_a875_r9364_p4029 
mc16_13TeV:mc16_13TeV.396405.MGPy8EG_A14N23LO_C1C1_Stau_1200p0_0p0_2L1T.deriv.DAOD_SUSY3.e7231_a875_r9364_p4029   
mc16_13TeV:mc16_13TeV.396406.MGPy8EG_A14N23LO_C1C1_Stau_1200p0_100p0_2L1T.deriv.DAOD_SUSY3.e7231_a875_r9364_p4029 
mc16_13TeV:mc16_13TeV.396407.MGPy8EG_A14N23LO_C1C1_Stau_1200p0_200p0_2L1T.deriv.DAOD_SUSY3.e7231_a875_r9364_p4029 
mc16_13TeV:mc16_13TeV.396408.MGPy8EG_A14N23LO_C1C1_Stau_1200p0_300p0_2L1T.deriv.DAOD_SUSY3.e7231_a875_r9364_p4029 
mc16_13TeV:mc16_13TeV.396409.MGPy8EG_A14N23LO_C1C1_Stau_1200p0_400p0_2L1T.deriv.DAOD_SUSY3.e7231_a875_r9364_p4029 
mc16_13TeV:mc16_13TeV.396410.MGPy8EG_A14N23LO_C1C1_Stau_1200p0_500p0_2L1T.deriv.DAOD_SUSY3.e7231_a875_r9364_p4029 
mc16_13TeV:mc16_13TeV.396411.MGPy8EG_A14N23LO_C1C1_Stau_1200p0_600p0_2L1T.deriv.DAOD_SUSY3.e7232_a875_r9364_p4029 
mc16_13TeV:mc16_13TeV.396412.MGPy8EG_A14N23LO_C1N2_Stau_100p0_0p0_2L1T.deriv.DAOD_SUSY3.e7232_a875_r9364_p4029    
mc16_13TeV:mc16_13TeV.396413.MGPy8EG_A14N23LO_C1N2_Stau_100p0_35p0_2L1T.deriv.DAOD_SUSY3.e7232_a875_r9364_p4029   
mc16_13TeV:mc16_13TeV.396414.MGPy8EG_A14N23LO_C1N2_Stau_100p0_65p0_2L1T.deriv.DAOD_SUSY3.e7232_a875_r9364_p4029   
mc16_13TeV:mc16_13TeV.396415.MGPy8EG_A14N23LO_C1N2_Stau_112p5_12p5_2L1T.deriv.DAOD_SUSY3.e7232_a875_r9364_p4029   
mc16_13TeV:mc16_13TeV.396416.MGPy8EG_A14N23LO_C1N2_Stau_112p5_47p5_2L1T.deriv.DAOD_SUSY3.e7232_a875_r9364_p4029   
mc16_13TeV:mc16_13TeV.396417.MGPy8EG_A14N23LO_C1N2_Stau_117p5_82p5_2L1T.deriv.DAOD_SUSY3.e7232_a875_r9364_p4029   
mc16_13TeV:mc16_13TeV.396418.MGPy8EG_A14N23LO_C1N2_Stau_130p0_30p0_2L1T.deriv.DAOD_SUSY3.e7232_a875_r9364_p4029   
mc16_13TeV:mc16_13TeV.396419.MGPy8EG_A14N23LO_C1N2_Stau_132p5_67p5_2L1T.deriv.DAOD_SUSY3.e7232_a875_r9364_p4029   
mc16_13TeV:mc16_13TeV.396420.MGPy8EG_A14N23LO_C1N2_Stau_142p5_107p5_2L1T.deriv.DAOD_SUSY3.e7232_a875_r9364_p4029  
mc16_13TeV:mc16_13TeV.396421.MGPy8EG_A14N23LO_C1N2_Stau_150p0_50p0_2L1T.deriv.DAOD_SUSY3.e7232_a875_r9364_p4029   
mc16_13TeV:mc16_13TeV.396422.MGPy8EG_A14N23LO_C1N2_Stau_157p5_92p5_2L1T.deriv.DAOD_SUSY3.e7232_a875_r9364_p4029   
mc16_13TeV:mc16_13TeV.396423.MGPy8EG_A14N23LO_C1N2_Stau_167p5_132p5_2L1T.deriv.DAOD_SUSY3.e7232_a875_r9364_p4029  
mc16_13TeV:mc16_13TeV.396424.MGPy8EG_A14N23LO_C1N2_Stau_175p0_25p0_2L1T.deriv.DAOD_SUSY3.e7232_a875_r9364_p4029   
mc16_13TeV:mc16_13TeV.396425.MGPy8EG_A14N23LO_C1N2_Stau_175p0_75p0_2L1T.deriv.DAOD_SUSY3.e7232_a875_r9364_p4029   
mc16_13TeV:mc16_13TeV.396426.MGPy8EG_A14N23LO_C1N2_Stau_182p5_117p5_2L1T.deriv.DAOD_SUSY3.e7232_a875_r9364_p4029  
mc16_13TeV:mc16_13TeV.396427.MGPy8EG_A14N23LO_C1N2_Stau_192p5_157p5_2L1T.deriv.DAOD_SUSY3.e7232_a875_r9364_p4029  
mc16_13TeV:mc16_13TeV.396428.MGPy8EG_A14N23LO_C1N2_Stau_200p0_0p0_2L1T.deriv.DAOD_SUSY3.e7232_a875_r9364_p4029    
mc16_13TeV:mc16_13TeV.396429.MGPy8EG_A14N23LO_C1N2_Stau_200p0_100p0_2L1T.deriv.DAOD_SUSY3.e7232_a875_r9364_p4029  
mc16_13TeV:mc16_13TeV.396430.MGPy8EG_A14N23LO_C1N2_Stau_200p0_50p0_2L1T.deriv.DAOD_SUSY3.e7232_a875_r9364_p4029   
mc16_13TeV:mc16_13TeV.396431.MGPy8EG_A14N23LO_C1N2_Stau_207p5_142p5_2L1T.deriv.DAOD_SUSY3.e7232_a875_r9364_p4029  
mc16_13TeV:mc16_13TeV.396432.MGPy8EG_A14N23LO_C1N2_Stau_217p5_182p5_2L1T.deriv.DAOD_SUSY3.e7232_a875_r9364_p4029  
mc16_13TeV:mc16_13TeV.396433.MGPy8EG_A14N23LO_C1N2_Stau_225p0_125p0_2L1T.deriv.DAOD_SUSY3.e7232_a875_r9364_p4029  
mc16_13TeV:mc16_13TeV.396434.MGPy8EG_A14N23LO_C1N2_Stau_225p0_75p0_2L1T.deriv.DAOD_SUSY3.e7232_a875_r9364_p4029   
mc16_13TeV:mc16_13TeV.396435.MGPy8EG_A14N23LO_C1N2_Stau_232p5_167p5_2L1T.deriv.DAOD_SUSY3.e7232_a875_r9364_p4029  
mc16_13TeV:mc16_13TeV.396436.MGPy8EG_A14N23LO_C1N2_Stau_242p5_207p5_2L1T.deriv.DAOD_SUSY3.e7232_a875_r9364_p4029  
mc16_13TeV:mc16_13TeV.396437.MGPy8EG_A14N23LO_C1N2_Stau_250p0_100p0_2L1T.deriv.DAOD_SUSY3.e7232_a875_r9364_p4029  
mc16_13TeV:mc16_13TeV.396438.MGPy8EG_A14N23LO_C1N2_Stau_250p0_150p0_2L1T.deriv.DAOD_SUSY3.e7232_a875_r9364_p4029  
mc16_13TeV:mc16_13TeV.396439.MGPy8EG_A14N23LO_C1N2_Stau_257p5_192p5_2L1T.deriv.DAOD_SUSY3.e7232_a875_r9364_p4029  
mc16_13TeV:mc16_13TeV.396440.MGPy8EG_A14N23LO_C1N2_Stau_267p5_232p5_2L1T.deriv.DAOD_SUSY3.e7232_a875_r9364_p4029  
mc16_13TeV:mc16_13TeV.396441.MGPy8EG_A14N23LO_C1N2_Stau_275p0_125p0_2L1T.deriv.DAOD_SUSY3.e7232_a875_r9364_p4029  
mc16_13TeV:mc16_13TeV.396442.MGPy8EG_A14N23LO_C1N2_Stau_275p0_175p0_2L1T.deriv.DAOD_SUSY3.e7232_a875_r9364_p4029  
mc16_13TeV:mc16_13TeV.396443.MGPy8EG_A14N23LO_C1N2_Stau_282p5_217p5_2L1T.deriv.DAOD_SUSY3.e7232_a875_r9364_p4029  
mc16_13TeV:mc16_13TeV.396444.MGPy8EG_A14N23LO_C1N2_Stau_300p0_0p0_2L1T.deriv.DAOD_SUSY3.e7232_a875_r9364_p4029    
mc16_13TeV:mc16_13TeV.396445.MGPy8EG_A14N23LO_C1N2_Stau_300p0_100p0_2L1T.deriv.DAOD_SUSY3.e7232_a875_r9364_p4029  
mc16_13TeV:mc16_13TeV.396446.MGPy8EG_A14N23LO_C1N2_Stau_300p0_150p0_2L1T.deriv.DAOD_SUSY3.e7232_a875_r9364_p4029  
mc16_13TeV:mc16_13TeV.396447.MGPy8EG_A14N23LO_C1N2_Stau_300p0_200p0_2L1T.deriv.DAOD_SUSY3.e7232_a875_r9364_p4029  
mc16_13TeV:mc16_13TeV.396448.MGPy8EG_A14N23LO_C1N2_Stau_325p0_125p0_2L1T.deriv.DAOD_SUSY3.e7232_a875_r9364_p4029  
mc16_13TeV:mc16_13TeV.396449.MGPy8EG_A14N23LO_C1N2_Stau_325p0_175p0_2L1T.deriv.DAOD_SUSY3.e7232_a875_r9364_p4029  
mc16_13TeV:mc16_13TeV.396450.MGPy8EG_A14N23LO_C1N2_Stau_325p0_225p0_2L1T.deriv.DAOD_SUSY3.e7232_a875_r9364_p4029  
mc16_13TeV:mc16_13TeV.396451.MGPy8EG_A14N23LO_C1N2_Stau_330p0_295p0_2L1T.deriv.DAOD_SUSY3.e7232_a875_r9364_p4029  
mc16_13TeV:mc16_13TeV.396452.MGPy8EG_A14N23LO_C1N2_Stau_345p0_280p0_2L1T.deriv.DAOD_SUSY3.e7232_a875_r9364_p4029  
mc16_13TeV:mc16_13TeV.396453.MGPy8EG_A14N23LO_C1N2_Stau_350p0_150p0_2L1T.deriv.DAOD_SUSY3.e7232_a875_r9364_p4029  
mc16_13TeV:mc16_13TeV.396454.MGPy8EG_A14N23LO_C1N2_Stau_350p0_200p0_2L1T.deriv.DAOD_SUSY3.e7232_a875_r9364_p4029  
mc16_13TeV:mc16_13TeV.396455.MGPy8EG_A14N23LO_C1N2_Stau_362p5_262p5_2L1T.deriv.DAOD_SUSY3.e7232_a875_r9364_p4029  
mc16_13TeV:mc16_13TeV.396456.MGPy8EG_A14N23LO_C1N2_Stau_375p0_175p0_2L1T.deriv.DAOD_SUSY3.e7232_a875_r9364_p4029  
mc16_13TeV:mc16_13TeV.396457.MGPy8EG_A14N23LO_C1N2_Stau_387p5_237p5_2L1T.deriv.DAOD_SUSY3.e7232_a875_r9364_p4029  
mc16_13TeV:mc16_13TeV.396458.MGPy8EG_A14N23LO_C1N2_Stau_400p0_0p0_2L1T.deriv.DAOD_SUSY3.e7232_a875_r9364_p4029    
mc16_13TeV:mc16_13TeV.396459.MGPy8EG_A14N23LO_C1N2_Stau_400p0_100p0_2L1T.deriv.DAOD_SUSY3.e7232_a875_r9364_p4029  
mc16_13TeV:mc16_13TeV.396460.MGPy8EG_A14N23LO_C1N2_Stau_400p0_300p0_2L1T.deriv.DAOD_SUSY3.e7232_a875_r9364_p4029  
mc16_13TeV:mc16_13TeV.396461.MGPy8EG_A14N23LO_C1N2_Stau_412p5_212p5_2L1T.deriv.DAOD_SUSY3.e7232_a875_r9364_p4029  
mc16_13TeV:mc16_13TeV.396462.MGPy8EG_A14N23LO_C1N2_Stau_425p0_275p0_2L1T.deriv.DAOD_SUSY3.e7232_a875_r9364_p4029  
mc16_13TeV:mc16_13TeV.396463.MGPy8EG_A14N23LO_C1N2_Stau_450p0_250p0_2L1T.deriv.DAOD_SUSY3.e7232_a875_r9364_p4029  
mc16_13TeV:mc16_13TeV.396464.MGPy8EG_A14N23LO_C1N2_Stau_450p0_350p0_2L1T.deriv.DAOD_SUSY3.e7232_a875_r9364_p4029  
mc16_13TeV:mc16_13TeV.396465.MGPy8EG_A14N23LO_C1N2_Stau_475p0_325p0_2L1T.deriv.DAOD_SUSY3.e7232_a875_r9364_p4029  
mc16_13TeV:mc16_13TeV.396466.MGPy8EG_A14N23LO_C1N2_Stau_500p0_0p0_2L1T.deriv.DAOD_SUSY3.e7232_a875_r9364_p4029    
mc16_13TeV:mc16_13TeV.396467.MGPy8EG_A14N23LO_C1N2_Stau_500p0_100p0_2L1T.deriv.DAOD_SUSY3.e7232_a875_r9364_p4029  
mc16_13TeV:mc16_13TeV.396468.MGPy8EG_A14N23LO_C1N2_Stau_500p0_200p0_2L1T.deriv.DAOD_SUSY3.e7232_a875_r9364_p4029  
mc16_13TeV:mc16_13TeV.396469.MGPy8EG_A14N23LO_C1N2_Stau_500p0_300p0_2L1T.deriv.DAOD_SUSY3.e7232_a875_r9364_p4029  
mc16_13TeV:mc16_13TeV.396470.MGPy8EG_A14N23LO_C1N2_Stau_500p0_400p0_2L1T.deriv.DAOD_SUSY3.e7232_a875_r9364_p4029  
mc16_13TeV:mc16_13TeV.396471.MGPy8EG_A14N23LO_C1N2_Stau_525p0_375p0_2L1T.deriv.DAOD_SUSY3.e7232_a875_r9364_p4029  
mc16_13TeV:mc16_13TeV.396472.MGPy8EG_A14N23LO_C1N2_Stau_550p0_350p0_2L1T.deriv.DAOD_SUSY3.e7232_a875_r9364_p4029  
mc16_13TeV:mc16_13TeV.396473.MGPy8EG_A14N23LO_C1N2_Stau_550p0_450p0_2L1T.deriv.DAOD_SUSY3.e7232_a875_r9364_p4029  
mc16_13TeV:mc16_13TeV.396474.MGPy8EG_A14N23LO_C1N2_Stau_575p0_425p0_2L1T.deriv.DAOD_SUSY3.e7232_a875_r9364_p4029  
mc16_13TeV:mc16_13TeV.396475.MGPy8EG_A14N23LO_C1N2_Stau_600p0_0p0_2L1T.deriv.DAOD_SUSY3.e7232_a875_r9364_p4029    
mc16_13TeV:mc16_13TeV.396476.MGPy8EG_A14N23LO_C1N2_Stau_600p0_100p0_2L1T.deriv.DAOD_SUSY3.e7232_a875_r9364_p4029  
mc16_13TeV:mc16_13TeV.396477.MGPy8EG_A14N23LO_C1N2_Stau_600p0_200p0_2L1T.deriv.DAOD_SUSY3.e7232_a875_r9364_p4029  
mc16_13TeV:mc16_13TeV.396478.MGPy8EG_A14N23LO_C1N2_Stau_600p0_300p0_2L1T.deriv.DAOD_SUSY3.e7232_a875_r9364_p4029  
mc16_13TeV:mc16_13TeV.396479.MGPy8EG_A14N23LO_C1N2_Stau_600p0_400p0_2L1T.deriv.DAOD_SUSY3.e7232_a875_r9364_p4029  
mc16_13TeV:mc16_13TeV.396480.MGPy8EG_A14N23LO_C1N2_Stau_600p0_500p0_2L1T.deriv.DAOD_SUSY3.e7234_a875_r9364_p4029  
mc16_13TeV:mc16_13TeV.396481.MGPy8EG_A14N23LO_C1N2_Stau_625p0_475p0_2L1T.deriv.DAOD_SUSY3.e7232_a875_r9364_p4029  
mc16_13TeV:mc16_13TeV.396482.MGPy8EG_A14N23LO_C1N2_Stau_650p0_350p0_2L1T.deriv.DAOD_SUSY3.e7232_a875_r9364_p4029  
mc16_13TeV:mc16_13TeV.396483.MGPy8EG_A14N23LO_C1N2_Stau_650p0_450p0_2L1T.deriv.DAOD_SUSY3.e7232_a875_r9364_p4029  
mc16_13TeV:mc16_13TeV.396484.MGPy8EG_A14N23LO_C1N2_Stau_650p0_550p0_2L1T.deriv.DAOD_SUSY3.e7232_a875_r9364_p4029  
mc16_13TeV:mc16_13TeV.396485.MGPy8EG_A14N23LO_C1N2_Stau_675p0_525p0_2L1T.deriv.DAOD_SUSY3.e7232_a875_r9364_p4029  
mc16_13TeV:mc16_13TeV.396486.MGPy8EG_A14N23LO_C1N2_Stau_700p0_0p0_2L1T.deriv.DAOD_SUSY3.e7232_a875_r9364_p4029    
mc16_13TeV:mc16_13TeV.396487.MGPy8EG_A14N23LO_C1N2_Stau_700p0_100p0_2L1T.deriv.DAOD_SUSY3.e7232_a875_r9364_p4029  
mc16_13TeV:mc16_13TeV.396488.MGPy8EG_A14N23LO_C1N2_Stau_700p0_200p0_2L1T.deriv.DAOD_SUSY3.e7232_a875_r9364_p4029  
mc16_13TeV:mc16_13TeV.396489.MGPy8EG_A14N23LO_C1N2_Stau_700p0_300p0_2L1T.deriv.DAOD_SUSY3.e7232_a875_r9364_p4029  
mc16_13TeV:mc16_13TeV.396490.MGPy8EG_A14N23LO_C1N2_Stau_700p0_400p0_2L1T.deriv.DAOD_SUSY3.e7232_a875_r9364_p4029  
mc16_13TeV:mc16_13TeV.396491.MGPy8EG_A14N23LO_C1N2_Stau_700p0_500p0_2L1T.deriv.DAOD_SUSY3.e7232_a875_r9364_p4029  
mc16_13TeV:mc16_13TeV.396492.MGPy8EG_A14N23LO_C1N2_Stau_700p0_600p0_2L1T.deriv.DAOD_SUSY3.e7232_a875_r9364_p4029  
mc16_13TeV:mc16_13TeV.396493.MGPy8EG_A14N23LO_C1N2_Stau_725p0_575p0_2L1T.deriv.DAOD_SUSY3.e7232_a875_r9364_p4029  
mc16_13TeV:mc16_13TeV.396494.MGPy8EG_A14N23LO_C1N2_Stau_750p0_450p0_2L1T.deriv.DAOD_SUSY3.e7232_a875_r9364_p4029  
mc16_13TeV:mc16_13TeV.396495.MGPy8EG_A14N23LO_C1N2_Stau_750p0_550p0_2L1T.deriv.DAOD_SUSY3.e7232_a875_r9364_p4029  
mc16_13TeV:mc16_13TeV.396496.MGPy8EG_A14N23LO_C1N2_Stau_800p0_0p0_2L1T.deriv.DAOD_SUSY3.e7232_a875_r9364_p4029    
mc16_13TeV:mc16_13TeV.396497.MGPy8EG_A14N23LO_C1N2_Stau_800p0_100p0_2L1T.deriv.DAOD_SUSY3.e7232_a875_r9364_p4029  
mc16_13TeV:mc16_13TeV.396498.MGPy8EG_A14N23LO_C1N2_Stau_800p0_200p0_2L1T.deriv.DAOD_SUSY3.e7232_a875_r9364_p4029  
mc16_13TeV:mc16_13TeV.396499.MGPy8EG_A14N23LO_C1N2_Stau_800p0_300p0_2L1T.deriv.DAOD_SUSY3.e7232_a875_r9364_p4029  
mc16_13TeV:mc16_13TeV.396500.MGPy8EG_A14N23LO_C1N2_Stau_800p0_400p0_2L1T.deriv.DAOD_SUSY3.e7232_a875_r9364_p4029  
mc16_13TeV:mc16_13TeV.396501.MGPy8EG_A14N23LO_C1N2_Stau_800p0_500p0_2L1T.deriv.DAOD_SUSY3.e7232_a875_r9364_p4029  
mc16_13TeV:mc16_13TeV.396502.MGPy8EG_A14N23LO_C1N2_Stau_800p0_600p0_2L1T.deriv.DAOD_SUSY3.e7232_a875_r9364_p4029  
mc16_13TeV:mc16_13TeV.396503.MGPy8EG_A14N23LO_C1N2_Stau_900p0_0p0_2L1T.deriv.DAOD_SUSY3.e7232_a875_r9364_p4029    
mc16_13TeV:mc16_13TeV.396504.MGPy8EG_A14N23LO_C1N2_Stau_900p0_100p0_2L1T.deriv.DAOD_SUSY3.e7232_a875_r9364_p4029  
mc16_13TeV:mc16_13TeV.396505.MGPy8EG_A14N23LO_C1N2_Stau_900p0_200p0_2L1T.deriv.DAOD_SUSY3.e7232_a875_r9364_p4029  
mc16_13TeV:mc16_13TeV.396506.MGPy8EG_A14N23LO_C1N2_Stau_900p0_300p0_2L1T.deriv.DAOD_SUSY3.e7232_a875_r9364_p4029  
mc16_13TeV:mc16_13TeV.396507.MGPy8EG_A14N23LO_C1N2_Stau_900p0_400p0_2L1T.deriv.DAOD_SUSY3.e7232_a875_r9364_p4029  
mc16_13TeV:mc16_13TeV.396508.MGPy8EG_A14N23LO_C1N2_Stau_900p0_500p0_2L1T.deriv.DAOD_SUSY3.e7232_a875_r9364_p4029  
mc16_13TeV:mc16_13TeV.396509.MGPy8EG_A14N23LO_C1N2_Stau_900p0_600p0_2L1T.deriv.DAOD_SUSY3.e7232_a875_r9364_p4029  
mc16_13TeV:mc16_13TeV.396510.MGPy8EG_A14N23LO_C1N2_Stau_1000p0_0p0_2L1T.deriv.DAOD_SUSY3.e7232_a875_r9364_p4029   
mc16_13TeV:mc16_13TeV.396511.MGPy8EG_A14N23LO_C1N2_Stau_1000p0_100p0_2L1T.deriv.DAOD_SUSY3.e7232_a875_r9364_p4029 
mc16_13TeV:mc16_13TeV.396512.MGPy8EG_A14N23LO_C1N2_Stau_1000p0_200p0_2L1T.deriv.DAOD_SUSY3.e7232_a875_r9364_p4029 
mc16_13TeV:mc16_13TeV.396513.MGPy8EG_A14N23LO_C1N2_Stau_1000p0_300p0_2L1T.deriv.DAOD_SUSY3.e7232_a875_r9364_p4029 
mc16_13TeV:mc16_13TeV.396514.MGPy8EG_A14N23LO_C1N2_Stau_1000p0_400p0_2L1T.deriv.DAOD_SUSY3.e7232_a875_r9364_p4029 
mc16_13TeV:mc16_13TeV.396515.MGPy8EG_A14N23LO_C1N2_Stau_1000p0_500p0_2L1T.deriv.DAOD_SUSY3.e7232_a875_r9364_p4029 
mc16_13TeV:mc16_13TeV.396516.MGPy8EG_A14N23LO_C1N2_Stau_1000p0_600p0_2L1T.deriv.DAOD_SUSY3.e7232_a875_r9364_p4029 
mc16_13TeV:mc16_13TeV.396517.MGPy8EG_A14N23LO_C1N2_Stau_1100p0_0p0_2L1T.deriv.DAOD_SUSY3.e7232_a875_r9364_p4029   
mc16_13TeV:mc16_13TeV.396518.MGPy8EG_A14N23LO_C1N2_Stau_1100p0_100p0_2L1T.deriv.DAOD_SUSY3.e7232_a875_r9364_p4029 
mc16_13TeV:mc16_13TeV.396519.MGPy8EG_A14N23LO_C1N2_Stau_1100p0_200p0_2L1T.deriv.DAOD_SUSY3.e7232_a875_r9364_p4029 
mc16_13TeV:mc16_13TeV.396520.MGPy8EG_A14N23LO_C1N2_Stau_1100p0_300p0_2L1T.deriv.DAOD_SUSY3.e7232_a875_r9364_p4029 
mc16_13TeV:mc16_13TeV.396521.MGPy8EG_A14N23LO_C1N2_Stau_1100p0_400p0_2L1T.deriv.DAOD_SUSY3.e7232_a875_r9364_p4029 
mc16_13TeV:mc16_13TeV.396522.MGPy8EG_A14N23LO_C1N2_Stau_1100p0_500p0_2L1T.deriv.DAOD_SUSY3.e7232_a875_r9364_p4029 
mc16_13TeV:mc16_13TeV.396523.MGPy8EG_A14N23LO_C1N2_Stau_1100p0_600p0_2L1T.deriv.DAOD_SUSY3.e7232_a875_r9364_p4029 
mc16_13TeV:mc16_13TeV.396524.MGPy8EG_A14N23LO_C1N2_Stau_1200p0_0p0_2L1T.deriv.DAOD_SUSY3.e7232_a875_r9364_p4029   
mc16_13TeV:mc16_13TeV.396525.MGPy8EG_A14N23LO_C1N2_Stau_1200p0_100p0_2L1T.deriv.DAOD_SUSY3.e7232_a875_r9364_p4029 
mc16_13TeV:mc16_13TeV.396526.MGPy8EG_A14N23LO_C1N2_Stau_1200p0_200p0_2L1T.deriv.DAOD_SUSY3.e7232_a875_r9364_p4029 
mc16_13TeV:mc16_13TeV.396527.MGPy8EG_A14N23LO_C1N2_Stau_1200p0_300p0_2L1T.deriv.DAOD_SUSY3.e7232_a875_r9364_p4029 
mc16_13TeV:mc16_13TeV.396528.MGPy8EG_A14N23LO_C1N2_Stau_1200p0_400p0_2L1T.deriv.DAOD_SUSY3.e7232_a875_r9364_p4029 
mc16_13TeV:mc16_13TeV.396529.MGPy8EG_A14N23LO_C1N2_Stau_1200p0_500p0_2L1T.deriv.DAOD_SUSY3.e7232_a875_r9364_p4029 
mc16_13TeV:mc16_13TeV.396530.MGPy8EG_A14N23LO_C1N2_Stau_1200p0_600p0_2L1T.deriv.DAOD_SUSY3.e7232_a875_r9364_p4029 
